\relax 
\providecommand\hyper@newdestlabel[2]{}
\@writefile{toc}{\contentsline {chapter}{\numberline {6}Leçon 13 -- Langage machine}{165}{chapter.6}\protected@file@percent }
\@writefile{lof}{\addvspace {10\p@ }}
\@writefile{lot}{\addvspace {10\p@ }}
\@writefile{lol}{\addvspace {10\p@ }}
\newlabel{cha:ISA}{{6}{165}{Leçon 13 -- Langage machine}{chapter.6}{}}
\@writefile{toc}{\contentsline {paragraph}{\nonumberline Remarque importante}{165}{section*.153}\protected@file@percent }
\@writefile{toc}{\contentsline {section}{\numberline {6.1}Notion d'architecture}{166}{section.6.1}\protected@file@percent }
\@writefile{toc}{\contentsline {paragraph}{\nonumberline Modèle mémoire}{167}{section*.154}\protected@file@percent }
\newlabel{ex:mod-memoire-486}{{6.1}{168}{Modèle mémoire}{section*.154}{}}
\@writefile{toc}{\contentsline {paragraph}{\nonumberline Registres}{169}{section*.155}\protected@file@percent }
\@writefile{toc}{\contentsline {paragraph}{\nonumberline Types de données}{169}{section*.156}\protected@file@percent }
\@writefile{toc}{\contentsline {section}{\numberline {6.2}Instructions machine typiques}{171}{section.6.2}\protected@file@percent }
\@writefile{toc}{\contentsline {paragraph}{\nonumberline Mouvements de données}{171}{section*.158}\protected@file@percent }
\@writefile{toc}{\contentsline {paragraph}{\nonumberline Instructions arithmétiques, logiques, etc}{171}{section*.159}\protected@file@percent }
\@writefile{lof}{\contentsline {figure}{\numberline {\relax 6.1}{\ignorespaces Instructions du 6502}}{172}{figure.caption.157}\protected@file@percent }
\newlabel{fig:6502}{{\relax 6.1}{172}{Instructions du 6502}{figure.caption.157}{}}
\@writefile{lof}{\contentsline {figure}{\numberline {\relax 6.2}{\ignorespaces Calcul de $b^2-4ac$ en langage machine i486.\relax }}{173}{figure.caption.160}\protected@file@percent }
\newlabel{fig:arith-486}{{\relax 6.2}{173}{Calcul de $b^2-4ac$ en langage machine i486.\relax }{figure.caption.160}{}}
\@writefile{toc}{\contentsline {paragraph}{\nonumberline Instructions de saut, comparaison et branchement}{173}{section*.161}\protected@file@percent }
\@writefile{toc}{\contentsline {paragraph}{\nonumberline Appels de procédures}{173}{section*.163}\protected@file@percent }
\@writefile{lof}{\contentsline {figure}{\numberline {\relax 6.3}{\ignorespaces Un <<~if~>> \textsc  {Python} en langage machine}}{174}{figure.caption.162}\protected@file@percent }
\newlabel{fig:python-to-asm-if}{{\relax 6.3}{174}{Un <<~if~>> \textsc {Python} en langage machine}{figure.caption.162}{}}
\@writefile{lof}{\contentsline {figure}{\numberline {\relax 6.4}{\ignorespaces Appels de procédures en langage machine.}}{175}{figure.caption.164}\protected@file@percent }
\newlabel{fig:python-asm-f}{{\relax 6.4}{175}{Appels de procédures en langage machine}{figure.caption.164}{}}
\@writefile{lof}{\contentsline {figure}{\numberline {\relax 6.5}{\ignorespaces Boucle en langage machine.}}{176}{figure.caption.166}\protected@file@percent }
\newlabel{fig:boucle-isa}{{\relax 6.5}{176}{Boucle en langage machine}{figure.caption.166}{}}
\@writefile{toc}{\contentsline {paragraph}{\nonumberline Boucles}{176}{section*.165}\protected@file@percent }
\@writefile{toc}{\contentsline {paragraph}{\nonumberline Entrées/sorties}{177}{section*.167}\protected@file@percent }
\@writefile{toc}{\contentsline {section}{\numberline {6.3}Mécanismes de protection}{177}{section.6.3}\protected@file@percent }
\newlabel{sec:mecan-de-prot}{{6.3}{177}{Mécanismes de protection}{section.6.3}{}}
\@writefile{toc}{\contentsline {section}{\numberline {6.4}Représentation des instructions et des opérandes}{179}{section.6.4}\protected@file@percent }
\@writefile{toc}{\contentsline {subsection}{\numberline {6.4.1}Opcodes à taille variable}{179}{subsection.6.4.1}\protected@file@percent }
\@writefile{toc}{\contentsline {subsection}{\numberline {6.4.2}Adressage}{181}{subsection.6.4.2}\protected@file@percent }
\@writefile{toc}{\contentsline {paragraph}{\nonumberline Adressage immédiat}{181}{section*.168}\protected@file@percent }
\@writefile{toc}{\contentsline {paragraph}{\nonumberline Adressage direct}{181}{section*.169}\protected@file@percent }
\@writefile{toc}{\contentsline {paragraph}{\nonumberline Adressage par registre}{181}{section*.170}\protected@file@percent }
\@writefile{toc}{\contentsline {paragraph}{\nonumberline Adressage par registre avec indirection}{181}{section*.171}\protected@file@percent }
\@writefile{lof}{\contentsline {figure}{\numberline {\relax 6.6}{\ignorespaces Exemples d'adressage}}{182}{figure.caption.172}\protected@file@percent }
\newlabel{fig:ex-adr}{{\relax 6.6}{182}{Exemples d'adressage}{figure.caption.172}{}}
\@writefile{toc}{\contentsline {paragraph}{\nonumberline Adressage indexé}{182}{section*.173}\protected@file@percent }
\@writefile{toc}{\contentsline {paragraph}{\nonumberline Adressage indexé avec base}{182}{section*.174}\protected@file@percent }
\@setckpt{chapters/06-niveau2}{
\setcounter{page}{184}
\setcounter{equation}{0}
\setcounter{enumi}{2}
\setcounter{enumii}{2}
\setcounter{enumiii}{0}
\setcounter{enumiv}{0}
\setcounter{footnote}{9}
\setcounter{mpfootnote}{0}
\setcounter{part}{4}
\setcounter{chapter}{6}
\setcounter{section}{4}
\setcounter{subsection}{2}
\setcounter{subsubsection}{0}
\setcounter{paragraph}{0}
\setcounter{subparagraph}{0}
\setcounter{figure}{6}
\setcounter{table}{0}
\setcounter{FBcaption@count}{0}
\setcounter{parentequation}{0}
\setcounter{lstnumber}{10}
\setcounter{exo}{0}
\setcounter{exercice}{0}
\setcounter{questnum}{0}
\setcounter{Item}{152}
\setcounter{Hfootnote}{103}
\setcounter{Hy@AnnotLevel}{0}
\setcounter{bookmark@seq@number}{0}
\setcounter{r@tfl@t}{4}
\setcounter{tabx@nest}{0}
\setcounter{listtotal}{0}
\setcounter{listcount}{0}
\setcounter{liststart}{0}
\setcounter{liststop}{0}
\setcounter{citecount}{0}
\setcounter{citetotal}{0}
\setcounter{multicitecount}{0}
\setcounter{multicitetotal}{0}
\setcounter{instcount}{59}
\setcounter{maxnames}{3}
\setcounter{minnames}{1}
\setcounter{maxitems}{3}
\setcounter{minitems}{1}
\setcounter{citecounter}{0}
\setcounter{maxcitecounter}{0}
\setcounter{savedcitecounter}{0}
\setcounter{uniquelist}{0}
\setcounter{uniquename}{0}
\setcounter{refsection}{0}
\setcounter{refsegment}{0}
\setcounter{maxextratitle}{0}
\setcounter{maxextratitleyear}{0}
\setcounter{maxextraname}{2}
\setcounter{maxextradate}{0}
\setcounter{maxextraalpha}{0}
\setcounter{abbrvpenalty}{50}
\setcounter{highnamepenalty}{50}
\setcounter{lownamepenalty}{25}
\setcounter{maxparens}{3}
\setcounter{parenlevel}{0}
\setcounter{mincomprange}{10}
\setcounter{maxcomprange}{100000}
\setcounter{mincompwidth}{1}
\setcounter{afterword}{0}
\setcounter{savedafterword}{0}
\setcounter{annotator}{0}
\setcounter{savedannotator}{0}
\setcounter{author}{0}
\setcounter{savedauthor}{0}
\setcounter{bookauthor}{0}
\setcounter{savedbookauthor}{0}
\setcounter{commentator}{0}
\setcounter{savedcommentator}{0}
\setcounter{editor}{0}
\setcounter{savededitor}{0}
\setcounter{editora}{0}
\setcounter{savededitora}{0}
\setcounter{editorb}{0}
\setcounter{savededitorb}{0}
\setcounter{editorc}{0}
\setcounter{savededitorc}{0}
\setcounter{foreword}{0}
\setcounter{savedforeword}{0}
\setcounter{holder}{0}
\setcounter{savedholder}{0}
\setcounter{introduction}{0}
\setcounter{savedintroduction}{0}
\setcounter{namea}{0}
\setcounter{savednamea}{0}
\setcounter{nameb}{0}
\setcounter{savednameb}{0}
\setcounter{namec}{0}
\setcounter{savednamec}{0}
\setcounter{translator}{0}
\setcounter{savedtranslator}{0}
\setcounter{shortauthor}{0}
\setcounter{savedshortauthor}{0}
\setcounter{shorteditor}{0}
\setcounter{savedshorteditor}{0}
\setcounter{labelname}{0}
\setcounter{savedlabelname}{0}
\setcounter{institution}{0}
\setcounter{savedinstitution}{0}
\setcounter{lista}{0}
\setcounter{savedlista}{0}
\setcounter{listb}{0}
\setcounter{savedlistb}{0}
\setcounter{listc}{0}
\setcounter{savedlistc}{0}
\setcounter{listd}{0}
\setcounter{savedlistd}{0}
\setcounter{liste}{0}
\setcounter{savedliste}{0}
\setcounter{listf}{0}
\setcounter{savedlistf}{0}
\setcounter{location}{0}
\setcounter{savedlocation}{0}
\setcounter{organization}{0}
\setcounter{savedorganization}{0}
\setcounter{origlocation}{0}
\setcounter{savedoriglocation}{0}
\setcounter{origpublisher}{0}
\setcounter{savedorigpublisher}{0}
\setcounter{publisher}{0}
\setcounter{savedpublisher}{0}
\setcounter{language}{0}
\setcounter{savedlanguage}{0}
\setcounter{origlanguage}{0}
\setcounter{savedoriglanguage}{0}
\setcounter{pageref}{0}
\setcounter{savedpageref}{0}
\setcounter{textcitecount}{0}
\setcounter{textcitetotal}{0}
\setcounter{textcitemaxnames}{0}
\setcounter{biburlnumpenalty}{0}
\setcounter{biburlucpenalty}{0}
\setcounter{biburllcpenalty}{0}
\setcounter{smartand}{1}
\setcounter{bbx:relatedcount}{0}
\setcounter{bbx:relatedtotal}{0}
\setcounter{ifsymcnt}{0}
\setcounter{caption@flags}{0}
\setcounter{ContinuedFloat}{0}
\setcounter{@todonotes@numberoftodonotes}{0}
\setcounter{tikztiming@nrows}{3}
\setcounter{tikztimingrows}{0}
\setcounter{tikztimingtrans}{-1}
\setcounter{tikztimingtranspos}{0}
\setcounter{theorem}{1}
\setcounter{lstlisting}{0}
\setcounter{section@level}{4}
}
