PWD /Users/tmassart/git/NSI/Glossaire_Python_Sphinx/_build/latex
INPUT /usr/local/texlive/2019/texmf.cnf
INPUT /usr/local/texlive/2019/texmf-dist/web2c/texmf.cnf
INPUT /usr/local/texlive/2019/texmf-var/web2c/pdftex/pdflatex.fmt
INPUT mooc_nsi.tex
OUTPUT mooc_nsi.log
INPUT sphinxmanual.cls
INPUT sphinxmanual.cls
INPUT /usr/local/texlive/2019/texmf-dist/tex/latex/base/report.cls
INPUT /usr/local/texlive/2019/texmf-dist/tex/latex/base/report.cls
INPUT /usr/local/texlive/2019/texmf-dist/tex/latex/base/size10.clo
INPUT /usr/local/texlive/2019/texmf-dist/tex/latex/base/size10.clo
INPUT /usr/local/texlive/2019/texmf-dist/tex/latex/base/inputenc.sty
INPUT /usr/local/texlive/2019/texmf-dist/tex/latex/base/inputenc.sty
INPUT /usr/local/texlive/2019/texmf-dist/tex/latex/cmap/cmap.sty
INPUT /usr/local/texlive/2019/texmf-dist/tex/latex/cmap/cmap.sty
INPUT /usr/local/texlive/2019/texmf-dist/tex/latex/base/fontenc.sty
INPUT /usr/local/texlive/2019/texmf-dist/tex/latex/base/fontenc.sty
INPUT /usr/local/texlive/2019/texmf-dist/tex/latex/base/t1enc.def
INPUT /usr/local/texlive/2019/texmf-dist/tex/latex/base/t1enc.def
INPUT /usr/local/texlive/2019/texmf-dist/fonts/map/fontname/texfonts.map
INPUT /usr/local/texlive/2019/texmf-dist/fonts/tfm/jknappen/ec/ecrm1000.tfm
INPUT /usr/local/texlive/2019/texmf-dist/tex/latex/cmap/t1.cmap
OUTPUT mooc_nsi.pdf
INPUT /usr/local/texlive/2019/texmf-dist/tex/latex/cmap/t1.cmap
INPUT /usr/local/texlive/2019/texmf-dist/tex/latex/amsmath/amsmath.sty
INPUT /usr/local/texlive/2019/texmf-dist/tex/latex/amsmath/amsmath.sty
INPUT /usr/local/texlive/2019/texmf-dist/tex/latex/amsmath/amstext.sty
INPUT /usr/local/texlive/2019/texmf-dist/tex/latex/amsmath/amstext.sty
INPUT /usr/local/texlive/2019/texmf-dist/tex/latex/amsmath/amsgen.sty
INPUT /usr/local/texlive/2019/texmf-dist/tex/latex/amsmath/amsgen.sty
INPUT /usr/local/texlive/2019/texmf-dist/tex/latex/amsmath/amsbsy.sty
INPUT /usr/local/texlive/2019/texmf-dist/tex/latex/amsmath/amsbsy.sty
INPUT /usr/local/texlive/2019/texmf-dist/tex/latex/amsmath/amsopn.sty
INPUT /usr/local/texlive/2019/texmf-dist/tex/latex/amsmath/amsopn.sty
INPUT /usr/local/texlive/2019/texmf-dist/tex/latex/amsfonts/amssymb.sty
INPUT /usr/local/texlive/2019/texmf-dist/tex/latex/amsfonts/amssymb.sty
INPUT /usr/local/texlive/2019/texmf-dist/tex/latex/amsfonts/amsfonts.sty
INPUT /usr/local/texlive/2019/texmf-dist/tex/latex/amsfonts/amsfonts.sty
INPUT /usr/local/texlive/2019/texmf-dist/tex/generic/babel/babel.sty
INPUT /usr/local/texlive/2019/texmf-dist/tex/generic/babel/babel.sty
INPUT /usr/local/texlive/2019/texmf-dist/tex/generic/babel/switch.def
INPUT /usr/local/texlive/2019/texmf-dist/tex/generic/babel-french/french.ldf
INPUT /usr/local/texlive/2019/texmf-dist/tex/generic/babel-french/french.ldf
INPUT /usr/local/texlive/2019/texmf-dist/tex/generic/babel-french/french.ldf
INPUT /usr/local/texlive/2019/texmf-dist/tex/generic/babel/babel.def
INPUT /usr/local/texlive/2019/texmf-dist/tex/generic/babel/txtbabel.def
INPUT /usr/local/texlive/2019/texmf-dist/tex/latex/carlisle/scalefnt.sty
INPUT /usr/local/texlive/2019/texmf-dist/tex/latex/carlisle/scalefnt.sty
INPUT /usr/local/texlive/2019/texmf-dist/tex/latex/graphics/keyval.sty
INPUT /usr/local/texlive/2019/texmf-dist/tex/latex/graphics/keyval.sty
INPUT /usr/local/texlive/2019/texmf-dist/tex/latex/psnfss/times.sty
INPUT /usr/local/texlive/2019/texmf-dist/tex/latex/psnfss/times.sty
INPUT /usr/local/texlive/2019/texmf-dist/tex/latex/fncychap/fncychap.sty
INPUT /usr/local/texlive/2019/texmf-dist/tex/latex/fncychap/fncychap.sty
INPUT sphinx.sty
INPUT sphinx.sty
INPUT /usr/local/texlive/2019/texmf-dist/tex/generic/oberdiek/ltxcmds.sty
INPUT /usr/local/texlive/2019/texmf-dist/tex/generic/oberdiek/ltxcmds.sty
INPUT /usr/local/texlive/2019/texmf-dist/tex/latex/graphics/graphicx.sty
INPUT /usr/local/texlive/2019/texmf-dist/tex/latex/graphics/graphicx.sty
INPUT /usr/local/texlive/2019/texmf-dist/tex/latex/graphics/graphics.sty
INPUT /usr/local/texlive/2019/texmf-dist/tex/latex/graphics/graphics.sty
INPUT /usr/local/texlive/2019/texmf-dist/tex/latex/graphics/trig.sty
INPUT /usr/local/texlive/2019/texmf-dist/tex/latex/graphics/trig.sty
INPUT /usr/local/texlive/2019/texmf-dist/tex/latex/graphics-cfg/graphics.cfg
INPUT /usr/local/texlive/2019/texmf-dist/tex/latex/graphics-cfg/graphics.cfg
INPUT /usr/local/texlive/2019/texmf-dist/tex/latex/graphics-def/pdftex.def
INPUT /usr/local/texlive/2019/texmf-dist/tex/latex/graphics-def/pdftex.def
INPUT /usr/local/texlive/2019/texmf-dist/tex/latex/fancyhdr/fancyhdr.sty
INPUT /usr/local/texlive/2019/texmf-dist/tex/latex/fancyhdr/fancyhdr.sty
INPUT /usr/local/texlive/2019/texmf-dist/tex/latex/base/textcomp.sty
INPUT /usr/local/texlive/2019/texmf-dist/tex/latex/base/textcomp.sty
INPUT /usr/local/texlive/2019/texmf-dist/tex/latex/base/ts1enc.def
INPUT /usr/local/texlive/2019/texmf-dist/tex/latex/base/ts1enc.def
INPUT /usr/local/texlive/2019/texmf-dist/tex/latex/base/ts1enc.dfu
INPUT /usr/local/texlive/2019/texmf-dist/tex/latex/base/ts1enc.dfu
INPUT /usr/local/texlive/2019/texmf-dist/tex/latex/titlesec/titlesec.sty
INPUT /usr/local/texlive/2019/texmf-dist/tex/latex/titlesec/titlesec.sty
INPUT /usr/local/texlive/2019/texmf-dist/tex/latex/tabulary/tabulary.sty
INPUT /usr/local/texlive/2019/texmf-dist/tex/latex/tabulary/tabulary.sty
INPUT /usr/local/texlive/2019/texmf-dist/tex/latex/tools/array.sty
INPUT /usr/local/texlive/2019/texmf-dist/tex/latex/tools/array.sty
INPUT /usr/local/texlive/2019/texmf-dist/tex/latex/tools/longtable.sty
INPUT /usr/local/texlive/2019/texmf-dist/tex/latex/tools/longtable.sty
INPUT /usr/local/texlive/2019/texmf-dist/tex/latex/varwidth/varwidth.sty
INPUT /usr/local/texlive/2019/texmf-dist/tex/latex/varwidth/varwidth.sty
INPUT sphinxmulticell.sty
INPUT sphinxmulticell.sty
INPUT /usr/local/texlive/2019/texmf-dist/tex/latex/base/makeidx.sty
INPUT /usr/local/texlive/2019/texmf-dist/tex/latex/base/makeidx.sty
INPUT /usr/local/texlive/2019/texmf-dist/tex/latex/framed/framed.sty
INPUT /usr/local/texlive/2019/texmf-dist/tex/latex/framed/framed.sty
INPUT /usr/local/texlive/2019/texmf-dist/tex/latex/xcolor/xcolor.sty
INPUT /usr/local/texlive/2019/texmf-dist/tex/latex/xcolor/xcolor.sty
INPUT /usr/local/texlive/2019/texmf-dist/tex/latex/xcolor/xcolor.sty
INPUT /usr/local/texlive/2019/texmf-dist/tex/latex/graphics-cfg/color.cfg
INPUT /usr/local/texlive/2019/texmf-dist/tex/latex/graphics-cfg/color.cfg
INPUT /usr/local/texlive/2019/texmf-dist/tex/latex/fancyvrb/fancyvrb.sty
INPUT /usr/local/texlive/2019/texmf-dist/tex/latex/fancyvrb/fancyvrb.sty
INPUT footnotehyper-sphinx.sty
INPUT footnotehyper-sphinx.sty
INPUT /usr/local/texlive/2019/texmf-dist/tex/latex/float/float.sty
INPUT /usr/local/texlive/2019/texmf-dist/tex/latex/float/float.sty
INPUT /usr/local/texlive/2019/texmf-dist/tex/latex/wrapfig/wrapfig.sty
INPUT /usr/local/texlive/2019/texmf-dist/tex/latex/wrapfig/wrapfig.sty
INPUT /usr/local/texlive/2019/texmf-dist/tex/latex/parskip/parskip-2001-04-09.sty
INPUT /usr/local/texlive/2019/texmf-dist/tex/latex/parskip/parskip.sty
INPUT /usr/local/texlive/2019/texmf-dist/tex/latex/parskip/parskip.sty
INPUT /usr/local/texlive/2019/texmf-dist/tex/latex/parskip/parskip-2001-04-09.sty
INPUT /usr/local/texlive/2019/texmf-dist/tex/latex/base/alltt.sty
INPUT /usr/local/texlive/2019/texmf-dist/tex/latex/base/alltt.sty
INPUT /usr/local/texlive/2019/texmf-dist/tex/latex/upquote/upquote.sty
INPUT /usr/local/texlive/2019/texmf-dist/tex/latex/upquote/upquote.sty
INPUT /usr/local/texlive/2019/texmf-dist/tex/latex/capt-of/capt-of.sty
INPUT /usr/local/texlive/2019/texmf-dist/tex/latex/capt-of/capt-of.sty
INPUT /usr/local/texlive/2019/texmf-dist/tex/latex/needspace/needspace.sty
INPUT /usr/local/texlive/2019/texmf-dist/tex/latex/needspace/needspace.sty
INPUT sphinxhighlight.sty
INPUT sphinxhighlight.sty
INPUT /usr/local/texlive/2019/texmf-dist/tex/latex/oberdiek/kvoptions.sty
INPUT /usr/local/texlive/2019/texmf-dist/tex/latex/oberdiek/kvoptions.sty
INPUT /usr/local/texlive/2019/texmf-dist/tex/generic/oberdiek/kvsetkeys.sty
INPUT /usr/local/texlive/2019/texmf-dist/tex/generic/oberdiek/kvsetkeys.sty
INPUT /usr/local/texlive/2019/texmf-dist/tex/generic/oberdiek/infwarerr.sty
INPUT /usr/local/texlive/2019/texmf-dist/tex/generic/oberdiek/infwarerr.sty
INPUT /usr/local/texlive/2019/texmf-dist/tex/generic/oberdiek/etexcmds.sty
INPUT /usr/local/texlive/2019/texmf-dist/tex/generic/oberdiek/etexcmds.sty
INPUT /usr/local/texlive/2019/texmf-dist/tex/generic/oberdiek/ifluatex.sty
INPUT /usr/local/texlive/2019/texmf-dist/tex/generic/oberdiek/ifluatex.sty
INPUT /usr/local/texlive/2019/texmf-dist/tex/latex/geometry/geometry.sty
INPUT /usr/local/texlive/2019/texmf-dist/tex/latex/geometry/geometry.sty
INPUT /usr/local/texlive/2019/texmf-dist/tex/generic/oberdiek/ifpdf.sty
INPUT /usr/local/texlive/2019/texmf-dist/tex/generic/oberdiek/ifpdf.sty
INPUT /usr/local/texlive/2019/texmf-dist/tex/generic/oberdiek/ifvtex.sty
INPUT /usr/local/texlive/2019/texmf-dist/tex/generic/oberdiek/ifvtex.sty
INPUT /usr/local/texlive/2019/texmf-dist/tex/generic/ifxetex/ifxetex.sty
INPUT /usr/local/texlive/2019/texmf-dist/tex/generic/ifxetex/ifxetex.sty
INPUT /usr/local/texlive/2019/texmf-dist/tex/latex/hyperref/hyperref.sty
INPUT /usr/local/texlive/2019/texmf-dist/tex/latex/hyperref/hyperref.sty
INPUT /usr/local/texlive/2019/texmf-dist/tex/generic/oberdiek/hobsub-hyperref.sty
INPUT /usr/local/texlive/2019/texmf-dist/tex/generic/oberdiek/hobsub-hyperref.sty
INPUT /usr/local/texlive/2019/texmf-dist/tex/generic/oberdiek/hobsub-hyperref.sty
INPUT /usr/local/texlive/2019/texmf-dist/tex/generic/oberdiek/hobsub-generic.sty
INPUT /usr/local/texlive/2019/texmf-dist/tex/generic/oberdiek/hobsub-generic.sty
INPUT /usr/local/texlive/2019/texmf-dist/tex/latex/oberdiek/auxhook.sty
INPUT /usr/local/texlive/2019/texmf-dist/tex/latex/oberdiek/auxhook.sty
INPUT /usr/local/texlive/2019/texmf-dist/tex/latex/hyperref/pd1enc.def
INPUT /usr/local/texlive/2019/texmf-dist/tex/latex/hyperref/pd1enc.def
INPUT /usr/local/texlive/2019/texmf-dist/tex/latex/latexconfig/hyperref.cfg
INPUT /usr/local/texlive/2019/texmf-dist/tex/latex/latexconfig/hyperref.cfg
INPUT /usr/local/texlive/2019/texmf-dist/tex/latex/hyperref/puenc.def
INPUT /usr/local/texlive/2019/texmf-dist/tex/latex/hyperref/puenc.def
INPUT /usr/local/texlive/2019/texmf-dist/tex/latex/url/url.sty
INPUT /usr/local/texlive/2019/texmf-dist/tex/latex/url/url.sty
INPUT /usr/local/texlive/2019/texmf-dist/tex/latex/hyperref/hpdftex.def
INPUT /usr/local/texlive/2019/texmf-dist/tex/latex/hyperref/hpdftex.def
INPUT /usr/local/texlive/2019/texmf-dist/tex/latex/oberdiek/rerunfilecheck.sty
INPUT /usr/local/texlive/2019/texmf-dist/tex/latex/oberdiek/rerunfilecheck.sty
INPUT /usr/local/texlive/2019/texmf-dist/tex/latex/oberdiek/hypcap.sty
INPUT /usr/local/texlive/2019/texmf-dist/tex/latex/oberdiek/hypcap.sty
INPUT sphinxmessages.sty
INPUT sphinxmessages.sty
OUTPUT mooc_nsi.idx
INPUT mooc_nsi.aux
INPUT mooc_nsi.aux
OUTPUT mooc_nsi.aux
INPUT /usr/local/texlive/2019/texmf-dist/tex/latex/base/ts1cmr.fd
INPUT /usr/local/texlive/2019/texmf-dist/tex/latex/base/ts1cmr.fd
INPUT /usr/local/texlive/2019/texmf-dist/tex/latex/psnfss/t1ptm.fd
INPUT /usr/local/texlive/2019/texmf-dist/tex/latex/psnfss/t1ptm.fd
INPUT /usr/local/texlive/2019/texmf-dist/fonts/tfm/adobe/times/ptmr8t.tfm
INPUT /usr/local/texlive/2019/texmf-dist/tex/context/base/mkii/supp-pdf.mkii
INPUT /usr/local/texlive/2019/texmf-dist/tex/context/base/mkii/supp-pdf.mkii
INPUT /usr/local/texlive/2019/texmf-dist/tex/latex/oberdiek/epstopdf-base.sty
INPUT /usr/local/texlive/2019/texmf-dist/tex/latex/oberdiek/epstopdf-base.sty
INPUT /usr/local/texlive/2019/texmf-dist/tex/latex/oberdiek/grfext.sty
INPUT /usr/local/texlive/2019/texmf-dist/tex/latex/oberdiek/grfext.sty
INPUT /usr/local/texlive/2019/texmf-dist/tex/latex/latexconfig/epstopdf-sys.cfg
INPUT /usr/local/texlive/2019/texmf-dist/tex/latex/latexconfig/epstopdf-sys.cfg
INPUT /usr/local/texlive/2019/texmf-dist/tex/latex/hyperref/nameref.sty
INPUT /usr/local/texlive/2019/texmf-dist/tex/latex/hyperref/nameref.sty
INPUT /usr/local/texlive/2019/texmf-dist/tex/generic/oberdiek/gettitlestring.sty
INPUT /usr/local/texlive/2019/texmf-dist/tex/generic/oberdiek/gettitlestring.sty
INPUT mooc_nsi.out
INPUT mooc_nsi.out
INPUT mooc_nsi.out
INPUT mooc_nsi.out
INPUT ./mooc_nsi.out
INPUT ./mooc_nsi.out
OUTPUT mooc_nsi.out
INPUT /usr/local/texlive/2019/texmf-dist/tex/latex/psnfss/t1phv.fd
INPUT /usr/local/texlive/2019/texmf-dist/tex/latex/psnfss/t1phv.fd
INPUT /usr/local/texlive/2019/texmf-dist/fonts/tfm/adobe/helvetic/phvr8t.tfm
INPUT /usr/local/texlive/2019/texmf-dist/fonts/tfm/adobe/helvetic/phvb8t.tfm
INPUT /usr/local/texlive/2019/texmf-dist/fonts/tfm/adobe/helvetic/phvb8t.tfm
INPUT /usr/local/texlive/2019/texmf-dist/fonts/tfm/adobe/helvetic/phvbo8t.tfm
INPUT /usr/local/texlive/2019/texmf-dist/fonts/tfm/adobe/helvetic/phvbo8t.tfm
INPUT /usr/local/texlive/2019/texmf-dist/fonts/tfm/adobe/helvetic/phvb8t.tfm
INPUT /usr/local/texlive/2019/texmf-dist/fonts/tfm/public/cm/cmr17.tfm
INPUT /usr/local/texlive/2019/texmf-dist/tex/latex/cmap/ot1.cmap
INPUT /usr/local/texlive/2019/texmf-dist/tex/latex/cmap/ot1.cmap
INPUT /usr/local/texlive/2019/texmf-dist/fonts/tfm/public/cm/cmr12.tfm
INPUT /usr/local/texlive/2019/texmf-dist/fonts/tfm/public/cm/cmmi12.tfm
INPUT /usr/local/texlive/2019/texmf-dist/tex/latex/mmap/oml.cmap
INPUT /usr/local/texlive/2019/texmf-dist/tex/latex/mmap/oml.cmap
INPUT /usr/local/texlive/2019/texmf-dist/fonts/tfm/public/cm/cmmi12.tfm
INPUT /usr/local/texlive/2019/texmf-dist/fonts/tfm/public/cm/cmsy10.tfm
INPUT /usr/local/texlive/2019/texmf-dist/tex/latex/mmap/oms.cmap
INPUT /usr/local/texlive/2019/texmf-dist/tex/latex/mmap/oms.cmap
INPUT /usr/local/texlive/2019/texmf-dist/fonts/tfm/public/cm/cmsy10.tfm
INPUT /usr/local/texlive/2019/texmf-dist/fonts/tfm/public/cm/cmex10.tfm
INPUT /usr/local/texlive/2019/texmf-dist/tex/latex/mmap/omx.cmap
INPUT /usr/local/texlive/2019/texmf-dist/tex/latex/mmap/omx.cmap
INPUT /usr/local/texlive/2019/texmf-dist/fonts/tfm/public/cm/cmex10.tfm
INPUT /usr/local/texlive/2019/texmf-dist/tex/latex/amsfonts/umsa.fd
INPUT /usr/local/texlive/2019/texmf-dist/tex/latex/amsfonts/umsa.fd
INPUT /usr/local/texlive/2019/texmf-dist/fonts/tfm/public/amsfonts/symbols/msam10.tfm
INPUT /usr/local/texlive/2019/texmf-dist/fonts/tfm/public/amsfonts/symbols/msam10.tfm
INPUT /usr/local/texlive/2019/texmf-dist/fonts/tfm/public/amsfonts/symbols/msam10.tfm
INPUT /usr/local/texlive/2019/texmf-dist/tex/latex/amsfonts/umsb.fd
INPUT /usr/local/texlive/2019/texmf-dist/tex/latex/amsfonts/umsb.fd
INPUT /usr/local/texlive/2019/texmf-dist/fonts/tfm/public/amsfonts/symbols/msbm10.tfm
INPUT /usr/local/texlive/2019/texmf-dist/fonts/tfm/public/amsfonts/symbols/msbm10.tfm
INPUT /usr/local/texlive/2019/texmf-dist/fonts/tfm/public/amsfonts/symbols/msbm10.tfm
INPUT /usr/local/texlive/2019/texmf-dist/fonts/tfm/adobe/helvetic/phvb8t.tfm
INPUT /usr/local/texlive/2019/texmf-dist/fonts/vf/adobe/helvetic/phvb8t.vf
INPUT /usr/local/texlive/2019/texmf-dist/fonts/tfm/adobe/helvetic/phvb8r.tfm
INPUT /usr/local/texlive/2019/texmf-var/fonts/map/pdftex/updmap/pdftex.map
INPUT /usr/local/texlive/2019/texmf-dist/fonts/vf/adobe/helvetic/phvbo8t.vf
INPUT /usr/local/texlive/2019/texmf-dist/fonts/tfm/adobe/helvetic/phvbo8r.tfm
INPUT /usr/local/texlive/2019/texmf-dist/fonts/vf/adobe/helvetic/phvb8t.vf
INPUT /usr/local/texlive/2019/texmf-dist/fonts/tfm/adobe/helvetic/phvb8r.tfm
INPUT /usr/local/texlive/2019/texmf-dist/fonts/vf/adobe/helvetic/phvb8t.vf
INPUT /usr/local/texlive/2019/texmf-dist/fonts/tfm/adobe/helvetic/phvb8r.tfm
INPUT /usr/local/texlive/2019/texmf-dist/fonts/tfm/adobe/times/ptmr8t.tfm
INPUT /usr/local/texlive/2019/texmf-dist/fonts/tfm/adobe/helvetic/phvr8t.tfm
INPUT mooc_nsi.toc
INPUT mooc_nsi.toc
INPUT /usr/local/texlive/2019/texmf-dist/fonts/tfm/adobe/times/ptmb8t.tfm
OUTPUT mooc_nsi.toc
INPUT /usr/local/texlive/2019/texmf-dist/fonts/vf/adobe/helvetic/phvr8t.vf
INPUT /usr/local/texlive/2019/texmf-dist/fonts/tfm/adobe/helvetic/phvr8r.tfm
INPUT /usr/local/texlive/2019/texmf-dist/fonts/vf/adobe/times/ptmb8t.vf
INPUT /usr/local/texlive/2019/texmf-dist/fonts/tfm/adobe/times/ptmb8r.tfm
INPUT /usr/local/texlive/2019/texmf-dist/fonts/vf/adobe/helvetic/phvb8t.vf
INPUT /usr/local/texlive/2019/texmf-dist/fonts/tfm/adobe/helvetic/phvb8r.tfm
INPUT /usr/local/texlive/2019/texmf-dist/fonts/tfm/adobe/helvetic/phvr8t.tfm
INPUT /usr/local/texlive/2019/texmf-dist/fonts/tfm/adobe/times/ptmri8t.tfm
INPUT /usr/local/texlive/2019/texmf-dist/fonts/tfm/adobe/times/ptmr8t.tfm
INPUT /usr/local/texlive/2019/texmf-dist/tex/latex/psnfss/t1pcr.fd
INPUT /usr/local/texlive/2019/texmf-dist/tex/latex/psnfss/t1pcr.fd
INPUT /usr/local/texlive/2019/texmf-dist/fonts/tfm/adobe/courier/pcrr8t.tfm
INPUT /usr/local/texlive/2019/texmf-dist/fonts/tfm/adobe/courier/pcrr8t.tfm
INPUT /usr/local/texlive/2019/texmf-dist/fonts/tfm/public/amsfonts/cmextra/cmex7.tfm
INPUT /usr/local/texlive/2019/texmf-dist/fonts/tfm/public/amsfonts/symbols/msam5.tfm
INPUT /usr/local/texlive/2019/texmf-dist/fonts/tfm/public/amsfonts/symbols/msbm5.tfm
INPUT /usr/local/texlive/2019/texmf-dist/fonts/tfm/adobe/courier/pcrb8t.tfm
INPUT /usr/local/texlive/2019/texmf-dist/fonts/tfm/adobe/courier/pcrr8t.tfm
INPUT /usr/local/texlive/2019/texmf-dist/fonts/vf/adobe/helvetic/phvr8t.vf
INPUT /usr/local/texlive/2019/texmf-dist/fonts/tfm/adobe/helvetic/phvr8r.tfm
INPUT /usr/local/texlive/2019/texmf-dist/fonts/vf/adobe/times/ptmr8t.vf
INPUT /usr/local/texlive/2019/texmf-dist/fonts/tfm/adobe/times/ptmr8r.tfm
INPUT /usr/local/texlive/2019/texmf-dist/fonts/vf/adobe/times/ptmri8t.vf
INPUT /usr/local/texlive/2019/texmf-dist/fonts/tfm/adobe/times/ptmri8r.tfm
INPUT /usr/local/texlive/2019/texmf-dist/fonts/vf/adobe/courier/pcrb8t.vf
INPUT /usr/local/texlive/2019/texmf-dist/fonts/tfm/adobe/courier/pcrb8r.tfm
INPUT /usr/local/texlive/2019/texmf-dist/fonts/vf/adobe/courier/pcrr8t.vf
INPUT /usr/local/texlive/2019/texmf-dist/fonts/tfm/adobe/courier/pcrr8r.tfm
INPUT /usr/local/texlive/2019/texmf-dist/fonts/vf/adobe/courier/pcrr8t.vf
INPUT /usr/local/texlive/2019/texmf-dist/fonts/tfm/adobe/courier/pcrr8r.tfm
INPUT /usr/local/texlive/2019/texmf-dist/tex/latex/psnfss/ts1pcr.fd
INPUT /usr/local/texlive/2019/texmf-dist/tex/latex/psnfss/ts1pcr.fd
INPUT /usr/local/texlive/2019/texmf-dist/fonts/tfm/adobe/courier/pcrr8c.tfm
INPUT /usr/local/texlive/2019/texmf-dist/fonts/tfm/adobe/times/ptmbi8t.tfm
INPUT /usr/local/texlive/2019/texmf-dist/fonts/tfm/adobe/courier/pcrr8c.tfm
INPUT /usr/local/texlive/2019/texmf-dist/fonts/vf/adobe/courier/pcrr8c.vf
INPUT /usr/local/texlive/2019/texmf-dist/fonts/vf/adobe/times/ptmbi8t.vf
INPUT /usr/local/texlive/2019/texmf-dist/fonts/tfm/adobe/times/ptmbi8r.tfm
INPUT /usr/local/texlive/2019/texmf-dist/fonts/vf/adobe/courier/pcrr8c.vf
INPUT /usr/local/texlive/2019/texmf-dist/tex/latex/psnfss/ts1ptm.fd
INPUT /usr/local/texlive/2019/texmf-dist/tex/latex/psnfss/ts1ptm.fd
INPUT /usr/local/texlive/2019/texmf-dist/fonts/tfm/adobe/times/ptmri8c.tfm
INPUT /usr/local/texlive/2019/texmf-dist/fonts/vf/adobe/times/ptmri8c.vf
INPUT mooc_nsi.ind
INPUT mooc_nsi.ind
INPUT mooc_nsi.aux
INPUT ./mooc_nsi.out
INPUT ./mooc_nsi.out
INPUT /usr/local/texlive/2019/texmf-dist/fonts/enc/dvips/base/8r.enc
INPUT /usr/local/texlive/2019/texmf-dist/fonts/type1/urw/courier/ucrb8a.pfb
INPUT /usr/local/texlive/2019/texmf-dist/fonts/type1/urw/courier/ucrr8a.pfb
INPUT /usr/local/texlive/2019/texmf-dist/fonts/type1/urw/helvetic/uhvb8a.pfb
INPUT /usr/local/texlive/2019/texmf-dist/fonts/type1/urw/helvetic/uhvbo8a.pfb
INPUT /usr/local/texlive/2019/texmf-dist/fonts/type1/urw/helvetic/uhvr8a.pfb
INPUT /usr/local/texlive/2019/texmf-dist/fonts/type1/urw/times/utmb8a.pfb
INPUT /usr/local/texlive/2019/texmf-dist/fonts/type1/urw/times/utmbi8a.pfb
INPUT /usr/local/texlive/2019/texmf-dist/fonts/type1/urw/times/utmr8a.pfb
INPUT /usr/local/texlive/2019/texmf-dist/fonts/type1/urw/times/utmri8a.pfb
