code;nom;capitale;aire;pop;continent
AD;Andorra;Andorra la Vella;468;77006;EU
AE;United Arab Emirates;Abu Dhabi;82880;9630959;AS
AF;Afghanistan;Kabul;647500;37172386;AS
AG;Antigua and Barbuda;St. John's;443;96286;NA
AI;Anguilla;The Valley;102;13254;NA
AL;Albania;Tirana;28748;2866376;EU
AM;Armenia;Yerevan;29800;2951776;AS
AN;Netherlands Antilles;Willemstad;960;300000;NA
AO;Angola;Luanda;1246700;30809762;AF
AQ;Antarctica;;14000000;0;AN
AR;Argentina;Buenos Aires;2766890;44494502;SA
AS;American Samoa;Pago Pago;199;55465;OC
AT;Austria;Vienna;83858;8847037;EU
AU;Australia;Canberra;7686850;24992369;OC
AW;Aruba;Oranjestad;193;105845;NA
AX;Åland;Mariehamn;1580;26711;EU
AZ;Azerbaijan;Baku;86600;9942334;AS
BA;Bosnia and Herzegovina;Sarajevo;51129;3323929;EU
BB;Barbados;Bridgetown;431;286641;NA
BD;Bangladesh;Dhaka;144000;161356039;AS
BE;Belgium;Brussels;30510;11422068;EU
BF;Burkina Faso;Ouagadougou;274200;19751535;AF
BG;Bulgaria;Sofia;110910;7000039;EU
BH;Bahrain;Manama;665;1569439;AS
BI;Burundi;Gitega;27830;11175378;AF
BJ;Benin;Porto-Novo;112620;11485048;AF
BL;Saint Barthélemy;Gustavia;21;8450;NA
BM;Bermuda;Hamilton;53;63968;NA
BN;Brunei;Bandar Seri Begawan;5770;428962;AS
BO;Bolivia;Sucre;1098580;11353142;SA
BQ;Bonaire Sint Eustatius and Saba;;328;18012;NA
BR;Brazil;Brasilia;8511965;209469333;SA
BS;Bahamas;Nassau;13940;385640;NA
BT;Bhutan;Thimphu;47000;754394;AS
BV;Bouvet Island;;49;0;AN
BW;Botswana;Gaborone;600370;2254126;AF
BY;Belarus;Minsk;207600;9485386;EU
BZ;Belize;Belmopan;22966;383071;NA
CA;Canada;Ottawa;9984670;37058856;NA
CC;Cocos [Keeling] Islands;West Island;14;628;AS
CD;DR Congo;Kinshasa;2345410;84068091;AF
CF;Central African Republic;Bangui;622984;4666377;AF
CG;Congo Republic;Brazzaville;342000;5244363;AF
CH;Switzerland;Bern;41290;8516543;EU
CI;Ivory Coast;Yamoussoukro;322460;25069229;AF
CK;Cook Islands;Avarua;240;21388;OC
CL;Chile;Santiago;756950;18729160;SA
CM;Cameroon;Yaounde;475440;25216237;AF
CN;China;Beijing;9596960;1392730000;AS
CO;Colombia;Bogota;1138910;49648685;SA
CR;Costa Rica;San Jose;51100;4999441;NA
CS;Serbia and Montenegro;Belgrade;102350;10829175;EU
CU;Cuba;Havana;110860;11338138;NA
CV;Cabo Verde;Praia;4033;543767;AF
CW;Curaçao;Willemstad;444;159849;NA
CX;Christmas Island;Flying Fish Cove;135;1500;OC
CY;Cyprus;Nicosia;9250;1189265;EU
CZ;Czechia;Prague;78866;10625695;EU
DE;Germany;Berlin;357021;82927922;EU
DJ;Djibouti;Djibouti;23000;958920;AF
DK;Denmark;Copenhagen;43094;5797446;EU
DM;Dominica;Roseau;754;71625;NA
DO;Dominican Republic;Santo Domingo;48730;10627165;NA
DZ;Algeria;Algiers;2381740;42228429;AF
EC;Ecuador;Quito;283560;17084357;SA
EE;Estonia;Tallinn;45226;1320884;EU
EG;Egypt;Cairo;1001450;98423595;AF
EH;Western Sahara;El-Aaiun;266000;273008;AF
ER;Eritrea;Asmara;121320;0;AF
ES;Spain;Madrid;504782;46723749;EU
ET;Ethiopia;Addis Ababa;1127127;109224559;AF
FI;Finland;Helsinki;337030;5518050;EU
FJ;Fiji;Suva;18270;883483;OC
FK;Falkland Islands;Stanley;12173;2638;SA
FM;Micronesia;Palikir;702;112640;OC
FO;Faroe Islands;Torshavn;1399;48497;EU
FR;France;Paris;547030;66987244;EU
GA;Gabon;Libreville;267667;2119275;AF
GB;United Kingdom;London;244820;66488991;EU
GD;Grenada;St. George's;344;111454;NA
GE;Georgia;Tbilisi;69700;3731000;AS
GF;French Guiana;Cayenne;91000;195506;SA
GG;Guernsey;St Peter Port;78;65228;EU
GH;Ghana;Accra;239460;29767108;AF
GI;Gibraltar;Gibraltar;6.5;33718;EU
GL;Greenland;Nuuk;2166086;56025;NA
GM;Gambia;Banjul;11300;2280102;AF
GN;Guinea;Conakry;245857;12414318;AF
GP;Guadeloupe;Basse-Terre;1780;443000;NA
GQ;Equatorial Guinea;Malabo;28051;1308974;AF
GR;Greece;Athens;131940;10727668;EU
GS;South Georgia and South Sandwich Islands;Grytviken;3903;30;AN
GT;Guatemala;Guatemala City;108890;17247807;NA
GU;Guam;Hagatna;549;165768;OC
GW;Guinea-Bissau;Bissau;36120;1874309;AF
GY;Guyana;Georgetown;214970;779004;SA
HK;Hong Kong;Hong Kong;1092;7451000;AS
HM;Heard Island and McDonald Islands;;412;0;AN
HN;Honduras;Tegucigalpa;112090;9587522;NA
HR;Croatia;Zagreb;56542;4089400;EU
HT;Haiti;Port-au-Prince;27750;11123176;NA
HU;Hungary;Budapest;93030;9768785;EU
ID;Indonesia;Jakarta;1919440;267663435;AS
IE;Ireland;Dublin;70280;4853506;EU
IL;Israel;Jerusalem;20770;8883800;AS
IM;Isle of Man;Douglas;572;84077;EU
IN;India;New Delhi;3287590;1352617328;AS
IO;British Indian Ocean Territory;Diego Garcia;60;4000;AS
IQ;Iraq;Baghdad;437072;38433600;AS
IR;Iran;Tehran;1648000;81800269;AS
IS;Iceland;Reykjavik;103000;353574;EU
IT;Italy;Rome;301230;60431283;EU
JE;Jersey;Saint Helier;116;90812;EU
JM;Jamaica;Kingston;10991;2934855;NA
JO;Jordan;Amman;92300;9956011;AS
JP;Japan;Tokyo;377835;126529100;AS
KE;Kenya;Nairobi;582650;51393010;AF
KG;Kyrgyzstan;Bishkek;198500;6315800;AS
KH;Cambodia;Phnom Penh;181040;16249798;AS
KI;Kiribati;Tarawa;811;115847;OC
KM;Comoros;Moroni;2170;832322;AF
KN;St Kitts and Nevis;Basseterre;261;52441;NA
KP;North Korea;Pyongyang;120540;25549819;AS
KR;South Korea;Seoul;98480;51635256;AS
KW;Kuwait;Kuwait City;17820;4137309;AS
KY;Cayman Islands;George Town;262;64174;NA
KZ;Kazakhstan;Nur-Sultan;2717300;18276499;AS
LA;Laos;Vientiane;236800;7061507;AS
LB;Lebanon;Beirut;10400;6848925;AS
LC;Saint Lucia;Castries;616;181889;NA
LI;Liechtenstein;Vaduz;160;37910;EU
LK;Sri Lanka;Colombo;65610;21670000;AS
LR;Liberia;Monrovia;111370;4818977;AF
LS;Lesotho;Maseru;30355;2108132;AF
LT;Lithuania;Vilnius;65200;2789533;EU
LU;Luxembourg;Luxembourg;2586;607728;EU
LV;Latvia;Riga;64589;1926542;EU
LY;Libya;Tripoli;1759540;6678567;AF
MA;Morocco;Rabat;446550;36029138;AF
MC;Monaco;Monaco;1.9;38682;EU
MD;Moldova;Chisinau;33843;3545883;EU
ME;Montenegro;Podgorica;14026;622345;EU
MF;Saint Martin;Marigot;53;37264;NA
MG;Madagascar;Antananarivo;587040;26262368;AF
MH;Marshall Islands;Majuro;181.3;58413;OC
MK;North Macedonia;Skopje;25333;2082958;EU
ML;Mali;Bamako;1240000;19077690;AF
MM;Myanmar;Nay Pyi Taw;678500;53708395;AS
MN;Mongolia;Ulaanbaatar;1565000;3170208;AS
MO;Macao;Macao;254;631636;AS
MP;Northern Mariana Islands;Saipan;477;56882;OC
MQ;Martinique;Fort-de-France;1100;432900;NA
MR;Mauritania;Nouakchott;1030700;4403319;AF
MS;Montserrat;Plymouth;102;9341;NA
MT;Malta;Valletta;316;483530;EU
MU;Mauritius;Port Louis;2040;1265303;AF
MV;Maldives;Male;300;515696;AS
MW;Malawi;Lilongwe;118480;17563749;AF
MX;Mexico;Mexico City;1972550;126190788;NA
MY;Malaysia;Kuala Lumpur;329750;31528585;AS
MZ;Mozambique;Maputo;801590;29495962;AF
NA;Namibia;Windhoek;825418;2448255;AF
NC;New Caledonia;Noumea;19060;284060;OC
NE;Niger;Niamey;1267000;22442948;AF
NF;Norfolk Island;Kingston;34.6;1828;OC
NG;Nigeria;Abuja;923768;195874740;AF
NI;Nicaragua;Managua;129494;6465513;NA
NL;Netherlands;Amsterdam;41526;17231017;EU
NO;Norway;Oslo;324220;5314336;EU
NP;Nepal;Kathmandu;140800;28087871;AS
NR;Nauru;Yaren;21;12704;OC
NU;Niue;Alofi;260;2166;OC
NZ;New Zealand;Wellington;268680;4885500;OC
OM;Oman;Muscat;212460;4829483;AS
PA;Panama;Panama City;78200;4176873;NA
PE;Peru;Lima;1285220;31989256;SA
PF;French Polynesia;Papeete;4167;277679;OC
PG;Papua New Guinea;Port Moresby;462840;8606316;OC
PH;Philippines;Manila;300000;106651922;AS
PK;Pakistan;Islamabad;803940;212215030;AS
PL;Poland;Warsaw;312685;37978548;EU
PM;Saint Pierre and Miquelon;Saint-Pierre;242;7012;NA
PN;Pitcairn Islands;Adamstown;47;46;OC
PR;Puerto Rico;San Juan;9104;3195153;NA
PS;Palestine;East Jerusalem;5970;4569087;AS
PT;Portugal;Lisbon;92391;10281762;EU
PW;Palau;Melekeok;458;17907;OC
PY;Paraguay;Asuncion;406750;6956071;SA
QA;Qatar;Doha;11437;2781677;AS
RE;Réunion;Saint-Denis;2517;776948;AF
RO;Romania;Bucharest;237500;19473936;EU
RS;Serbia;Belgrade;88361;6982084;EU
RU;Russia;Moscow;17100000;144478050;EU
RW;Rwanda;Kigali;26338;12301939;AF
SA;Saudi Arabia;Riyadh;1960582;33699947;AS
SB;Solomon Islands;Honiara;28450;652858;OC
SC;Seychelles;Victoria;455;96762;AF
SD;Sudan;Khartoum;1861484;41801533;AF
SE;Sweden;Stockholm;449964;10183175;EU
SG;Singapore;Singapore;692.7;5638676;AS
SH;Saint Helena;Jamestown;410;7460;AF
SI;Slovenia;Ljubljana;20273;2067372;EU
SJ;Svalbard and Jan Mayen;Longyearbyen;62049;2550;EU
SK;Slovakia;Bratislava;48845;5447011;EU
SL;Sierra Leone;Freetown;71740;7650154;AF
SM;San Marino;San Marino;61.2;33785;EU
SN;Senegal;Dakar;196190;15854360;AF
SO;Somalia;Mogadishu;637657;15008154;AF
SR;Suriname;Paramaribo;163270;575991;SA
SS;South Sudan;Juba;644329;8260490;AF
ST;São Tomé and Príncipe;Sao Tome;1001;197700;AF
SV;El Salvador;San Salvador;21040;6420744;NA
SX;Sint Maarten;Philipsburg;21;40654;NA
SY;Syria;Damascus;185180;16906283;AS
SZ;Eswatini;Mbabane;17363;1136191;AF
TC;Turks and Caicos Islands;Cockburn Town;430;37665;NA
TD;Chad;N'Djamena;1284000;15477751;AF
TF;French Southern Territories;Port-aux-Francais;7829;140;AN
TG;Togo;Lome;56785;7889094;AF
TH;Thailand;Bangkok;514000;69428524;AS
TJ;Tajikistan;Dushanbe;143100;9100837;AS
TK;Tokelau;;10;1466;OC
TL;Timor-Leste;Dili;15007;1267972;OC
TM;Turkmenistan;Ashgabat;488100;5850908;AS
TN;Tunisia;Tunis;163610;11565204;AF
TO;Tonga;Nuku'alofa;748;103197;OC
TR;Turkey;Ankara;780580;82319724;AS
TT;Trinidad and Tobago;Port of Spain;5128;1389858;NA
TV;Tuvalu;Funafuti;26;11508;OC
TW;Taiwan;Taipei;35980;22894384;AS
TZ;Tanzania;Dodoma;945087;56318348;AF
UA;Ukraine;Kyiv;603700;44622516;EU
UG;Uganda;Kampala;236040;42723139;AF
UM;U.S. Minor Outlying Islands;;0;0;OC
US;United States;Washington;9629091;327167434;NA
UY;Uruguay;Montevideo;176220;3449299;SA
UZ;Uzbekistan;Tashkent;447400;32955400;AS
VA;Vatican City;Vatican City;0.4;921;EU
VC;St Vincent and Grenadines;Kingstown;389;110211;NA
VE;Venezuela;Caracas;912050;28870195;SA
VG;British Virgin Islands;Road Town;153;29802;NA
VI;U.S. Virgin Islands;Charlotte Amalie;352;106977;NA
VN;Vietnam;Hanoi;329560;95540395;AS
VU;Vanuatu;Port Vila;12200;292680;OC
WF;Wallis and Futuna;Mata Utu;274;16025;OC
WS;Samoa;Apia;2944;196130;OC
XK;Kosovo;Pristina;10908;1845300;EU
YE;Yemen;Sanaa;527970;28498687;AS
YT;Mayotte;Mamoudzou;374;279471;AF
ZA;South Africa;Pretoria;1219912;57779622;AF
ZM;Zambia;Lusaka;752614;17351822;AF
ZW;Zimbabwe;Harare;390580;14439018;AF
