%!PS-Adobe-2.0 EPSF-2.0
%%Title: ansi-sparc.fig
%%Creator: fig2dev Version 3.1 Patchlevel 0
%%CreationDate: Fri Feb  9 16:38:17 1996
%%For: amann@sikkim (Bernd Amann)
%%Orientation: Portrait
%%BoundingBox: 0 0 634 386
%%Pages: 0
%%BeginSetup
%%IncludeFeature: *PageSize Letter
%%EndSetup
%%EndComments
/$F2psDict 200 dict def
$F2psDict begin
$F2psDict /mtrx matrix put
/col-1 {} def
/col0 {0.000 0.000 0.000 srgb} bind def
/col1 {0.000 0.000 1.000 srgb} bind def
/col2 {0.000 1.000 0.000 srgb} bind def
/col3 {0.000 1.000 1.000 srgb} bind def
/col4 {1.000 0.000 0.000 srgb} bind def
/col5 {1.000 0.000 1.000 srgb} bind def
/col6 {1.000 1.000 0.000 srgb} bind def
/col7 {1.000 1.000 1.000 srgb} bind def
/col8 {0.000 0.000 0.560 srgb} bind def
/col9 {0.000 0.000 0.690 srgb} bind def
/col10 {0.000 0.000 0.820 srgb} bind def
/col11 {0.530 0.810 1.000 srgb} bind def
/col12 {0.000 0.560 0.000 srgb} bind def
/col13 {0.000 0.690 0.000 srgb} bind def
/col14 {0.000 0.820 0.000 srgb} bind def
/col15 {0.000 0.560 0.560 srgb} bind def
/col16 {0.000 0.690 0.690 srgb} bind def
/col17 {0.000 0.820 0.820 srgb} bind def
/col18 {0.560 0.000 0.000 srgb} bind def
/col19 {0.690 0.000 0.000 srgb} bind def
/col20 {0.820 0.000 0.000 srgb} bind def
/col21 {0.560 0.000 0.560 srgb} bind def
/col22 {0.690 0.000 0.690 srgb} bind def
/col23 {0.820 0.000 0.820 srgb} bind def
/col24 {0.500 0.190 0.000 srgb} bind def
/col25 {0.630 0.250 0.000 srgb} bind def
/col26 {0.750 0.380 0.000 srgb} bind def
/col27 {1.000 0.500 0.500 srgb} bind def
/col28 {1.000 0.630 0.630 srgb} bind def
/col29 {1.000 0.750 0.750 srgb} bind def
/col30 {1.000 0.880 0.880 srgb} bind def
/col31 {1.000 0.840 0.000 srgb} bind def

end
save
-18.0 409.0 translate
1 -1 scale

/clp {closepath} bind def
/ef {eofill} bind def
/gr {grestore} bind def
/gs {gsave} bind def
/l {lineto} bind def
/m {moveto} bind def
/n {newpath} bind def
/s {stroke} bind def
/slc {setlinecap} bind def
/slj {setlinejoin} bind def
/slw {setlinewidth} bind def
/srgb {setrgbcolor} bind def
/rot {rotate} bind def
/sc {scale} bind def
/tr {translate} bind def
/tnt {dup dup currentrgbcolor
  4 -2 roll dup 1 exch sub 3 -1 roll mul add
  4 -2 roll dup 1 exch sub 3 -1 roll mul add
  4 -2 roll dup 1 exch sub 3 -1 roll mul add srgb}
  bind def
/shd {dup dup currentrgbcolor 4 -2 roll mul 4 -2 roll mul
  4 -2 roll mul srgb} bind def
/$F2psBegin {$F2psDict begin /$F2psEnteredState save def} def
/$F2psEnd {$F2psEnteredState restore end} def
%%EndProlog

$F2psBegin
10 setmiterlimit
 0.06000 0.06000 sc
7.500 slw
% Arc
n 4636.95 5967.26 173.10 -177.60 45.63 arcn
gs col-1 s gr

% Arc
n 4736.31 7085.15 994.39 -88.75 -47.59 arc
gs col-1 s gr

30.000 slw
% Polyline
n 7184 4963 m 7184 3324 l  4186 3324 l  4186 4963 l  clp  gs col-1 s gr 
% Polyline
n 7184 6780 m 7184 5140 l  4186 5140 l  4186 6780 l  clp  gs col-1 s gr 
% Polyline
n 3615 3063 m 3615 1423 l  602 1423 l  602 3063 l  clp  gs col-1 s gr 
% Polyline
n 7184 3063 m 7184 1423 l  4186 1423 l  4186 3063 l  clp  gs col-1 s gr 
7.500 slw
% Polyline
n 2023 2066 m 2023 1591 l  957 1591 l  957 2066 l  clp  gs col-1 s gr 
% Polyline
n 3167 2718 m 3167 2019 l  2317 2019 l  2317 2718 l  clp  gs col-1 s gr 
% Polyline
n 1884 2895 m 1884 2374 l  1313 2374 l  1313 2895 l  clp  gs col-1 s gr 
% Polyline
n 6905 2718 m 6905 1815 l  4464 1815 l  4464 2718 l  clp  gs col-1 s gr 
% Polyline
n 7122 4749 m 7122 3715 l  5685 3715 l  5685 4749 l  clp  gs col-1 s gr 
% Polyline
n 4464 5960 m 4959 5401 l  5407 6351 l  gs col-1 s gr 
% Polyline
n 5824 5876 m 6257 5355 l  6751 6184 l  gs col-1 s gr 
% Polyline
n 5824 5876 m 6179 5914 l  gs col-1 s gr 
% Polyline
n 6179 5914 m 6751 6184 l  6674 6184 l  gs col-1 s gr 
% Polyline
n 4882 5699 m 6102 5793 l  gs col-1 s gr 
n 5970.28 5745.24 m 6102.00 5793.00 l 5964.52 5820.02 l gs col-1 s gr
% Polyline
n 5175 6091 m 6179 5616 l  gs col-1 s gr 
n 6040.93 5639.84 m 6179.00 5616.00 l 6073.01 5707.63 l gs col-1 s gr
% Polyline
n 6396 5960 m 4758 5876 l  gs col-1 s gr 
n 4890.90 5920.36 m 4758.00 5876.00 l 4894.74 5845.46 l gs col-1 s gr
% Polyline
n 5252 6184 m 6550 6007 l  gs col-1 s gr 
n 6411.17 5988.08 m 6550.00 6007.00 l 6421.30 6062.40 l gs col-1 s gr
% Polyline
n 4603 6044 m 6396 5876 l  gs col-1 s gr 
n 6258.09 5851.26 m 6396.00 5876.00 l 6265.09 5925.93 l gs col-1 s gr
% Polyline
n 5978 6482 m 6210 6389 l  6210 6221 l  5978 6137 l  5716 6221 l  5716 6389 l 
 clp  gs col-1 s gr 
% Polyline
n 4603 5960 m 5901 6305 l  gs col-1 s gr 
n 5780.16 6234.08 m 5901.00 6305.00 l 5760.90 6306.56 l gs col-1 s gr
% Polyline
n 6612 6044 m 6025 6351 l  gs col-1 s gr 
n 6162.01 6321.66 m 6025.00 6351.00 l 6127.25 6255.21 l gs col-1 s gr
% Polyline
n 5978 6221 m 6473 5914 l  gs col-1 s gr 
n 6338.51 5953.29 m 6473.00 5914.00 l 6378.04 6017.02 l gs col-1 s gr
% Polyline
n 4310 6566 m 6967 6566 l  6905 6566 l  gs col-1 s gr 
% Polyline
n 4310 6650 m 6967 6650 l  gs col-1 s gr 
% Polyline
n 4526 6044 m 4464 6612 l  4387 6612 l  gs col-1 s gr 
n 4522.00 6649.50 m 4387.00 6612.00 l 4522.00 6574.50 l gs col-1 s gr
% Polyline
n 4603 6091 m 4882 6612 l  gs col-1 s gr 
n 4851.33 6475.29 m 4882.00 6612.00 l 4785.21 6510.69 l gs col-1 s gr
% Polyline
n 5252 6137 m 5036 6612 l  gs col-1 s gr 
n 5126.02 6504.63 m 5036.00 6612.00 l 5057.75 6473.59 l gs col-1 s gr
% Polyline
n 4959 6091 m 5407 6612 l  gs col-1 s gr 
n 5347.42 6485.19 m 5407.00 6612.00 l 5290.55 6534.09 l gs col-1 s gr
% Polyline
n 5824 6389 m 5530 6612 l  gs col-1 s gr 
n 5660.22 6560.29 m 5530.00 6612.00 l 5614.90 6500.54 l gs col-1 s gr
% Polyline
n 5978 6435 m 5978 6612 l  gs col-1 s gr 
n 6015.50 6477.00 m 5978.00 6612.00 l 5940.50 6477.00 l gs col-1 s gr
% Polyline
n 6025 6389 m 6025 6389 l gs col-1 s gr
% Polyline
n 6102 6351 m 6396 6612 l  gs col-1 s gr 
n 6319.94 6494.33 m 6396.00 6612.00 l 6270.15 6550.42 l gs col-1 s gr
% Polyline
n 6674 6091 m 6751 6612 l  gs col-1 s gr 
n 6768.36 6472.97 m 6751.00 6612.00 l 6694.17 6483.93 l gs col-1 s gr
30.000 slw
% Polyline
n 10830 3063 m 10830 1423 l  7817 1423 l  7817 3063 l  clp  gs col-1 s gr 
7.500 slw
% Polyline
n 8172 2215 m 9331 1703 l  10258 2541 l  9022 2588 l  10258 1796 l  8713 2215 l  gs col-1 s gr 
% Polyline
n 5295 4056 m 5295 3450 l  4275 3450 l  4275 4056 l  clp  gs col-1 s gr 
% Polyline
n 5550 4875 m 5550 4097 l  4310 4097 l  4310 4875 l  clp  gs col-1 s gr 
/Times-Bold findfont 360.00 scalefont setfont
1500 1200 m
gs 1 -1 sc (vue  1) col-1 show gr
/Times-Bold findfont 360.00 scalefont setfont
5175 1200 m
gs 1 -1 sc (vue  2) col-1 show gr
/Times-Bold findfont 360.00 scalefont setfont
4350 600 m
gs 1 -1 sc (NIVEAU EXTERNE) col-1 show gr
/Times-Bold findfont 360.00 scalefont setfont
8625 1200 m
gs 1 -1 sc (vue  3) col-1 show gr
/Times-Bold findfont 360.00 scalefont setfont
450 4350 m
gs 1 -1 sc (NIVEAU LOGIQUE) col-1 show gr
/Times-Bold findfont 360.00 scalefont setfont
300 5925 m
gs 1 -1 sc (NIVEAU PHYSIQUE) col-1 show gr
$F2psEnd
restore
