#FIG 3.2
Portrait
Center
Inches
A4      
100.00
Single
-2
1200 2
6 5700 1650 6375 2025
4 0 0 100 0 0 10 0.0000 4 120 645 5700 1995 de donn\351es\001
4 0 0 100 0 0 10 0.0000 4 105 270 5850 1800 Base\001
-6
6 4500 1650 5025 2025
4 0 0 100 0 0 10 0.0000 4 105 495 4500 1800 Fichiers\001
4 0 0 100 0 0 10 0.0000 4 105 300 4575 2025 PHP\001
-6
1 3 0 1 0 7 100 0 -1 0.000 1 0.0000 2700 975 530 530 2700 975 3075 1350
1 2 0 1 0 7 100 0 -1 0.000 1 0.0000 5400 1537 1050 113 4350 1425 6450 1650
1 2 0 1 0 7 100 0 -1 0.000 1 0.0000 5400 2212 1050 113 4350 2100 6450 2325
2 1 0 1 0 7 100 0 -1 0.000 0 0 -1 0 0 1
	 1200 825
2 1 0 1 0 7 100 0 -1 0.000 0 0 -1 1 0 2
	1 1 1.00 60.00 120.00
	 1200 825 2175 825
2 1 0 1 0 7 100 0 -1 0.000 0 0 -1 1 0 2
	1 1 1.00 60.00 120.00
	 2175 1050 1200 1050
2 4 0 1 -1 7 0 0 -1 0.000 0 0 7 0 0 5
	 1200 1125 1200 675 375 675 375 1125 1200 1125
2 4 0 1 -1 7 0 0 -1 0.000 0 0 6 0 0 5
	 6600 2400 6600 600 4050 600 4050 2400 6600 2400
2 1 0 1 0 7 100 0 -1 0.000 0 0 -1 1 0 2
	1 1 1.00 60.00 120.00
	 4950 825 5550 825
2 1 0 1 0 7 100 0 -1 0.000 0 0 -1 1 0 2
	1 1 1.00 60.00 120.00
	 5550 1050 4950 1050
2 1 0 1 -1 7 0 0 -1 0.000 0 0 7 1 1 2
	1 1 1.00 49.77 99.55
	1 1 1.00 49.77 99.55
	 6000 1125 6000 1575
2 1 0 1 0 7 100 0 -1 0.000 0 0 -1 0 0 2
	 6450 1575 6450 2250
2 4 0 1 0 7 100 0 -1 0.000 0 0 7 0 0 5
	 6450 1125 6450 675 5550 675 5550 1125 6450 1125
2 1 0 1 0 7 100 0 -1 0.000 0 0 -1 1 0 2
	1 1 1.00 60.00 120.00
	 4275 1125 3225 1125
2 1 0 1 0 7 100 0 -1 0.000 0 0 -1 1 0 2
	1 1 1.00 60.00 120.00
	 3150 750 4275 750
2 1 0 1 0 7 100 0 -1 0.000 0 0 -1 0 0 2
	 4350 2250 4350 1575
2 1 0 1 -1 7 0 0 -1 0.000 0 0 7 1 1 2
	1 1 1.00 49.77 99.55
	1 1 1.00 49.77 99.55
	 4650 1125 4650 1575
2 4 0 1 -1 7 0 0 -1 0.000 0 0 6 0 0 5
	 4950 1125 4950 675 4237 675 4237 1125 4950 1125
4 0 0 100 0 0 10 0.0000 4 150 510 1425 750 requ\352tes\001
4 0 0 100 0 0 10 0.0000 4 105 510 2475 975 Internet\001
4 0 0 100 0 0 10 0.0000 6 135 780 3375 1050 document(s)\001
4 0 0 100 0 0 10 0.0000 4 105 450 3450 1275 HTML\001
4 0 0 100 0 0 10 0.0000 4 150 510 3375 675 requ\352tes\001
4 0 0 100 0 0 10 0.0000 6 105 705 4275 825 programme\001
4 0 0 100 0 0 10 0.0000 6 75 450 4275 975 serveur\001
4 0 0 100 0 0 10 0.0000 4 105 495 5775 825 Serveur \001
4 0 0 100 0 1 10 0.0000 4 150 435 5775 1020 mysqld\001
4 0 0 100 0 0 10 0.0000 4 135 270 5100 750 SQL\001
4 0 0 100 0 0 10 0.0000 4 120 480 5100 1200 donn\351es\001
4 0 0 100 0 0 10 0.0000 4 135 765 450 1050 (navigateur)\001
4 0 0 100 0 0 10 0.0000 4 135 2265 4200 2625 Site web avec scripts PHP et MySQL\001
4 0 0 100 0 0 10 0.0000 4 105 825 375 1275 Client HTTP\001
4 0 0 100 0 0 10 0.0000 6 135 735 450 825 Prog. client\001
