#FIG 3.2
Portrait
Center
Inches
A4      
100.00
Single
-2
1200 2
6 375 1050 1200 2400
2 1 0 1 -1 7 0 0 -1 0.000 0 0 -1 0 0 2
	 375 1350 1200 1350
2 4 0 1 -1 7 0 0 -1 0.000 0 0 7 0 0 5
	 1200 2400 1200 1050 375 1050 375 2400 1200 2400
4 0 -1 0 0 -1 10 0.0000 4 150 435 450 2025 pr\351nom\001
4 0 -1 0 0 -1 10 0.0000 4 75 270 450 1800 nom\001
4 0 0 100 0 0 10 0.0000 6 105 645 525 1275 Internaute\001
4 0 0 100 0 2 10 0.0000 2 120 360 450 1575 email\001
4 0 0 100 0 0 10 0.0000 4 150 375 450 2250 r\351gion\001
-6
6 2700 1050 3600 2325
2 1 0 1 -1 7 0 0 -1 0.000 0 0 -1 0 0 2
	 2701 1351 3526 1351
2 4 0 1 -1 7 0 0 -1 0.000 0 0 7 0 0 5
	 3526 2325 3526 1051 2700 1051 2700 2325 3526 2325
4 0 0 100 0 0 10 0.0000 6 105 315 2926 1276 Film\001
4 0 0 100 0 0 10 0.0000 4 105 330 2850 2250 genre\001
4 0 0 100 0 0 10 0.0000 6 150 330 2850 2025 ann\351e\001
4 0 0 100 0 2 10 0.0000 2 120 135 2850 1575 id\001
4 0 0 100 0 0 10 0.0000 6 105 285 2850 1800 titre\001
-6
6 1725 1350 2175 1800
5 1 0 1 0 7 100 0 -1 0.000 0 0 0 0 1950.000 1575.000 1800 1575 1950 1425 2100 1575
2 2 0 1 0 7 100 0 -1 0.000 0 0 -1 0 0 5
	 1725 1575 2175 1575 2175 1800 1725 1800 1725 1575
4 0 0 100 0 0 10 0.0000 4 90 270 1800 1725 note\001
-6
2 1 0 1 0 7 50 0 -1 0.000 0 0 -1 0 0 2
	 1575 375 2325 375
2 4 0 1 0 7 50 0 -1 0.000 0 0 7 0 0 5
	 2325 675 2325 150 1575 150 1575 675 2325 675
2 3 0 1 0 7 50 0 -1 0.000 0 0 -1 0 0 6
	 1650 1275 1950 1125 2250 1275 1950 1425 1650 1275 1650 1275
2 1 0 1 0 7 100 0 -1 0.000 0 0 7 0 0 2
	 1200 1275 1650 1275
2 1 0 1 0 7 50 0 -1 0.000 0 0 -1 0 0 2
	 1950 1125 1950 675
2 1 0 1 0 7 50 0 -1 0.000 0 0 -1 0 0 2
	 2250 1275 2700 1275
4 0 0 50 0 0 10 0.0000 4 105 285 1800 300 Date\001
4 0 0 50 0 2 10 0.0000 4 105 300 1725 600 date\001
