%!PS-Adobe-2.0 EPSF-2.0
%%Title: balseq.eps
%%Creator: fig2dev Version 3.2.3 Patchlevel 
%%CreationDate: Tue Apr 16 09:54:44 2002
%%For: rigaux@cartier (Philippe Rigaux)
%%BoundingBox: 0 0 385 151
%%Magnification: 1.0000
%%EndComments
/$F2psDict 200 dict def
$F2psDict begin
$F2psDict /mtrx matrix put
/col-1 {0 setgray} bind def
/col0 {0.000 0.000 0.000 srgb} bind def
/col1 {0.000 0.000 1.000 srgb} bind def
/col2 {0.000 1.000 0.000 srgb} bind def
/col3 {0.000 1.000 1.000 srgb} bind def
/col4 {1.000 0.000 0.000 srgb} bind def
/col5 {1.000 0.000 1.000 srgb} bind def
/col6 {1.000 1.000 0.000 srgb} bind def
/col7 {1.000 1.000 1.000 srgb} bind def
/col8 {0.000 0.000 0.560 srgb} bind def
/col9 {0.000 0.000 0.690 srgb} bind def
/col10 {0.000 0.000 0.820 srgb} bind def
/col11 {0.530 0.810 1.000 srgb} bind def
/col12 {0.000 0.560 0.000 srgb} bind def
/col13 {0.000 0.690 0.000 srgb} bind def
/col14 {0.000 0.820 0.000 srgb} bind def
/col15 {0.000 0.560 0.560 srgb} bind def
/col16 {0.000 0.690 0.690 srgb} bind def
/col17 {0.000 0.820 0.820 srgb} bind def
/col18 {0.560 0.000 0.000 srgb} bind def
/col19 {0.690 0.000 0.000 srgb} bind def
/col20 {0.820 0.000 0.000 srgb} bind def
/col21 {0.560 0.000 0.560 srgb} bind def
/col22 {0.690 0.000 0.690 srgb} bind def
/col23 {0.820 0.000 0.820 srgb} bind def
/col24 {0.500 0.190 0.000 srgb} bind def
/col25 {0.630 0.250 0.000 srgb} bind def
/col26 {0.750 0.380 0.000 srgb} bind def
/col27 {1.000 0.500 0.500 srgb} bind def
/col28 {1.000 0.630 0.630 srgb} bind def
/col29 {1.000 0.750 0.750 srgb} bind def
/col30 {1.000 0.880 0.880 srgb} bind def
/col31 {1.000 0.840 0.000 srgb} bind def

end
save
newpath 0 151 moveto 0 0 lineto 385 0 lineto 385 151 lineto closepath clip newpath
-44.0 217.0 translate
1 -1 scale

/cp {closepath} bind def
/ef {eofill} bind def
/gr {grestore} bind def
/gs {gsave} bind def
/sa {save} bind def
/rs {restore} bind def
/l {lineto} bind def
/m {moveto} bind def
/rm {rmoveto} bind def
/n {newpath} bind def
/s {stroke} bind def
/sh {show} bind def
/slc {setlinecap} bind def
/slj {setlinejoin} bind def
/slw {setlinewidth} bind def
/srgb {setrgbcolor} bind def
/rot {rotate} bind def
/sc {scale} bind def
/sd {setdash} bind def
/ff {findfont} bind def
/sf {setfont} bind def
/scf {scalefont} bind def
/sw {stringwidth} bind def
/tr {translate} bind def
/tnt {dup dup currentrgbcolor
  4 -2 roll dup 1 exch sub 3 -1 roll mul add
  4 -2 roll dup 1 exch sub 3 -1 roll mul add
  4 -2 roll dup 1 exch sub 3 -1 roll mul add srgb}
  bind def
/shd {dup dup currentrgbcolor 4 -2 roll mul 4 -2 roll mul
  4 -2 roll mul srgb} bind def
 /DrawEllipse {
	/endangle exch def
	/startangle exch def
	/yrad exch def
	/xrad exch def
	/y exch def
	/x exch def
	/savematrix mtrx currentmatrix def
	x y tr xrad yrad sc 0 0 1 startangle endangle arc
	closepath
	savematrix setmatrix
	} def

/$F2psBegin {$F2psDict begin /$F2psEnteredState save def} def
/$F2psEnd {$F2psEnteredState restore end} def

$F2psBegin
%%Page: 1 1
10 setmiterlimit
 0.06000 0.06000 sc
7.500 slw
% Ellipse
n 1125 2625 375 150 0 360 DrawEllipse gs col0 s gr

% Ellipse
n 1125 3450 375 150 0 360 DrawEllipse gs col0 s gr

% Polyline
n 750 2625 m
 750 3450 l gs col0 s gr 
% Polyline
n 1500 2700 m
 1500 3450 l gs col0 s gr 
% Polyline
n 2850 1800 m
 2700 2025 l gs col0 s gr 
% Polyline
n 2850 1800 m
 2850 2100 l gs col0 s gr 
% Polyline
n 2175 1425 m 3525 1425 l 3525 1800 l 2175 1800 l
 cp gs col0 s gr 
% Polyline
n 3525 1650 m
 4050 1650 l gs col0 s gr 
% Polyline
n 4050 1125 m 4950 1125 l 4950 1950 l 4050 1950 l
 cp gs col0 s gr 
% Polyline
n 4950 1650 m
 5550 1650 l gs col0 s gr 
% Polyline
n 5550 1425 m 7125 1425 l 7125 1800 l 5550 1800 l
 cp gs col0 s gr 
% Polyline
n 1200 3000 m 1201 3000 l 1204 3000 l 1208 3000 l 1216 3000 l 1226 3000 l
 1240 3000 l 1257 2999 l 1278 2999 l 1303 2998 l 1332 2997 l
 1363 2996 l 1398 2995 l 1435 2993 l 1474 2991 l 1516 2988 l
 1559 2985 l 1603 2981 l 1648 2977 l 1695 2972 l 1741 2966 l
 1788 2959 l 1836 2951 l 1884 2943 l 1932 2933 l 1980 2921 l
 2029 2908 l 2078 2894 l 2128 2877 l 2178 2859 l 2228 2838 l
 2279 2816 l 2329 2790 l 2379 2762 l 2428 2732 l 2475 2700 l
 2525 2662 l 2570 2622 l 2611 2581 l 2648 2540 l 2680 2500 l
 2709 2460 l 2733 2420 l 2754 2381 l 2773 2342 l 2788 2304 l
 2802 2265 l 2813 2228 l 2822 2190 l 2830 2153 l 2836 2117 l
 2841 2081 l 2844 2046 l 2847 2013 l 2849 1981 l 2851 1950 l
 2851 1922 l 2852 1897 l 2852 1874 l 2852 1855 l 2851 1838 l
 2851 1825 l 2851 1815 l 2850 1808 l 2850 1804 l 2850 1801 l

 2850 1800 l gs col0 s gr 
/Times-Roman ff 180.00 scf sf
975 3150 m
gs 1 -1 sc (R) col0 sh gr
/Times-Roman ff 180.00 scf sf
2250 1650 m
gs 1 -1 sc (tampon Entree E) col0 sh gr
/Times-Roman ff 180.00 scf sf
5775 1650 m
gs 1 -1 sc (tampon Sortie  S) col0 sh gr
/Times-Roman ff 180.00 scf sf
4200 1575 m
gs 1 -1 sc (sel/proj) col0 sh gr
$F2psEnd
rs
