%!PS-Adobe-2.0 EPSF-2.0
%%Title: disques.eps
%%Creator: fig2dev Version 3.2.3 Patchlevel 
%%CreationDate: Thu Jan  4 17:47:52 2001
%%For: rigaux@cartier (Philippe Rigaux)
%%BoundingBox: 0 0 295 163
%%Magnification: 1.0000
%%EndComments
/$F2psDict 200 dict def
$F2psDict begin
$F2psDict /mtrx matrix put
/col-1 {0 setgray} bind def
/col0 {0.000 0.000 0.000 srgb} bind def
/col1 {0.000 0.000 1.000 srgb} bind def
/col2 {0.000 1.000 0.000 srgb} bind def
/col3 {0.000 1.000 1.000 srgb} bind def
/col4 {1.000 0.000 0.000 srgb} bind def
/col5 {1.000 0.000 1.000 srgb} bind def
/col6 {1.000 1.000 0.000 srgb} bind def
/col7 {1.000 1.000 1.000 srgb} bind def
/col8 {0.000 0.000 0.560 srgb} bind def
/col9 {0.000 0.000 0.690 srgb} bind def
/col10 {0.000 0.000 0.820 srgb} bind def
/col11 {0.530 0.810 1.000 srgb} bind def
/col12 {0.000 0.560 0.000 srgb} bind def
/col13 {0.000 0.690 0.000 srgb} bind def
/col14 {0.000 0.820 0.000 srgb} bind def
/col15 {0.000 0.560 0.560 srgb} bind def
/col16 {0.000 0.690 0.690 srgb} bind def
/col17 {0.000 0.820 0.820 srgb} bind def
/col18 {0.560 0.000 0.000 srgb} bind def
/col19 {0.690 0.000 0.000 srgb} bind def
/col20 {0.820 0.000 0.000 srgb} bind def
/col21 {0.560 0.000 0.560 srgb} bind def
/col22 {0.690 0.000 0.690 srgb} bind def
/col23 {0.820 0.000 0.820 srgb} bind def
/col24 {0.500 0.190 0.000 srgb} bind def
/col25 {0.630 0.250 0.000 srgb} bind def
/col26 {0.750 0.380 0.000 srgb} bind def
/col27 {1.000 0.500 0.500 srgb} bind def
/col28 {1.000 0.630 0.630 srgb} bind def
/col29 {1.000 0.750 0.750 srgb} bind def
/col30 {1.000 0.880 0.880 srgb} bind def
/col31 {1.000 0.840 0.000 srgb} bind def

end
save
newpath 0 163 moveto 0 0 lineto 295 0 lineto 295 163 lineto closepath clip newpath
-49.0 152.0 translate
1 -1 scale

/cp {closepath} bind def
/ef {eofill} bind def
/gr {grestore} bind def
/gs {gsave} bind def
/sa {save} bind def
/rs {restore} bind def
/l {lineto} bind def
/m {moveto} bind def
/rm {rmoveto} bind def
/n {newpath} bind def
/s {stroke} bind def
/sh {show} bind def
/slc {setlinecap} bind def
/slj {setlinejoin} bind def
/slw {setlinewidth} bind def
/srgb {setrgbcolor} bind def
/rot {rotate} bind def
/sc {scale} bind def
/sd {setdash} bind def
/ff {findfont} bind def
/sf {setfont} bind def
/scf {scalefont} bind def
/sw {stringwidth} bind def
/tr {translate} bind def
/tnt {dup dup currentrgbcolor
  4 -2 roll dup 1 exch sub 3 -1 roll mul add
  4 -2 roll dup 1 exch sub 3 -1 roll mul add
  4 -2 roll dup 1 exch sub 3 -1 roll mul add srgb}
  bind def
/shd {dup dup currentrgbcolor 4 -2 roll mul 4 -2 roll mul
  4 -2 roll mul srgb} bind def
/reencdict 12 dict def /ReEncode { reencdict begin
/newcodesandnames exch def /newfontname exch def /basefontname exch def
/basefontdict basefontname findfont def /newfont basefontdict maxlength dict def
basefontdict { exch dup /FID ne { dup /Encoding eq
{ exch dup length array copy newfont 3 1 roll put }
{ exch newfont 3 1 roll put } ifelse } { pop pop } ifelse } forall
newfont /FontName newfontname put newcodesandnames aload pop
128 1 255 { newfont /Encoding get exch /.notdef put } for
newcodesandnames length 2 idiv { newfont /Encoding get 3 1 roll put } repeat
newfontname newfont definefont pop end } def
/isovec [
8#055 /minus 8#200 /grave 8#201 /acute 8#202 /circumflex 8#203 /tilde
8#204 /macron 8#205 /breve 8#206 /dotaccent 8#207 /dieresis
8#210 /ring 8#211 /cedilla 8#212 /hungarumlaut 8#213 /ogonek 8#214 /caron
8#220 /dotlessi 8#230 /oe 8#231 /OE
8#240 /space 8#241 /exclamdown 8#242 /cent 8#243 /sterling
8#244 /currency 8#245 /yen 8#246 /brokenbar 8#247 /section 8#250 /dieresis
8#251 /copyright 8#252 /ordfeminine 8#253 /guillemotleft 8#254 /logicalnot
8#255 /hypen 8#256 /registered 8#257 /macron 8#260 /degree 8#261 /plusminus
8#262 /twosuperior 8#263 /threesuperior 8#264 /acute 8#265 /mu 8#266 /paragraph
8#267 /periodcentered 8#270 /cedilla 8#271 /onesuperior 8#272 /ordmasculine
8#273 /guillemotright 8#274 /onequarter 8#275 /onehalf
8#276 /threequarters 8#277 /questiondown 8#300 /Agrave 8#301 /Aacute
8#302 /Acircumflex 8#303 /Atilde 8#304 /Adieresis 8#305 /Aring
8#306 /AE 8#307 /Ccedilla 8#310 /Egrave 8#311 /Eacute
8#312 /Ecircumflex 8#313 /Edieresis 8#314 /Igrave 8#315 /Iacute
8#316 /Icircumflex 8#317 /Idieresis 8#320 /Eth 8#321 /Ntilde 8#322 /Ograve
8#323 /Oacute 8#324 /Ocircumflex 8#325 /Otilde 8#326 /Odieresis 8#327 /multiply
8#330 /Oslash 8#331 /Ugrave 8#332 /Uacute 8#333 /Ucircumflex
8#334 /Udieresis 8#335 /Yacute 8#336 /Thorn 8#337 /germandbls 8#340 /agrave
8#341 /aacute 8#342 /acircumflex 8#343 /atilde 8#344 /adieresis 8#345 /aring
8#346 /ae 8#347 /ccedilla 8#350 /egrave 8#351 /eacute
8#352 /ecircumflex 8#353 /edieresis 8#354 /igrave 8#355 /iacute
8#356 /icircumflex 8#357 /idieresis 8#360 /eth 8#361 /ntilde 8#362 /ograve
8#363 /oacute 8#364 /ocircumflex 8#365 /otilde 8#366 /odieresis 8#367 /divide
8#370 /oslash 8#371 /ugrave 8#372 /uacute 8#373 /ucircumflex
8#374 /udieresis 8#375 /yacute 8#376 /thorn 8#377 /ydieresis] def
/Times-Roman /Times-Roman-iso isovec ReEncode
 /DrawEllipse {
	/endangle exch def
	/startangle exch def
	/yrad exch def
	/xrad exch def
	/y exch def
	/x exch def
	/savematrix mtrx currentmatrix def
	x y tr xrad yrad sc 0 0 1 startangle endangle arc
	closepath
	savematrix setmatrix
	} def

/$F2psBegin {$F2psDict begin /$F2psEnteredState save def} def
/$F2psEnd {$F2psEnteredState restore end} def

$F2psBegin
%%Page: 1 1
10 setmiterlimit
 0.06000 0.06000 sc
7.500 slw
% Ellipse
n 2700 1275 1275 300 0 360 DrawEllipse gs col0 s gr

% Ellipse
n 2700 1275 1050 225 0 360 DrawEllipse gs col7 0.50 shd ef gr gs col0 s gr

% Ellipse
n 2700 1875 1275 300 0 360 DrawEllipse gs col0 s gr

% Ellipse
n 2700 1875 1050 225 0 360 DrawEllipse gs col7 0.50 shd ef gr gs col0 s gr

% Ellipse
n 2700 450 1275 300 0 360 DrawEllipse gs col0 s gr

% Ellipse
n 2700 450 1050 225 0 360 DrawEllipse gs col7 0.50 shd ef gr gs col0 s gr

/Times-Roman-iso ff 150.00 scf sf
3825 825 m
gs 1 -1 sc (t\352te de) col0 sh gr
/Times-Roman-iso ff 150.00 scf sf
3825 1020 m
gs 1 -1 sc (lecture) col0 sh gr
/Times-Roman-iso ff 150.00 scf sf
3525 2325 m
gs 1 -1 sc (d\351placement ) col0 sh gr
/Times-Roman-iso ff 150.00 scf sf
3525 2520 m
gs 1 -1 sc (des t\352tes) col0 sh gr
% Polyline
n 3600 1125 m 3675 1275 l 3750 1275 l 3825 1125 l
 cp gs col7 0.00 shd ef gr gs col0 s gr 
% Polyline
n 3825 1125 m
 4350 1125 l gs col0 s gr 
% Polyline
 [60] 0 sd
n 3600 1500 m 3675 1350 l 3750 1350 l 3825 1500 l
 cp gs col0 s gr  [] 0 sd
% Polyline
 [60] 0 sd
n 3825 1500 m
 4350 1500 l gs col0 s gr  [] 0 sd
% Ellipse
n 2700 1275 960 180 0 360 DrawEllipse gs col7 1.00 shd ef gr gs col0 s gr

% Polyline
n 3825 1500 m
 4275 1500 l gs col0 s gr 
% Polyline
n 3600 1725 m 3675 1875 l 3750 1875 l 3825 1725 l
 cp gs col7 0.00 shd ef gr gs col0 s gr 
% Polyline
n 3825 1725 m
 4350 1725 l gs col0 s gr 
% Polyline
 [60] 0 sd
n 3600 2100 m 3675 1950 l 3750 1950 l 3825 2100 l
 cp gs col0 s gr  [] 0 sd
% Polyline
 [60] 0 sd
n 3825 2100 m
 4350 2100 l gs col0 s gr  [] 0 sd
% Ellipse
n 2700 1875 960 180 0 360 DrawEllipse gs col7 1.00 shd ef gr gs col0 s gr

% Polyline
n 3825 2100 m
 4275 2100 l gs col0 s gr 
% Polyline
n 3600 300 m 3675 450 l 3750 450 l 3825 300 l
 cp gs col7 0.00 shd ef gr gs col0 s gr 
% Polyline
n 3825 300 m
 4350 300 l gs col0 s gr 
% Polyline
 [60] 0 sd
n 3600 675 m 3675 525 l 3750 525 l 3825 675 l
 cp gs col0 s gr  [] 0 sd
% Polyline
 [60] 0 sd
n 3825 675 m
 4350 675 l gs col0 s gr  [] 0 sd
% Arc
gs  clippath
2833 1920 m 2836 1980 l 2987 1972 l 2866 1949 l 2984 1913 l cp
eoclip
n 2906.2 1875.0 93.8 -126.9 126.9 arc
gs col7 1.00 shd ef gr gs col0 s gr
 gr

% arrowhead
n 2984 1913 m 2866 1949 l 2987 1972 l 2984 1913 l  cp gs 0.00 setgray ef gr  col0 s
% Arc
gs  clippath
2908 1920 m 2911 1980 l 3062 1972 l 2941 1949 l 3059 1913 l cp
eoclip
n 2981.2 1875.0 93.8 -126.9 126.9 arc
gs col7 1.00 shd ef gr gs col0 s gr
 gr

% arrowhead
n 3059 1913 m 2941 1949 l 3062 1972 l 3059 1913 l  cp gs 0.00 setgray ef gr  col0 s
% Arc
gs  clippath
2908 1920 m 2911 1980 l 3062 1972 l 2941 1949 l 3059 1913 l cp
eoclip
n 2981.2 1875.0 93.8 -126.9 126.9 arc
gs col7 1.00 shd ef gr gs col0 s gr
 gr

% arrowhead
n 3059 1913 m 2941 1949 l 3062 1972 l 3059 1913 l  cp gs 0.00 setgray ef gr  col0 s
% Arc
gs  clippath
2769 1916 m 2751 1973 l 2894 2020 l 2790 1955 l 2913 1963 l cp
eoclip
n 2868.8 1856.2 132.6 -98.1 135.0 arc
gs col7 1.00 shd ef gr gs col0 s gr
 gr

% arrowhead
n 2913 1963 m 2790 1955 l 2894 2020 l 2913 1963 l  cp gs 0.00 setgray ef gr  col0 s
% Arc
gs  clippath
1791 2142 m 1779 2201 l 1927 2231 l 1816 2178 l 1939 2172 l cp
eoclip
n 2583.5 -1406.5 3666.2 85.8 102.3 arc
gs col7 1.00 shd ef gr gs col0 s gr
 gr

% arrowhead
n 1939 2172 m 1816 2178 l 1927 2231 l 1939 2172 l  cp gs 0.00 setgray ef gr  col0 s
% Ellipse
n 2700 75 142 67 0 360 DrawEllipse gs col0 s gr

% Ellipse
n 2700 450 960 180 0 360 DrawEllipse gs col7 1.00 shd ef gr gs col0 s gr

% Polyline
n 2850 75 m
 2850 435 l gs col7 1.00 shd ef gr gs col0 s gr 
% Polyline
n 2550 435 m
 2550 75 l gs col7 1.00 shd ef gr gs col0 s gr 
% Polyline
0.000 slw
n 2550 75 m 2550 435 l 2850 435 l 2850 75 l
 cp gs col7 1.00 shd ef gr 
% Polyline
n 2550 750 m 2550 1275 l 2850 1275 l 2850 750 l
 cp gs col7 1.00 shd ef gr 
% Polyline
7.500 slw
n 2850 750 m
 2850 1275 l gs col7 1.00 shd ef gr gs col0 s gr 
% Polyline
n 2550 1275 m
 2550 750 l gs col7 1.00 shd ef gr gs col0 s gr 
% Polyline
n 2850 1575 m
 2850 1875 l gs col7 1.00 shd ef gr gs col0 s gr 
% Polyline
n 2550 1875 m
 2550 1575 l gs col7 1.00 shd ef gr gs col0 s gr 
% Polyline
0.000 slw
n 2550 1575 m 2550 1875 l 2850 1875 l 2850 1575 l
 cp gs col7 1.00 shd ef gr 
% Polyline
7.500 slw
gs  clippath
1770 390 m 1830 390 l 1830 239 l 1800 359 l 1770 239 l cp
eoclip
n 1800 0 m
 1800 375 l gs col7 1.00 shd ef gr gs col0 s gr gr

% arrowhead
n 1770 239 m 1800 359 l 1830 239 l 1770 239 l  cp gs 0.00 setgray ef gr  col0 s
% Polyline
gs  clippath
4095 315 m 4155 315 l 4155 164 l 4125 284 l 4095 164 l cp
eoclip
n 4125 0 m
 4125 300 l gs col7 1.00 shd ef gr gs col0 s gr gr

% arrowhead
n 4095 164 m 4125 284 l 4155 164 l 4095 164 l  cp gs 0.00 setgray ef gr  col0 s
% Polyline
gs  clippath
3641 1120 m 3691 1154 l 3775 1028 l 3684 1112 l 3725 995 l cp
eoclip
n 3825 900 m
 3675 1125 l gs col7 1.00 shd ef gr gs col0 s gr gr

% arrowhead
n 3725 995 m 3684 1112 l 3775 1028 l 3725 995 l  cp gs 0.00 setgray ef gr  col0 s
% Polyline
gs  clippath
3685 643 m 3643 685 l 3749 792 l 3686 686 l 3792 749 l cp
eoclip
n 3825 825 m
 3675 675 l gs col7 1.00 shd ef gr gs col0 s gr gr

% arrowhead
n 3792 749 m 3686 686 l 3749 792 l 3792 749 l  cp gs 0.00 setgray ef gr  col0 s
% Polyline
gs  clippath
1665 1005 m 1665 945 l 1514 945 l 1634 975 l 1514 1005 l cp
eoclip
n 1350 975 m
 1650 975 l gs col7 1.00 shd ef gr gs col0 s gr gr

% arrowhead
n 1514 1005 m 1634 975 l 1514 945 l 1514 1005 l  cp gs 0.00 setgray ef gr  col0 s
% Polyline
gs  clippath
4215 2205 m 4215 2145 l 4064 2145 l 4184 2175 l 4064 2205 l cp
3585 2145 m 3585 2205 l 3736 2205 l 3616 2175 l 3736 2145 l cp
eoclip
n 3600 2175 m
 4200 2175 l gs col7 1.00 shd ef gr gs col0 s gr gr

% arrowhead
n 3736 2145 m 3616 2175 l 3736 2205 l 3736 2145 l  cp gs 0.00 setgray ef gr  col0 s
% arrowhead
n 4064 2205 m 4184 2175 l 4064 2145 l 4064 2205 l  cp gs 0.00 setgray ef gr  col0 s
% Polyline
n 4350 975 m 5175 975 l 5175 1350 l 4350 1350 l
 cp gs col7 1.00 shd ef gr gs col0 s gr 
% Polyline
gs  clippath
5715 1230 m 5715 1170 l 5564 1170 l 5684 1200 l 5564 1230 l cp
eoclip
n 5175 1200 m
 5700 1200 l gs col7 1.00 shd ef gr gs col0 s gr gr

% arrowhead
n 5564 1230 m 5684 1200 l 5564 1170 l 5564 1230 l  cp gs 0.00 setgray ef gr  col0 s
% Polyline
n 4275 0 m 4350 0 l 4350 2250 l 4275 2250 l
 cp gs col7 0.00 shd ef gr gs col0 s gr 
% Polyline
 [60] 0 sd
n 1650 450 m
 1650 1875 l gs col0 s gr  [] 0 sd
% Polyline
 [60] 0 sd
n 1725 450 m
 1725 1875 l gs col0 s gr  [] 0 sd
% Polyline
n 3825 675 m
 4275 675 l gs col0 s gr 
% Polyline
n 2467 622 m 2775 622 l 2775 675 l 2467 675 l
 cp gs col7 0.00 shd ef gr gs col0 s gr 
% Polyline
n 1935 562 m 1785 502 l 1762 555 l 1920 600 l
 cp gs col7 0.00 shd ef gr gs col0 s gr 
% Polyline
gs  clippath
1916 603 m 1972 624 l 2026 483 l 1956 585 l 1970 462 l cp
eoclip
n 2175 0 m
 1950 600 l gs col7 0.00 shd ef gr gs col0 s gr gr

% arrowhead
n 1970 462 m 1956 585 l 2026 483 l 1970 462 l  cp gs 0.00 setgray ef gr  col0 s
% Polyline
gs  clippath
2607 628 m 2658 596 l 2577 468 l 2616 586 l 2526 500 l cp
eoclip
n 2250 0 m
 2625 600 l gs col7 0.00 shd ef gr gs col0 s gr gr

% arrowhead
n 2526 500 m 2616 586 l 2577 468 l 2526 500 l  cp gs 0.00 setgray ef gr  col0 s
% Polyline
n 2550 435 m 2553 437 l 2558 440 l 2566 446 l 2577 453 l 2591 461 l
 2606 469 l 2622 477 l 2640 484 l 2660 490 l 2682 493 l
 2707 495 l 2731 493 l 2753 490 l 2772 484 l 2788 477 l
 2803 469 l 2816 461 l 2827 453 l 2837 446 l 2844 440 l
 2848 437 l
 2850 435 l gs col0 s gr 
% Polyline
n 2550 1275 m 2552 1277 l 2557 1280 l 2565 1285 l 2575 1291 l 2588 1298 l
 2602 1305 l 2617 1311 l 2634 1317 l 2653 1322 l 2676 1326 l
 2700 1327 l 2724 1326 l 2747 1322 l 2766 1317 l 2783 1311 l
 2798 1305 l 2813 1298 l 2825 1291 l 2835 1285 l 2843 1280 l
 2848 1277 l
 2850 1275 l gs col0 s gr 
% Polyline
n 2550 1875 m 2552 1877 l 2556 1880 l 2563 1886 l 2573 1893 l 2584 1901 l
 2597 1909 l 2611 1917 l 2628 1924 l 2646 1930 l 2668 1933 l
 2692 1935 l 2717 1933 l 2739 1930 l 2759 1924 l 2777 1917 l
 2794 1909 l 2809 1901 l 2823 1893 l 2834 1886 l 2842 1880 l
 2847 1877 l
 2850 1875 l gs col0 s gr 
/Times-Roman-iso ff 150.00 scf sf
3975 -75 m
gs 1 -1 sc (bras) col0 sh gr
/Times-Roman-iso ff 150.00 scf sf
1650 -75 m
gs 1 -1 sc (piste) col0 sh gr
/Times-Roman-iso ff 150.00 scf sf
825 975 m
gs 1 -1 sc (cylindre) col0 sh gr
/Times-Roman-iso ff 150.00 scf sf
1200 675 m
gs 1 -1 sc (disque) col0 sh gr
/Times-Roman-iso ff 150.00 scf sf
1200 2100 m
gs 1 -1 sc (disque) col0 sh gr
/Times-Roman-iso ff 150.00 scf sf
1200 1500 m
gs 1 -1 sc (disque) col0 sh gr
/Times-Roman-iso ff 150.00 scf sf
2175 2400 m
gs 1 -1 sc (rotation) col0 sh gr
/Times-Roman-iso ff 150.00 scf sf
2625 -75 m
gs 1 -1 sc (axe) col0 sh gr
/Times-Roman-iso ff 150.00 scf sf
4425 1200 m
gs 1 -1 sc (Contr\364leur) col0 sh gr
/Times-Roman-iso ff 150.00 scf sf
5250 1425 m
gs 1 -1 sc (donn\351es) col0 sh gr
/Times-Roman-iso ff 150.00 scf sf
2100 -75 m
gs 1 -1 sc (blocs) col0 sh gr
$F2psEnd
rs
