#FIG 3.2
Portrait
Center
Inches
A4      
100.00
Single
-2
1200 2
2 1 0 1 -1 7 0 0 -1 0.000 0 0 -1 0 1 2
	1 1 1.00 60.00 120.00
	 1500 375 1950 375
2 1 0 1 -1 7 0 0 -1 0.000 0 0 -1 0 1 2
	1 1 1.00 60.00 120.00
	 1500 675 1950 675
2 1 0 1 -1 7 0 0 -1 0.000 0 0 -1 1 0 2
	1 1 1.00 60.00 120.00
	 1950 900 1500 900
2 1 0 1 -1 7 0 0 -1 0.000 0 0 -1 1 0 2
	1 1 1.00 60.00 120.00
	 1950 1125 1500 1125
2 1 0 1 -1 7 0 0 -1 0.000 0 0 -1 0 0 2
	 675 525 1575 525
2 1 0 1 0 7 50 0 -1 0.000 0 0 -1 1 0 2
	1 1 1.00 60.00 120.00
	 2700 675 3525 675
2 1 0 1 0 7 50 0 -1 0.000 0 0 -1 1 0 2
	1 1 1.00 60.00 120.00
	 2700 975 3375 975
2 1 0 1 -1 7 0 0 -1 0.000 0 0 -1 0 0 2
	 3450 525 4500 525
2 4 0 1 -1 7 0 0 -1 0.000 0 0 7 0 0 5
	 4500 1350 4500 225 3450 225 3450 1350 4500 1350
2 1 0 1 0 7 50 0 -1 0.000 0 0 -1 1 0 2
	1 1 1.00 60.00 120.00
	 2700 375 3525 375
2 4 0 1 -1 7 0 0 -1 0.000 0 0 7 0 0 5
	 1575 1350 1575 225 675 225 675 1350 1575 1350
4 0 0 50 0 0 10 0.0000 4 105 645 825 450 Internaute\001
4 0 0 50 0 2 10 0.0000 4 120 360 825 675 email\001
4 0 0 50 0 0 10 0.0000 4 75 270 825 825 nom\001
4 0 0 50 0 0 10 0.0000 4 150 435 825 975 pr\351nom\001
4 0 0 50 0 0 10 0.0000 4 150 375 825 1125 r\351gion\001
4 0 0 50 0 0 10 0.0000 4 105 675 2025 675 Identifiant\001
4 0 0 50 0 0 10 0.0000 4 105 615 2100 1050 Attributs\001
4 0 0 50 0 0 10 0.0000 4 105 315 3600 450 Film\001
4 0 0 50 0 0 10 0.0000 4 105 285 3600 825 titre\001
4 0 0 50 0 0 10 0.0000 4 105 330 3600 1275 genre\001
4 0 0 50 0 2 10 0.0000 4 120 135 3600 675 id\001
4 0 0 50 0 0 10 0.0000 4 150 330 3600 975 ann\351e\001
4 0 0 50 0 0 10 0.0000 4 150 420 3600 1125 r\351sum\351\001
4 0 0 50 0 0 10 0.0000 4 150 1230 1875 300 Nom du type d'entit\351\001
