%!PS-Adobe-2.0 EPSF-2.0
%%Title: simplist.eps
%%Creator: fig2dev Version 3.2 Patchlevel 1
%%CreationDate: Mon Jul 31 11:50:28 2000
%%For: rigaux@cartier ()
%%Orientation: Portrait
%%BoundingBox: 0 0 322 62
%%Pages: 0
%%BeginSetup
%%EndSetup
%%Magnification: 1.0000
%%EndComments
/$F2psDict 200 dict def
$F2psDict begin
$F2psDict /mtrx matrix put
/col-1 {0 setgray} bind def
/col0 {0.000 0.000 0.000 srgb} bind def
/col1 {0.000 0.000 1.000 srgb} bind def
/col2 {0.000 1.000 0.000 srgb} bind def
/col3 {0.000 1.000 1.000 srgb} bind def
/col4 {1.000 0.000 0.000 srgb} bind def
/col5 {1.000 0.000 1.000 srgb} bind def
/col6 {1.000 1.000 0.000 srgb} bind def
/col7 {1.000 1.000 1.000 srgb} bind def
/col8 {0.000 0.000 0.560 srgb} bind def
/col9 {0.000 0.000 0.690 srgb} bind def
/col10 {0.000 0.000 0.820 srgb} bind def
/col11 {0.530 0.810 1.000 srgb} bind def
/col12 {0.000 0.560 0.000 srgb} bind def
/col13 {0.000 0.690 0.000 srgb} bind def
/col14 {0.000 0.820 0.000 srgb} bind def
/col15 {0.000 0.560 0.560 srgb} bind def
/col16 {0.000 0.690 0.690 srgb} bind def
/col17 {0.000 0.820 0.820 srgb} bind def
/col18 {0.560 0.000 0.000 srgb} bind def
/col19 {0.690 0.000 0.000 srgb} bind def
/col20 {0.820 0.000 0.000 srgb} bind def
/col21 {0.560 0.000 0.560 srgb} bind def
/col22 {0.690 0.000 0.690 srgb} bind def
/col23 {0.820 0.000 0.820 srgb} bind def
/col24 {0.500 0.190 0.000 srgb} bind def
/col25 {0.630 0.250 0.000 srgb} bind def
/col26 {0.750 0.380 0.000 srgb} bind def
/col27 {1.000 0.500 0.500 srgb} bind def
/col28 {1.000 0.630 0.630 srgb} bind def
/col29 {1.000 0.750 0.750 srgb} bind def
/col30 {1.000 0.880 0.880 srgb} bind def
/col31 {1.000 0.840 0.000 srgb} bind def

end
save
-39.0 79.0 translate
1 -1 scale

/cp {closepath} bind def
/ef {eofill} bind def
/gr {grestore} bind def
/gs {gsave} bind def
/sa {save} bind def
/rs {restore} bind def
/l {lineto} bind def
/m {moveto} bind def
/rm {rmoveto} bind def
/n {newpath} bind def
/s {stroke} bind def
/sh {show} bind def
/slc {setlinecap} bind def
/slj {setlinejoin} bind def
/slw {setlinewidth} bind def
/srgb {setrgbcolor} bind def
/rot {rotate} bind def
/sc {scale} bind def
/sd {setdash} bind def
/ff {findfont} bind def
/sf {setfont} bind def
/scf {scalefont} bind def
/sw {stringwidth} bind def
/tr {translate} bind def
/tnt {dup dup currentrgbcolor
  4 -2 roll dup 1 exch sub 3 -1 roll mul add
  4 -2 roll dup 1 exch sub 3 -1 roll mul add
  4 -2 roll dup 1 exch sub 3 -1 roll mul add srgb}
  bind def
/shd {dup dup currentrgbcolor 4 -2 roll mul 4 -2 roll mul
  4 -2 roll mul srgb} bind def
/$F2psBegin {$F2psDict begin /$F2psEnteredState save def} def
/$F2psEnd {$F2psEnteredState restore end} def
%%EndProlog

$F2psBegin
10 setmiterlimit
n -1000 2315 m -1000 -1000 l 7012 -1000 l 7012 2315 l cp clip
 0.06000 0.06000 sc
/Times-Roman ff 150.00 scf sf
975 1275 m
gs 1 -1 sc (Page 1) col0 sh gr
/Times-Roman ff 150.00 scf sf
2325 1275 m
gs 1 -1 sc (Page 2) col0 sh gr
/Times-Roman ff 150.00 scf sf
3750 1275 m
gs 1 -1 sc (Page 3) col0 sh gr
/Times-Roman ff 150.00 scf sf
5250 1275 m
gs 1 -1 sc (Page 4) col0 sh gr
/Times-Roman ff 150.00 scf sf
750 525 m
gs 1 -1 sc (1) col0 sh gr
/Times-Roman ff 150.00 scf sf
1050 525 m
gs 1 -1 sc (5) col0 sh gr
/Times-Roman ff 150.00 scf sf
1350 525 m
gs 1 -1 sc (9) col0 sh gr
/Times-Roman ff 150.00 scf sf
2175 525 m
gs 1 -1 sc (2) col0 sh gr
/Times-Roman ff 150.00 scf sf
2475 525 m
gs 1 -1 sc (6) col0 sh gr
/Times-Roman ff 150.00 scf sf
2775 525 m
gs 1 -1 sc (10) col0 sh gr
/Times-Roman ff 150.00 scf sf
3675 525 m
gs 1 -1 sc (3) col0 sh gr
/Times-Roman ff 150.00 scf sf
3975 525 m
gs 1 -1 sc (7) col0 sh gr
/Times-Roman ff 150.00 scf sf
4275 525 m
gs 1 -1 sc (11) col0 sh gr
/Times-Roman ff 150.00 scf sf
5100 525 m
gs 1 -1 sc (4) col0 sh gr
/Times-Roman ff 150.00 scf sf
5400 525 m
gs 1 -1 sc (8) col0 sh gr
/Times-Roman ff 150.00 scf sf
5700 525 m
gs 1 -1 sc (12) col0 sh gr
% Polyline
7.500 slw
n 675 300 m 1650 300 l 1650 1050 l 675 1050 l cp gs col-1 s gr 
% Polyline
n 2025 300 m 3075 300 l 3075 1050 l 2025 1050 l cp gs col-1 s gr 
% Polyline
n 3525 300 m 4575 300 l 4575 1050 l 3525 1050 l cp gs col-1 s gr 
% Polyline
n 4950 300 m 6000 300 l 6000 1050 l 4950 1050 l cp gs col-1 s gr 
/Times-Roman ff 150.00 scf sf
750 825 m
gs 1 -1 sc (13) col-1 sh gr
/Times-Roman ff 150.00 scf sf
2100 825 m
gs 1 -1 sc (14) col-1 sh gr
/Times-Roman ff 150.00 scf sf
3600 750 m
gs 1 -1 sc (...) col-1 sh gr
/Times-Roman ff 150.00 scf sf
5025 750 m
gs 1 -1 sc (...) col-1 sh gr
/Times-Roman ff 150.00 scf sf
1050 825 m
gs 1 -1 sc (...) col-1 sh gr
/Times-Roman ff 150.00 scf sf
2400 825 m
gs 1 -1 sc (...) col-1 sh gr
$F2psEnd
rs
