#FIG 3.2
Landscape
Center
Metric
A4      
100.00
Single
-2
1200 2
6 1485 315 2250 495
4 0 0 50 0 0 10 0.0000 4 75 75 1485 450 v\001
4 0 0 50 0 0 10 0.0000 4 75 60 1620 450 e\001
4 0 0 50 0 0 10 0.0000 4 75 60 1755 450 r\001
4 0 0 50 0 0 10 0.0000 4 90 60 1890 450 t\001
4 0 0 50 0 0 10 0.0000 4 105 45 1980 450 i\001
4 0 0 50 0 0 10 0.0000 4 105 75 2070 450 g\001
4 0 0 50 0 0 10 0.0000 4 75 75 2160 450 o\001
-6
2 1 0 1 0 7 50 0 -1 0.000 0 0 -1 1 0 2
	1 1 1.00 60.00 120.00
	 450 360 450 720
2 1 0 1 0 7 50 0 -1 0.000 0 0 7 0 0 2
	 1080 315 1080 495
2 2 0 1 0 7 50 0 -1 0.000 0 0 -1 0 0 5
	 405 315 3825 315 3825 495 405 495 405 315
2 1 0 1 0 7 50 0 -1 0.000 0 0 7 0 0 2
	 2295 315 2295 495
2 1 0 1 0 7 50 0 -1 0.000 0 0 -1 0 0 4
	 1350 270 1350 225 2250 225 2250 270
4 0 0 50 0 0 10 0.0000 4 105 150 585 450 12\001
4 0 0 50 0 0 10 0.0000 4 105 225 810 450 110\001
4 0 0 50 0 0 10 0.0000 4 105 225 1125 450 123\001
4 0 0 50 0 0 10 0.0000 4 105 75 1350 450 7\001
4 0 0 50 0 0 10 0.0000 4 105 285 1665 180 titre\001
4 0 0 50 0 0 10 0.0000 4 105 120 1170 180 id\001
4 0 0 50 0 0 10 0.0000 4 150 420 495 180 en-t\352te\001
4 0 0 50 0 0 10 0.0000 4 135 525 270 855 pointeur\001
