%!PS-Adobe-2.0 EPSF-2.0
%%Title: hashjoin.eps
%%Creator: fig2dev Version 3.2.3 Patchlevel 
%%CreationDate: Tue May 14 15:27:45 2002
%%For: rigaux@cartier (Philippe Rigaux)
%%BoundingBox: 0 0 210 90
%%Magnification: 1.0000
%%EndComments
/$F2psDict 200 dict def
$F2psDict begin
$F2psDict /mtrx matrix put
/col-1 {0 setgray} bind def
/col0 {0.000 0.000 0.000 srgb} bind def
/col1 {0.000 0.000 1.000 srgb} bind def
/col2 {0.000 1.000 0.000 srgb} bind def
/col3 {0.000 1.000 1.000 srgb} bind def
/col4 {1.000 0.000 0.000 srgb} bind def
/col5 {1.000 0.000 1.000 srgb} bind def
/col6 {1.000 1.000 0.000 srgb} bind def
/col7 {1.000 1.000 1.000 srgb} bind def
/col8 {0.000 0.000 0.560 srgb} bind def
/col9 {0.000 0.000 0.690 srgb} bind def
/col10 {0.000 0.000 0.820 srgb} bind def
/col11 {0.530 0.810 1.000 srgb} bind def
/col12 {0.000 0.560 0.000 srgb} bind def
/col13 {0.000 0.690 0.000 srgb} bind def
/col14 {0.000 0.820 0.000 srgb} bind def
/col15 {0.000 0.560 0.560 srgb} bind def
/col16 {0.000 0.690 0.690 srgb} bind def
/col17 {0.000 0.820 0.820 srgb} bind def
/col18 {0.560 0.000 0.000 srgb} bind def
/col19 {0.690 0.000 0.000 srgb} bind def
/col20 {0.820 0.000 0.000 srgb} bind def
/col21 {0.560 0.000 0.560 srgb} bind def
/col22 {0.690 0.000 0.690 srgb} bind def
/col23 {0.820 0.000 0.820 srgb} bind def
/col24 {0.500 0.190 0.000 srgb} bind def
/col25 {0.630 0.250 0.000 srgb} bind def
/col26 {0.750 0.380 0.000 srgb} bind def
/col27 {1.000 0.500 0.500 srgb} bind def
/col28 {1.000 0.630 0.630 srgb} bind def
/col29 {1.000 0.750 0.750 srgb} bind def
/col30 {1.000 0.880 0.880 srgb} bind def
/col31 {1.000 0.840 0.000 srgb} bind def

end
save
newpath 0 90 moveto 0 0 lineto 210 0 lineto 210 90 lineto closepath clip newpath
-21.0 100.0 translate
1 -1 scale

/cp {closepath} bind def
/ef {eofill} bind def
/gr {grestore} bind def
/gs {gsave} bind def
/sa {save} bind def
/rs {restore} bind def
/l {lineto} bind def
/m {moveto} bind def
/rm {rmoveto} bind def
/n {newpath} bind def
/s {stroke} bind def
/sh {show} bind def
/slc {setlinecap} bind def
/slj {setlinejoin} bind def
/slw {setlinewidth} bind def
/srgb {setrgbcolor} bind def
/rot {rotate} bind def
/sc {scale} bind def
/sd {setdash} bind def
/ff {findfont} bind def
/sf {setfont} bind def
/scf {scalefont} bind def
/sw {stringwidth} bind def
/tr {translate} bind def
/tnt {dup dup currentrgbcolor
  4 -2 roll dup 1 exch sub 3 -1 roll mul add
  4 -2 roll dup 1 exch sub 3 -1 roll mul add
  4 -2 roll dup 1 exch sub 3 -1 roll mul add srgb}
  bind def
/shd {dup dup currentrgbcolor 4 -2 roll mul 4 -2 roll mul
  4 -2 roll mul srgb} bind def
/reencdict 12 dict def /ReEncode { reencdict begin
/newcodesandnames exch def /newfontname exch def /basefontname exch def
/basefontdict basefontname findfont def /newfont basefontdict maxlength dict def
basefontdict { exch dup /FID ne { dup /Encoding eq
{ exch dup length array copy newfont 3 1 roll put }
{ exch newfont 3 1 roll put } ifelse } { pop pop } ifelse } forall
newfont /FontName newfontname put newcodesandnames aload pop
128 1 255 { newfont /Encoding get exch /.notdef put } for
newcodesandnames length 2 idiv { newfont /Encoding get 3 1 roll put } repeat
newfontname newfont definefont pop end } def
/isovec [
8#055 /minus 8#200 /grave 8#201 /acute 8#202 /circumflex 8#203 /tilde
8#204 /macron 8#205 /breve 8#206 /dotaccent 8#207 /dieresis
8#210 /ring 8#211 /cedilla 8#212 /hungarumlaut 8#213 /ogonek 8#214 /caron
8#220 /dotlessi 8#230 /oe 8#231 /OE
8#240 /space 8#241 /exclamdown 8#242 /cent 8#243 /sterling
8#244 /currency 8#245 /yen 8#246 /brokenbar 8#247 /section 8#250 /dieresis
8#251 /copyright 8#252 /ordfeminine 8#253 /guillemotleft 8#254 /logicalnot
8#255 /hypen 8#256 /registered 8#257 /macron 8#260 /degree 8#261 /plusminus
8#262 /twosuperior 8#263 /threesuperior 8#264 /acute 8#265 /mu 8#266 /paragraph
8#267 /periodcentered 8#270 /cedilla 8#271 /onesuperior 8#272 /ordmasculine
8#273 /guillemotright 8#274 /onequarter 8#275 /onehalf
8#276 /threequarters 8#277 /questiondown 8#300 /Agrave 8#301 /Aacute
8#302 /Acircumflex 8#303 /Atilde 8#304 /Adieresis 8#305 /Aring
8#306 /AE 8#307 /Ccedilla 8#310 /Egrave 8#311 /Eacute
8#312 /Ecircumflex 8#313 /Edieresis 8#314 /Igrave 8#315 /Iacute
8#316 /Icircumflex 8#317 /Idieresis 8#320 /Eth 8#321 /Ntilde 8#322 /Ograve
8#323 /Oacute 8#324 /Ocircumflex 8#325 /Otilde 8#326 /Odieresis 8#327 /multiply
8#330 /Oslash 8#331 /Ugrave 8#332 /Uacute 8#333 /Ucircumflex
8#334 /Udieresis 8#335 /Yacute 8#336 /Thorn 8#337 /germandbls 8#340 /agrave
8#341 /aacute 8#342 /acircumflex 8#343 /atilde 8#344 /adieresis 8#345 /aring
8#346 /ae 8#347 /ccedilla 8#350 /egrave 8#351 /eacute
8#352 /ecircumflex 8#353 /edieresis 8#354 /igrave 8#355 /iacute
8#356 /icircumflex 8#357 /idieresis 8#360 /eth 8#361 /ntilde 8#362 /ograve
8#363 /oacute 8#364 /ocircumflex 8#365 /otilde 8#366 /odieresis 8#367 /divide
8#370 /oslash 8#371 /ugrave 8#372 /uacute 8#373 /ucircumflex
8#374 /udieresis 8#375 /yacute 8#376 /thorn 8#377 /ydieresis] def
/Times-Roman /Times-Roman-iso isovec ReEncode
/Times-Italic /Times-Italic-iso isovec ReEncode
/$F2psBegin {$F2psDict begin /$F2psEnteredState save def} def
/$F2psEnd {$F2psEnteredState restore end} def

$F2psBegin
%%Page: 1 1
10 setmiterlimit
 0.06299 0.06299 sc
% Polyline
7.500 slw
n 465 360 m 360 360 360 705 105 arcto 4 {pop} repeat
  360 810 1110 810 105 arcto 4 {pop} repeat
  1215 810 1215 465 105 arcto 4 {pop} repeat
  1215 360 465 360 105 arcto 4 {pop} repeat
 cp gs col6 1.00 shd ef gr gs col0 s gr 
% Polyline
n 465 1080 m 360 1080 360 1380 105 arcto 4 {pop} repeat
  360 1485 1110 1485 105 arcto 4 {pop} repeat
  1215 1485 1215 1185 105 arcto 4 {pop} repeat
  1215 1080 465 1080 105 arcto 4 {pop} repeat
 cp gs col3 1.00 shd ef gr gs col0 s gr 
% Polyline
n 1440 945 m 1440 1305 l
 1215 1305 l gs col0 s gr 
% Polyline
n 2745 360 m 3285 360 l 3285 585 l 2745 585 l
 cp gs col6 1.00 shd ef gr gs col0 s gr 
% Polyline
n 3105 315 m 3645 315 l 3645 540 l 3105 540 l
 cp gs col3 1.00 shd ef gr gs col0 s gr 
% Polyline
n 2745 630 m 3285 630 l 3285 855 l 2745 855 l
 cp gs col6 1.00 shd ef gr gs col0 s gr 
% Polyline
n 3105 585 m 3645 585 l 3645 810 l 3105 810 l
 cp gs col3 1.00 shd ef gr gs col0 s gr 
% Polyline
n 2745 1350 m 3285 1350 l 3285 1575 l 2745 1575 l
 cp gs col6 1.00 shd ef gr gs col0 s gr 
% Polyline
n 3105 1305 m 3645 1305 l 3645 1530 l 3105 1530 l
 cp gs col3 1.00 shd ef gr gs col0 s gr 
% Polyline
gs  clippath
2760 525 m 2760 465 l 2609 465 l 2729 495 l 2609 525 l cp
eoclip
n 2385 495 m
 2745 495 l gs col3 1.00 shd ef gr gs col0 s gr gr

% arrowhead
n 2609 525 m 2729 495 l 2609 465 l 2609 525 l  cp gs 0.00 setgray ef gr  col0 s
% Polyline
n 2205 450 m 2070 450 l 2070 1530 l
 2160 1530 l gs col0 s gr 
% Polyline
n 1215 630 m 1440 630 l 1440 990 l
 2070 990 l gs col0 s gr 
% Polyline
gs  clippath
2760 750 m 2760 690 l 2609 690 l 2729 720 l 2609 750 l cp
eoclip
n 2385 720 m
 2745 720 l gs col3 1.00 shd ef gr gs col0 s gr gr

% arrowhead
n 2609 750 m 2729 720 l 2609 690 l 2609 750 l  cp gs 0.00 setgray ef gr  col0 s
% Polyline
gs  clippath
2760 1470 m 2760 1410 l 2609 1410 l 2729 1440 l 2609 1470 l cp
eoclip
n 2385 1440 m
 2745 1440 l gs col3 1.00 shd ef gr gs col0 s gr gr

% arrowhead
n 2609 1470 m 2729 1440 l 2609 1410 l 2609 1470 l  cp gs 0.00 setgray ef gr  col0 s
/Times-Italic-iso ff 150.00 scf sf
1530 900 m
gs 1 -1 sc (hachage) col0 sh gr
/Times-Roman-iso ff 150.00 scf sf
540 630 m
gs 1 -1 sc (Table A) col0 sh gr
/Times-Roman-iso ff 150.00 scf sf
585 1305 m
gs 1 -1 sc (Table B) col0 sh gr
/Times-Italic-iso ff 150.00 scf sf
2880 540 m
gs 1 -1 sc (A1) col0 sh gr
/Times-Italic-iso ff 150.00 scf sf
3375 495 m
gs 1 -1 sc (B1) col0 sh gr
/Times-Italic-iso ff 150.00 scf sf
2880 810 m
gs 1 -1 sc (A2) col0 sh gr
/Times-Italic-iso ff 150.00 scf sf
3375 765 m
gs 1 -1 sc (B2) col0 sh gr
/Times-Italic-iso ff 150.00 scf sf
2880 1530 m
gs 1 -1 sc (A6) col0 sh gr
/Times-Italic-iso ff 150.00 scf sf
3420 1485 m
gs 1 -1 sc (B6) col0 sh gr
% Polyline
n 2250 630 m
 2385 630 l gs col0 s gr 
% Polyline
n 2250 810 m
 2385 810 l gs col0 s gr 
% Polyline
n 2250 990 m
 2385 990 l gs col0 s gr 
% Polyline
n 2250 1170 m
 2385 1170 l gs col0 s gr 
% Polyline
n 2250 1350 m
 2385 1350 l gs col0 s gr 
% Polyline
n 2250 450 m 2385 450 l 2385 1530 l 2250 1530 l
 cp gs col0 s gr 
/Times-Roman-iso ff 150.00 scf sf
2070 315 m
gs 1 -1 sc (m\351moire) col0 sh gr
$F2psEnd
rs
