%!PS-Adobe-2.0 EPSF-2.0
%%Title: rtreeins1.eps
%%Creator: fig2dev Version 3.2 Patchlevel 0-beta3
%%CreationDate: Thu Dec  2 13:30:36 1999
%%For: rigaux@vespucci (Philippe Rigaux)
%%Orientation: Portrait
%%BoundingBox: 0 0 341 129
%%Pages: 0
%%BeginSetup
%%EndSetup
%%Magnification: 1.0000
%%EndComments
/$F2psDict 200 dict def
$F2psDict begin
$F2psDict /mtrx matrix put
/col-1 {0 setgray} bind def
/col0 {0.000 0.000 0.000 srgb} bind def
/col1 {0.000 0.000 1.000 srgb} bind def
/col2 {0.000 1.000 0.000 srgb} bind def
/col3 {0.000 1.000 1.000 srgb} bind def
/col4 {1.000 0.000 0.000 srgb} bind def
/col5 {1.000 0.000 1.000 srgb} bind def
/col6 {1.000 1.000 0.000 srgb} bind def
/col7 {1.000 1.000 1.000 srgb} bind def
/col8 {0.000 0.000 0.560 srgb} bind def
/col9 {0.000 0.000 0.690 srgb} bind def
/col10 {0.000 0.000 0.820 srgb} bind def
/col11 {0.530 0.810 1.000 srgb} bind def
/col12 {0.000 0.560 0.000 srgb} bind def
/col13 {0.000 0.690 0.000 srgb} bind def
/col14 {0.000 0.820 0.000 srgb} bind def
/col15 {0.000 0.560 0.560 srgb} bind def
/col16 {0.000 0.690 0.690 srgb} bind def
/col17 {0.000 0.820 0.820 srgb} bind def
/col18 {0.560 0.000 0.000 srgb} bind def
/col19 {0.690 0.000 0.000 srgb} bind def
/col20 {0.820 0.000 0.000 srgb} bind def
/col21 {0.560 0.000 0.560 srgb} bind def
/col22 {0.690 0.000 0.690 srgb} bind def
/col23 {0.820 0.000 0.820 srgb} bind def
/col24 {0.500 0.190 0.000 srgb} bind def
/col25 {0.630 0.250 0.000 srgb} bind def
/col26 {0.750 0.380 0.000 srgb} bind def
/col27 {1.000 0.500 0.500 srgb} bind def
/col28 {1.000 0.630 0.630 srgb} bind def
/col29 {1.000 0.750 0.750 srgb} bind def
/col30 {1.000 0.880 0.880 srgb} bind def
/col31 {1.000 0.840 0.000 srgb} bind def

end
save
-29.0 165.0 translate
1 -1 scale

/cp {closepath} bind def
/ef {eofill} bind def
/gr {grestore} bind def
/gs {gsave} bind def
/sa {save} bind def
/rs {restore} bind def
/l {lineto} bind def
/m {moveto} bind def
/rm {rmoveto} bind def
/n {newpath} bind def
/s {stroke} bind def
/sh {show} bind def
/slc {setlinecap} bind def
/slj {setlinejoin} bind def
/slw {setlinewidth} bind def
/srgb {setrgbcolor} bind def
/rot {rotate} bind def
/sc {scale} bind def
/sd {setdash} bind def
/ff {findfont} bind def
/sf {setfont} bind def
/scf {scalefont} bind def
/sw {stringwidth} bind def
/tr {translate} bind def
/tnt {dup dup currentrgbcolor
  4 -2 roll dup 1 exch sub 3 -1 roll mul add
  4 -2 roll dup 1 exch sub 3 -1 roll mul add
  4 -2 roll dup 1 exch sub 3 -1 roll mul add srgb}
  bind def
/shd {dup dup currentrgbcolor 4 -2 roll mul 4 -2 roll mul
  4 -2 roll mul srgb} bind def
 /DrawEllipse {
	/endangle exch def
	/startangle exch def
	/yrad exch def
	/xrad exch def
	/y exch def
	/x exch def
	/savematrix mtrx currentmatrix def
	x y tr xrad yrad sc 0 0 1 startangle endangle arc
	closepath
	savematrix setmatrix
	} def

/$F2psBegin {$F2psDict begin /$F2psEnteredState save def} def
/$F2psEnd {$F2psEnteredState restore end} def
%%EndProlog

$F2psBegin
10 setmiterlimit
n -1000 3748 m -1000 -1000 l 7151 -1000 l 7151 3748 l cp clip
 0.06000 0.06000 sc
% Polyline
7.500 slw
n 2081 2108 m 2081 1965 l 1700 1965 l 1700 2108 l cp gs col7 0.50 shd ef gr gs col0 s gr 
% Polyline
n 2556 1109 m 2556 681 l 2319 681 l 2319 1109 l cp gs col7 0.50 shd ef gr gs col0 s gr 
% Polyline
n 2272 918 m 2272 681 l 1938 681 l 1938 918 l cp gs col7 0.50 shd ef gr gs col0 s gr 
% Polyline
n 2462 1680 m 2462 1394 l 2272 1394 l 2272 1680 l cp gs col7 0.50 shd ef gr gs col0 s gr 
% Polyline
n 1891 1585 m 1891 823 l 1652 823 l 1652 1585 l cp gs col7 0.50 shd ef gr gs col0 s gr 
% Polyline
n 1557 1014 m 1557 776 l 1320 776 l 1320 1014 l cp gs col7 0.50 shd ef gr gs col0 s gr 
% Polyline
n 1224 871 m 1224 728 l 844 728 l 844 871 l cp gs col7 0.50 shd ef gr gs col0 s gr 
% Polyline
n 796 871 m 796 681 l 606 681 l 606 871 l cp gs col7 0.50 shd ef gr gs col0 s gr 
% Polyline
n 1129 1490 m 1129 1014 l 987 1014 l 987 1490 l cp gs col7 0.50 shd ef gr gs col0 s gr 
% Polyline
n 939 1156 m 939 1014 l 653 1014 l 653 1156 l cp gs col7 0.50 shd ef gr gs col0 s gr 
% Polyline
n 844 1680 m 844 1537 l 558 1537 l 558 1680 l cp gs col7 0.50 shd ef gr gs col0 s gr 
% Polyline
n 1463 2488 m 1463 2297 l 1082 2297 l 1082 2488 l cp gs col7 0.50 shd ef gr gs col0 s gr 
% Polyline
n 892 2678 m 892 2536 l 606 2536 l 606 2678 l cp gs col7 0.50 shd ef gr gs col0 s gr 
% Polyline
n 2367 1441 m 2367 1251 l 1747 1251 l 1747 1441 l cp gs col7 0.50 shd ef gr gs col0 s gr 
% Polyline
n 2128 1869 m 2128 1680 l 1747 1680 l 1747 1869 l cp gs col7 0.50 shd ef gr gs col0 s gr 
/Times-Roman ff 120.00 scf sf
4772 2245 m
gs 1 -1 sc ([8,9,14]) col0 sh gr
/Times-Roman ff 120.00 scf sf
1129 2440 m
gs 1 -1 sc (7) col0 sh gr
/Times-Roman ff 120.00 scf sf
3916 2245 m
gs 1 -1 sc ([3,4,7,10]) col0 sh gr
/Times-Roman ff 120.00 scf sf
3107 2245 m
gs 1 -1 sc ([1,2,5,6]) col0 sh gr
/Times-Roman ff 120.00 scf sf
653 823 m
gs 1 -1 sc (1) col0 sh gr
/Times-Roman ff 120.00 scf sf
748 1108 m
gs 1 -1 sc (2) col0 sh gr
/Times-Roman ff 120.00 scf sf
1034 1299 m
gs 1 -1 sc (6) col0 sh gr
/Times-Roman ff 120.00 scf sf
1368 918 m
gs 1 -1 sc (14) col0 sh gr
/Times-Roman ff 120.00 scf sf
1796 1109 m
gs 1 -1 sc (8) col0 sh gr
/Times-Roman ff 120.00 scf sf
2319 1585 m
gs 1 -1 sc (13) col0 sh gr
/Times-Roman ff 120.00 scf sf
2414 871 m
gs 1 -1 sc (15) col0 sh gr
/Times-Roman ff 120.00 scf sf
1986 871 m
gs 1 -1 sc (11) col0 sh gr
/Times-Roman ff 120.00 scf sf
5475 2250 m
gs 1 -1 sc ([11,12,13,15]) col0 sh gr
/Times-Roman ff 120.00 scf sf
653 2631 m
gs 1 -1 sc (4) col0 sh gr
/Times-Roman ff 120.00 scf sf
938 823 m
gs 1 -1 sc (5) col0 sh gr
/Times-Roman ff 120.00 scf sf
1795 2059 m
gs 1 -1 sc (10) col0 sh gr
/Times-Roman ff 120.00 scf sf
1796 1822 m
gs 1 -1 sc (9) col0 sh gr
/Times-Roman ff 120.00 scf sf
1938 1394 m
gs 1 -1 sc (12) col0 sh gr
% Ellipse
n 4107 1961 66 66 0 360 DrawEllipse gs col-1 s gr

% Polyline
 [15] 0 sd
n 1746 1680 m 2555 1680 l 2555 681 l 1746 681 l cp gs col-1 s gr  [] 0 sd
/Times-Italic ff 150.00 scf sf
1955 2617 m
gs 1 -1 sc (b) col-1 sh gr
/Times-Italic ff 150.00 scf sf
2700 2700 m
gs 1 -1 sc (R) col-1 sh gr
/Times-Italic ff 150.00 scf sf
2475 1275 m
gs 1 -1 sc (d) col-1 sh gr
% Ellipse
n 4916 1961 66 66 0 360 DrawEllipse gs col-1 s gr

/Times-Italic ff 150.00 scf sf
675 1425 m
gs 1 -1 sc (a) col-1 sh gr
% Ellipse
n 5820 1961 66 66 0 360 DrawEllipse gs col-1 s gr

% Ellipse
n 4516 1419 84 84 0 360 DrawEllipse gs col-1 s gr

/Times-Italic ff 150.00 scf sf
1425 1800 m
gs 1 -1 sc (c) col-1 sh gr
% Polyline
15.000 slw
n 2604 2726 m 2604 633 l 511 633 l 511 2726 l cp gs col-1 s gr 
% Polyline
7.500 slw
 [15] 0 sd
n 2081 2678 m 558 2678 l 558 1537 l 2081 1537 l cp gs col-1 s gr  [] 0 sd
% Polyline
 [15] 0 sd
n 2128 1869 m 1320 1869 l 1320 776 l 2128 776 l cp gs col-1 s gr  [] 0 sd
% Polyline
 [15] 0 sd
n 1224 1490 m 606 1490 l 606 681 l 1224 681 l cp gs col-1 s gr  [] 0 sd
% Polyline
n 4440 1430 m 3382 1912 l gs col-1 s gr 
% Polyline
n 4605 1415 m 5827 1897 l gs col-1 s gr 
/Times-Italic ff 150.00 scf sf
3108 2009 m
gs 1 -1 sc (a) col-1 sh gr
/Times-Italic ff 150.00 scf sf
4440 1200 m
gs 1 -1 sc (R) col-1 sh gr
/Times-Italic ff 150.00 scf sf
3868 2009 m
gs 1 -1 sc (b) col-1 sh gr
/Times-Italic ff 150.00 scf sf
4677 2009 m
gs 1 -1 sc (c) col-1 sh gr
/Times-Italic ff 150.00 scf sf
5582 2009 m
gs 1 -1 sc (d) col-1 sh gr
% Polyline
n 4575 1480 m 4905 1890 l gs col-1 s gr 
% Polyline
n 4475 1490 m 4118 1905 l gs col-1 s gr 
/Times-Italic ff 120.00 scf sf
653 1631 m
gs 1 -1 sc (3) col-1 sh gr
% Ellipse
n 3345 1961 66 66 0 360 DrawEllipse gs col-1 s gr

$F2psEnd
rs
