#FIG 3.2
Portrait
Center
Inches
A4      
100.00
Single
-2
1200 2
5 1 0 1 0 7 50 0 -1 0.000 0 0 0 0 887.500 4050.000 825 3900 1050 4050 825 4200
6 1050 3900 1650 4125
2 2 0 1 0 7 50 0 -1 0.000 0 0 -1 0 0 5
	 1050 3900 1650 3900 1650 4125 1050 4125 1050 3900
4 0 0 50 0 0 10 0.0000 4 105 525 1125 4050 nbPrises\001
-6
2 1 0 1 -1 7 0 0 -1 0.000 0 0 -1 0 0 2
	 1651 4501 2625 4500
2 1 0 1 -1 7 0 0 -1 0.000 0 0 -1 0 0 2
	 377 3077 1276 3076
2 4 0 1 0 7 50 0 -1 0.000 0 0 7 0 0 5
	 1275 3525 1275 2775 375 2775 375 3525 1275 3525
2 4 0 1 0 7 50 0 -1 0.000 0 0 7 0 0 5
	 2625 4950 2625 4275 1650 4275 1650 4950 2625 4950
2 1 0 1 0 7 50 0 -1 0.000 0 0 -1 0 0 3
	 3600 3450 3600 4650 2625 4650
2 1 0 1 0 7 50 0 0 0.000 0 0 -1 0 0 2
	 2100 4275 2100 3450
2 1 0 1 0 7 50 0 -1 0.000 0 0 7 0 0 4
	 825 3525 825 4725 1650 4725 1650 4800
2 1 0 1 -1 7 0 0 -1 0.000 0 0 -1 0 0 2
	 1726 3000 2551 3000
2 4 0 1 0 7 50 0 -1 0.000 0 0 7 0 0 5
	 2550 3450 2550 2775 1725 2775 1725 3450 2550 3450
2 1 0 1 -1 7 0 0 -1 0.000 0 0 -1 0 0 2
	 3151 3001 3975 3000
2 4 0 1 0 7 50 0 -1 0.000 0 0 7 0 0 5
	 3975 3450 3975 2775 3150 2775 3150 3450 3975 3450
4 0 -1 0 0 -1 10 0.0000 4 105 825 1726 4426 Consultation\001
4 0 0 50 0 0 10 0.0000 4 150 720 452 3002 M\351dicament\001
4 0 0 50 0 0 10 0.0000 4 105 465 3675 3975 Assiste\001
4 0 0 50 0 0 10 0.0000 4 105 390 2175 3675 Donne\001
4 0 0 50 0 0 10 0.0000 4 150 510 1802 2943 M\351decin\001
4 0 0 50 0 0 10 0.0000 4 105 450 3225 2925 Patient\001
4 0 0 50 0 2 10 0.0000 4 105 360 3225 3150 noSS\001
4 0 0 50 0 2 10 0.0000 4 120 630 1801 3150 matricule\001
4 0 0 50 0 2 10 0.0000 4 105 330 450 3225 code\001
4 0 0 50 0 2 10 0.0000 4 75 180 1725 4650 no\001
4 0 0 50 0 0 10 0.0000 4 150 375 450 3375 libell\351\001
4 0 0 50 0 0 10 0.0000 4 75 270 1801 3300 nom\001
4 0 -1 0 0 -1 10 0.0000 4 75 270 3225 3300 nom\001
4 0 -1 0 0 -1 10 0.0000 4 105 255 1725 4800 date\001
4 0 0 50 0 0 10 0.0000 4 105 240 600 3675 0..*\001
4 0 0 50 0 0 10 0.0000 4 105 240 1425 4875 0..*\001
4 0 0 50 0 0 10 0.0000 4 105 240 2700 4800 0..*\001
4 0 0 50 0 0 10 0.0000 4 105 240 1875 4200 0..*\001
4 0 0 50 0 0 10 0.0000 4 105 240 1875 3600 1..1\001
4 0 0 50 0 0 10 0.0000 4 105 240 3375 3600 1..1\001
