#FIG 3.2
Portrait
Center
Inches
A4      
200.00
Single
-2
1200 2
5 1 0 1 0 7 100 0 -1 0.000 0 0 0 0 3375.000 1068.750 3150 975 3375 825 3600 975
5 1 0 1 0 7 100 0 -1 0.000 0 1 0 0 1575.000 2156.250 1350 2250 1575 2400 1800 2250
6 4275 2100 5100 3150
2 1 0 1 -1 7 0 0 -1 0.000 0 0 -1 0 0 2
	 4275 2400 5100 2400
2 4 0 1 -1 7 0 0 -1 0.000 0 0 7 0 0 5
	 5100 3150 5100 2100 4275 2100 4275 3150 5100 3150
4 0 0 100 0 0 10 0.0000 4 135 285 4500 2325 Pays\001
4 0 0 100 0 0 10 0.0000 4 75 270 4425 2850 nom\001
4 0 0 100 0 0 10 0.0000 4 135 405 4425 3075 langue\001
4 0 0 100 0 2 10 0.0000 2 105 330 4425 2625 code\001
-6
6 1275 3525 2100 4350
2 1 0 1 -1 7 0 0 -1 0.000 0 0 -1 0 0 2
	 1275 3825 2100 3825
2 4 0 1 -1 7 0 0 -1 0.000 0 0 7 0 0 5
	 2100 4350 2100 3525 1275 3525 1275 4350 2100 4350
4 0 0 100 0 0 10 0.0000 4 105 315 1500 3750 Salle\001
4 0 0 100 0 0 10 0.0000 4 150 465 1425 4050 capacit\351\001
4 0 0 100 0 0 10 0.0000 4 150 585 1425 4275 climatis\351e\001
-6
2 1 0 1 -1 7 0 0 -1 0.000 0 0 -1 0 0 2
	 375 600 1425 600
2 1 0 1 0 7 100 0 -1 0.000 0 0 -1 0 0 3
	 1425 975 2475 975 2475 1350
2 1 0 1 -1 7 0 0 -1 0.000 0 0 -1 0 0 2
	 4050 600 5175 600
2 1 0 1 -1 7 0 0 -1 0.000 0 0 -1 0 0 2
	 2251 1651 3076 1651
2 1 0 1 0 7 100 0 -1 0.000 0 0 -1 0 0 3
	 2850 1350 2850 825 4050 825
2 2 0 1 0 7 100 0 -1 0.000 0 0 7 0 0 5
	 3075 975 3675 975 3675 1200 3075 1200 3075 975
2 2 0 1 0 7 100 0 -1 0.000 0 0 7 0 0 5
	 1275 2400 1875 2400 1875 2625 1275 2625 1275 2400
2 4 0 1 -1 7 0 0 -1 0.000 0 0 7 0 0 5
	 1425 1575 1425 300 375 300 375 1575 1425 1575
2 1 0 1 0 7 100 0 -1 0.000 0 0 -1 0 0 3
	 1050 1575 1050 2250 2250 2250
2 4 0 1 -1 7 0 0 -1 0.000 0 0 7 0 0 5
	 5175 1800 5175 300 4050 300 4050 1800 5175 1800
2 1 0 1 0 7 100 0 -1 0.000 0 0 -1 0 0 3
	 3075 2475 3300 2475 4275 2475
2 2 0 1 0 7 50 0 -1 0.000 0 0 -1 0 0 5
	 450 3525 750 3525 750 3750 450 3750 450 3525
2 1 0 1 0 7 50 0 -1 0.000 0 0 -1 0 0 3
	 600 3750 600 4050 1275 4050
2 3 0 1 0 7 50 0 -1 0.000 0 0 -1 0 0 5
	 2400 3300 2700 3150 3000 3300 2700 3450 2400 3300
2 1 0 1 -1 7 0 0 -1 0.000 0 0 -1 0 0 2
	 3450 3750 4275 3750
2 4 0 1 -1 7 0 0 -1 0.000 0 0 7 0 0 5
	 4275 4500 4275 3450 3450 3450 3450 4500 4275 4500
2 1 0 1 0 7 50 0 -1 0.000 0 0 -1 0 0 2
	 2700 3150 2700 2850
2 1 0 1 0 7 50 0 -1 0.000 0 0 -1 0 0 3
	 3000 3300 3900 3300 3900 3450
2 1 0 1 0 7 50 0 -1 0.000 0 0 -1 0 0 3
	 2400 3300 1725 3300 1725 3525
2 1 0 1 -1 7 0 0 -1 0.000 0 0 -1 0 0 2
	 225 3000 1050 3000
2 4 0 1 -1 7 0 0 -1 0.000 0 0 7 0 0 5
	 1050 3525 1050 2700 225 2700 225 3525 1050 3525
2 4 0 1 -1 7 0 0 -1 0.000 0 0 7 0 0 5
	 3076 2850 3076 1351 2250 1351 2250 2850 3076 2850
4 0 0 100 0 0 10 0.0000 6 105 465 525 525 Artiste\001
4 0 0 100 0 0 10 0.0000 6 75 270 4200 1050 nom\001
4 0 -1 0 0 -1 10 0.0000 4 150 435 4200 1275 pr\351nom\001
4 0 0 100 0 2 10 0.0000 2 120 360 4200 825 email\001
4 0 0 100 0 0 10 0.0000 6 105 645 4200 525 Internaute\001
4 0 0 100 0 0 10 0.0000 6 105 315 2476 1576 Film\001
4 0 0 100 0 0 10 0.0000 6 90 270 3225 1125 note\001
4 0 0 100 0 3 10 0.0000 2 105 960 3075 750 Donne une note\001
4 0 -1 0 0 -1 10 0.0000 4 150 435 450 1275 pr\351nom\001
4 0 -1 0 0 -1 10 0.0000 4 75 270 450 1050 nom\001
4 0 0 100 0 2 10 0.0000 2 120 135 450 825 id\001
4 0 0 100 0 3 10 0.0000 2 120 465 1500 900 R\351alise\001
4 0 -1 0 0 -1 10 0.0000 4 150 225 1425 2550 r\364le\001
4 0 0 100 0 0 10 0.0000 4 135 825 4200 1500 motDePpasse\001
4 0 0 100 0 0 10 0.0000 4 150 900 4200 1725 ann\351eNaissance\001
4 0 0 100 0 0 10 0.0000 4 150 900 450 1500 ann\351eNaissance\001
4 0 0 100 0 3 10 0.0000 2 105 285 750 1950 Joue\001
4 0 0 50 0 0 10 0.0000 4 105 240 1125 1725 0..*\001
4 0 0 50 0 0 10 0.0000 4 105 240 2025 2175 0..*\001
4 0 0 50 0 0 10 0.0000 4 105 240 2250 1275 0..*\001
4 0 0 50 0 0 10 0.0000 4 105 240 1500 1125 0..1\001
4 0 0 50 0 0 10 0.0000 4 45 75 2925 1275 *\001
4 0 0 50 0 0 10 0.0000 4 45 75 3900 975 *\001
4 0 0 50 0 0 10 0.0000 4 105 240 4050 2400 1..1\001
4 0 0 50 0 0 10 0.0000 4 45 75 3150 2400 *\001
4 0 0 100 0 2 10 0.0000 2 75 180 525 3675 no\001
4 0 0 100 0 0 10 0.0000 4 105 480 3675 3675 Horaire\001
4 0 0 100 0 0 10 0.0000 4 150 675 3525 4200 heureD\351but\001
4 0 0 100 0 0 10 0.0000 4 105 540 3525 4425 heureFin\001
4 0 0 100 0 2 10 0.0000 2 120 135 3525 3975 id\001
4 0 0 100 0 0 10 0.0000 4 150 465 375 2925 Cin\351ma\001
4 0 0 100 0 0 10 0.0000 4 105 435 375 3450 adresse\001
4 0 0 50 0 2 10 0.0000 4 75 300 375 3225 nom\001
4 0 0 100 0 0 10 0.0000 4 150 420 2400 2775 r\351sum\351\001
4 0 0 100 0 0 10 0.0000 4 105 330 2400 2550 genre\001
4 0 0 100 0 0 10 0.0000 6 150 330 2400 2325 ann\351e\001
4 0 0 100 0 2 10 0.0000 2 120 135 2400 1875 id\001
4 0 0 50 0 0 10 0.0000 4 105 285 2400 2100 titre\001
