%!PS-Adobe-2.0 EPSF-2.0
%%Title: oraphys.fig
%%Creator: fig2dev Version 3.2 Patchlevel 1
%%CreationDate: Fri Jan 19 12:44:58 2001
%%For: amann@magellan (Bernd Amann)
%%Orientation: Portrait
%%BoundingBox: 0 0 244 186
%%Pages: 0
%%BeginSetup
%%EndSetup
%%Magnification: 1.0000
%%EndComments
/$F2psDict 200 dict def
$F2psDict begin
$F2psDict /mtrx matrix put
/col-1 {0 setgray} bind def
/col0 {0.000 0.000 0.000 srgb} bind def
/col1 {0.000 0.000 1.000 srgb} bind def
/col2 {0.000 1.000 0.000 srgb} bind def
/col3 {0.000 1.000 1.000 srgb} bind def
/col4 {1.000 0.000 0.000 srgb} bind def
/col5 {1.000 0.000 1.000 srgb} bind def
/col6 {1.000 1.000 0.000 srgb} bind def
/col7 {1.000 1.000 1.000 srgb} bind def
/col8 {0.000 0.000 0.560 srgb} bind def
/col9 {0.000 0.000 0.690 srgb} bind def
/col10 {0.000 0.000 0.820 srgb} bind def
/col11 {0.530 0.810 1.000 srgb} bind def
/col12 {0.000 0.560 0.000 srgb} bind def
/col13 {0.000 0.690 0.000 srgb} bind def
/col14 {0.000 0.820 0.000 srgb} bind def
/col15 {0.000 0.560 0.560 srgb} bind def
/col16 {0.000 0.690 0.690 srgb} bind def
/col17 {0.000 0.820 0.820 srgb} bind def
/col18 {0.560 0.000 0.000 srgb} bind def
/col19 {0.690 0.000 0.000 srgb} bind def
/col20 {0.820 0.000 0.000 srgb} bind def
/col21 {0.560 0.000 0.560 srgb} bind def
/col22 {0.690 0.000 0.690 srgb} bind def
/col23 {0.820 0.000 0.820 srgb} bind def
/col24 {0.500 0.190 0.000 srgb} bind def
/col25 {0.630 0.250 0.000 srgb} bind def
/col26 {0.750 0.380 0.000 srgb} bind def
/col27 {1.000 0.500 0.500 srgb} bind def
/col28 {1.000 0.630 0.630 srgb} bind def
/col29 {1.000 0.750 0.750 srgb} bind def
/col30 {1.000 0.880 0.880 srgb} bind def
/col31 {1.000 0.840 0.000 srgb} bind def

end
save
-8.0 351.0 translate
1 -1 scale

/cp {closepath} bind def
/ef {eofill} bind def
/gr {grestore} bind def
/gs {gsave} bind def
/sa {save} bind def
/rs {restore} bind def
/l {lineto} bind def
/m {moveto} bind def
/rm {rmoveto} bind def
/n {newpath} bind def
/s {stroke} bind def
/sh {show} bind def
/slc {setlinecap} bind def
/slj {setlinejoin} bind def
/slw {setlinewidth} bind def
/srgb {setrgbcolor} bind def
/rot {rotate} bind def
/sc {scale} bind def
/sd {setdash} bind def
/ff {findfont} bind def
/sf {setfont} bind def
/scf {scalefont} bind def
/sw {stringwidth} bind def
/tr {translate} bind def
/tnt {dup dup currentrgbcolor
  4 -2 roll dup 1 exch sub 3 -1 roll mul add
  4 -2 roll dup 1 exch sub 3 -1 roll mul add
  4 -2 roll dup 1 exch sub 3 -1 roll mul add srgb}
  bind def
/shd {dup dup currentrgbcolor 4 -2 roll mul 4 -2 roll mul
  4 -2 roll mul srgb} bind def
 /DrawEllipse {
	/endangle exch def
	/startangle exch def
	/yrad exch def
	/xrad exch def
	/y exch def
	/x exch def
	/savematrix mtrx currentmatrix def
	x y tr xrad yrad sc 0 0 1 startangle endangle arc
	closepath
	savematrix setmatrix
	} def

/$F2psBegin {$F2psDict begin /$F2psEnteredState save def} def
/$F2psEnd {$F2psEnteredState restore end} def
%%EndProlog

$F2psBegin
10 setmiterlimit
n -1000 6850 m -1000 -1000 l 5198 -1000 l 5198 6850 l cp clip
 0.06000 0.06000 sc
/Times-Roman ff 150.00 scf sf
3075 3751 m
gs 1 -1 sc (Niveau) col-1 sh gr
/Times-Roman ff 150.00 scf sf
3075 3967 m
gs 1 -1 sc (physique) col-1 sh gr
/Times-Roman ff 150.00 scf sf
3076 3076 m
gs 1 -1 sc (Niveau) col-1 sh gr
/Times-Roman ff 150.00 scf sf
3076 3292 m
gs 1 -1 sc (logique) col-1 sh gr
7.500 slw
% Ellipse
n 1762 4312 862 112 0 360 DrawEllipse gs col-1 s gr

% Ellipse
n 1762 5437 862 112 0 360 DrawEllipse gs col-1 s gr

% Polyline
n 150 3450 m 3675 3450 l gs col-1 s gr 
% Polyline
n 900 4350 m 900 5475 l gs col-1 s gr 
% Polyline
n 2625 4350 m 2625 5475 l gs col-1 s gr 
% Polyline
n 975 4650 m 1125 4650 l 1125 5100 l 975 5100 l cp gs col-1 s gr 
% Polyline
n 1950 4575 m 2475 4575 l 2475 4725 l 1950 4725 l cp gs col-1 s gr 
% Polyline
n 1725 5100 m 2175 5100 l 2175 5250 l 1725 5250 l cp gs col-1 s gr 
% Polyline
n 975 4725 m 1125 4725 l gs col-1 s gr 
% Polyline
n 975 4800 m 1125 4800 l gs col-1 s gr 
% Polyline
n 975 4875 m 1125 4875 l gs col-1 s gr 
% Polyline
n 975 4950 m 1125 4950 l gs col-1 s gr 
% Polyline
n 975 5025 m 1125 5025 l gs col-1 s gr 
% Polyline
n 2025 4575 m 2025 4725 l gs col-1 s gr 
% Polyline
n 2100 4575 m 2100 4725 l gs col-1 s gr 
% Polyline
n 2175 4575 m 2175 4725 l gs col-1 s gr 
% Polyline
n 2250 4575 m 2250 4725 l gs col-1 s gr 
% Polyline
n 2325 4575 m 2325 4725 l gs col-1 s gr 
% Polyline
n 2400 4575 m 2400 4725 l gs col-1 s gr 
% Polyline
n 450 3075 m 450 3600 l gs col-1 s gr 
% Polyline
gs  clippath
1006 4459 m 1050 4575 l 957 4494 l 1034 4604 l 1083 4570 l cp
clip
n 525 3825 m 1050 4575 l gs col-1 s gr gr

% arrowhead
n 1006 4459 m 1050 4575 l 957 4494 l 981 4477 l 1006 4459 l  cp gs 0.00 setgray ef gr  col-1 s
% Polyline
gs  clippath
1785 4415 m 1875 4500 l 1756 4467 l 1873 4534 l 1903 4481 l cp
clip
n 675 3825 m 1875 4500 l gs col-1 s gr gr

% arrowhead
n 1785 4415 m 1875 4500 l 1756 4467 l 1770 4441 l 1785 4415 l  cp gs 0.00 setgray ef gr  col-1 s
% Polyline
gs  clippath
1665 4917 m 1725 5025 l 1621 4958 l 1713 5056 l 1757 5015 l cp
clip
n 600 3825 m 1725 5025 l gs col-1 s gr gr

% arrowhead
n 1665 4917 m 1725 5025 l 1621 4958 l 1643 4937 l 1665 4917 l  cp gs 0.00 setgray ef gr  col-1 s
% Polyline
gs  clippath
975 5273 m 1050 5175 l 1030 5297 l 1083 5173 l 1028 5149 l cp
clip
n 825 5700 m 1050 5175 l gs col-1 s gr gr

% arrowhead
n 975 5273 m 1050 5175 l 1030 5297 l 1003 5285 l 975 5273 l  cp gs 0.00 setgray ef gr  col-1 s
% Polyline
gs  clippath
2595 4680 m 2475 4650 l 2595 4620 l 2460 4620 l 2460 4680 l cp
clip
n 2475 4650 m 2850 4650 l gs col-1 s gr gr

% arrowhead
n 2595 4680 m 2475 4650 l 2595 4620 l 2595 4650 l 2595 4680 l  cp gs 0.00 setgray ef gr  col-1 s
/Times-Roman ff 150.00 scf sf
300 3750 m
gs 1 -1 sc (Segment) col-1 sh gr
/Times-Roman ff 150.00 scf sf
300 3000 m
gs 1 -1 sc (Table) col-1 sh gr
/Times-Roman ff 150.00 scf sf
225 5850 m
gs 1 -1 sc (Extension) col-1 sh gr
/Times-Roman ff 150.00 scf sf
2925 4725 m
gs 1 -1 sc (Blocs) col-1 sh gr
$F2psEnd
rs
