#FIG 3.2
Landscape
Center
Metric
A4      
100.00
Single
-2
1200 2
2 2 0 1 0 7 50 0 -1 0.000 0 0 -1 0 0 5
	 1350 270 1800 270 1800 540 1350 540 1350 270
2 2 0 1 0 7 50 0 -1 0.000 0 0 -1 0 0 5
	 2250 270 2700 270 2700 540 2250 540 2250 270
2 2 0 1 0 7 50 0 -1 0.000 0 0 -1 0 0 5
	 3150 270 3600 270 3600 540 3150 540 3150 270
2 2 0 1 0 7 50 0 -1 0.000 0 0 -1 0 0 5
	 450 810 900 810 900 1080 450 1080 450 810
2 2 0 1 0 7 50 0 -1 0.000 0 0 -1 0 0 5
	 450 270 900 270 900 540 450 540 450 270
2 2 0 1 0 7 50 0 -1 0.000 0 0 -1 0 0 5
	 1350 810 1800 810 1800 1080 1350 1080 1350 810
2 2 0 1 0 7 50 0 -1 0.000 0 0 -1 0 0 5
	 2250 810 2700 810 2700 1080 2250 1080 2250 810
2 2 0 1 0 7 50 0 -1 0.000 0 0 -1 0 0 5
	 3150 810 3600 810 3600 1080 3150 1080 3150 810
2 1 0 1 0 7 50 0 -1 0.000 0 0 -1 1 1 4
	1 1 1.00 60.00 120.00
	1 1 1.00 60.00 120.00
	 675 270 675 90 2430 90 2430 270
2 1 0 1 0 7 50 0 -1 0.000 0 0 -1 1 1 4
	1 1 1.00 60.00 120.00
	1 1 1.00 60.00 120.00
	 2700 360 2880 360 2880 990 3150 990
2 1 0 1 0 7 50 0 -1 0.000 0 0 -1 1 1 4
	1 1 1.00 60.00 120.00
	1 1 1.00 60.00 120.00
	 3330 1080 3330 1305 2520 1305 2520 1080
4 0 0 50 0 0 10 0.0000 4 105 75 630 495 1\001
4 0 0 50 0 0 10 0.0000 4 105 75 1530 495 2\001
4 0 0 50 0 0 10 0.0000 4 105 75 2430 495 3\001
4 0 0 50 0 0 10 0.0000 4 105 75 3375 495 4\001
4 0 0 50 0 0 10 0.0000 4 105 75 675 1035 5\001
4 0 0 50 0 0 10 0.0000 4 105 75 3375 1035 8\001
4 0 0 50 0 0 10 0.0000 4 105 75 1575 1035 6\001
4 0 0 50 0 0 10 0.0000 4 105 75 2475 1035 7\001
