#FIG 3.2
Landscape
Center
Metric
A4      
100.00
Single
-2
1200 2
1 1 0 1 -1 -1 0 0 -1 0.000 1 0.0000 2025 1725 375 150 2025 1725 2400 1875
1 1 0 1 -1 -1 0 0 -1 0.000 1 0.0000 4800 1725 375 150 4800 1725 5175 1875
1 1 0 1 -1 -1 0 0 -1 0.000 1 0.0000 3300 825 375 150 3300 825 3675 975
1 1 0 1 -1 -1 0 0 -1 0.000 1 0.0000 3300 225 375 150 3300 225 3675 375
2 1 0 1 -1 -1 0 0 -1 0.000 0 0 -1 0 0 2
	 5250 3300 5250 2775
2 1 0 1 -1 -1 0 0 -1 0.000 0 0 -1 0 0 2
	 5175 2550 4950 1875
2 1 0 1 -1 -1 0 0 -1 0.000 0 0 -1 0 0 2
	 4650 1575 3675 825
2 1 0 1 -1 -1 0 0 -1 0.000 0 0 -1 0 0 2
	 3000 3300 3000 2775
2 1 0 1 -1 -1 0 0 -1 0.000 0 0 -1 0 0 2
	 3000 2550 2325 1800
2 1 0 1 -1 -1 0 0 -1 0.000 0 0 -1 0 0 2
	 2175 1575 2925 900
2 1 0 1 -1 -1 0 0 -1 0.000 0 0 -1 0 0 2
	 1125 2775 1125 3300
2 2 0 1 -1 -1 0 0 -1 0.000 0 0 0 0 0 5
	 5625 2775 5625 2550 4800 2550 4800 2775 5625 2775
2 1 0 1 -1 -1 0 0 -1 0.000 0 0 -1 0 0 2
	 1125 2550 1725 1800
2 2 0 1 -1 -1 0 0 -1 0.000 0 0 0 0 0 5
	 6375 3525 6375 3300 4500 3300 4500 3525 6375 3525
2 1 0 1 -1 -1 0 0 -1 0.000 0 0 -1 0 0 2
	 3300 375 3300 675
2 2 0 1 -1 -1 0 0 -1 0.000 0 0 0 0 0 5
	 1575 2775 1575 2550 750 2550 750 2775 1575 2775
2 2 0 1 -1 -1 0 0 -1 0.000 0 0 0 0 0 5
	 3375 2775 3375 2550 2550 2550 2550 2775 3375 2775
2 2 0 1 -1 -1 0 0 -1 0.000 0 0 0 0 0 5
	 2115 3510 2115 3300 300 3300 300 3510 2115 3510
2 2 0 1 -1 -1 0 0 -1 0.000 0 0 0 0 0 5
	 4320 3510 4320 3300 2340 3300 2340 3510 4320 3510
4 0 -1 0 0 0 10 0.0000 4 105 510 1800 1800 Jointure\001
4 0 -1 0 0 0 10 0.0000 4 105 570 4500 1800 Selection\001
4 0 -1 0 0 0 10 0.0000 4 105 510 3075 900 Jointure\001
4 0 -1 0 0 0 10 0.0000 4 105 495 4500 2475 Adresse\001
4 0 -1 0 0 0 10 0.0000 4 150 630 4425 3225 Id_cinema\001
4 0 -1 0 0 0 10 0.0000 4 135 645 3000 300 Projection\001
4 0 -1 0 0 0 10 0.0000 4 105 495 450 2475 Adresse\001
4 0 -1 0 0 0 10 0.0000 4 105 495 2250 2475 Adresse\001
4 0 -1 0 0 2 10 0.0000 4 120 465 975 2700 Artiste\001
4 0 -1 0 0 2 10 0.0000 4 165 1890 360 3465 Index Artiste(nom,prenom)\001
4 0 -1 0 0 0 10 0.0000 4 105 945 150 3225   James Stewart\001
4 0 0 50 0 0 10 0.0000 4 135 495 1035 2025 [artiste]\001
4 0 -1 0 0 0 10 0.0000 4 105 585 2340 3240 idArtiste\001
4 0 -1 0 0 2 10 0.0000 4 150 270 2850 2700 R\364le\001
4 0 0 50 0 0 10 0.0000 4 135 345 2745 2115 [role]\001
4 0 0 50 0 0 10 0.0000 4 135 795 1935 1125 [artiste,role]\001
4 0 -1 0 0 0 10 0.0000 4 105 300 4185 1620 1958\001
4 0 -1 0 0 2 10 0.0000 4 120 315 4950 2700 Film\001
4 0 -1 0 0 2 10 0.0000 4 165 1350 4575 3450 Index Film (idFilm)\001
4 0 -1 0 0 2 10 0.0000 4 165 1995 2430 3465 Index Role(idActeur, idFilm)\001
