#FIG 3.2  Produced by xfig version 3.2.5-alpha5
Portrait
Center
Inches
A4      
200.00
Single
-2
1200 2
2 1 0 1 -1 7 0 0 -1 0.000 0 0 -1 0 0 2
	 375 600 1275 600
2 1 0 1 -1 7 0 0 -1 0.000 0 0 -1 0 0 2
	 2251 1651 3076 1651
2 1 0 1 0 7 100 0 -1 0.000 0 0 -1 0 0 3
	 825 1725 825 2100 1425 2100
2 1 0 1 0 7 50 -1 -1 0.000 0 0 -1 0 0 2
	 1425 1875 2250 1875
2 1 0 1 -1 7 0 0 -1 0.000 0 0 -1 0 0 2
	 3075 1800 3900 1800
2 4 0 1 -1 7 0 0 -1 0.000 0 0 7 0 0 5
	 3900 2550 3900 1500 3075 1500 3075 2550 3900 2550
2 1 0 1 -1 7 0 0 -1 0.000 0 0 -1 0 0 2
	 3075 375 3900 375
2 1 0 1 0 7 50 -1 -1 0.000 0 0 -1 0 0 2
	 3525 1050 3525 1500
2 4 0 1 -1 7 0 0 -1 0.000 0 0 7 0 0 5
	 3900 1050 3900 75 3075 75 3075 1050 3900 1050
2 2 0 1 0 7 50 -1 -1 0.000 0 0 -1 0 0 5
	 525 1500 1125 1500 1125 1725 525 1725 525 1500
2 4 0 1 -1 7 0 0 -1 0.000 0 0 7 0 0 5
	 1275 1500 1275 300 375 300 375 1500 1275 1500
2 4 0 1 -1 7 0 0 -1 0.000 0 0 7 0 0 5
	 2251 2400 2251 1576 1425 1576 1425 2400 2251 2400
2 1 0 1 0 7 50 -1 -1 0.000 0 0 -1 0 0 2
	 375 2700 1200 2700
2 4 0 1 -1 7 0 0 -1 0.000 0 0 7 0 0 5
	 1201 3450 1201 2476 375 2476 375 3450 1201 3450
2 1 0 1 0 7 50 -1 -1 0.000 0 0 -1 0 0 2
	 450 1500 450 2475
4 0 0 50 -1 0 10 0.0000 4 120 375 450 525 H\364tel\001
4 0 0 50 -1 0 10 0.0000 4 105 600 450 1050 nbEtoiles\001
4 0 0 50 -1 0 10 0.0000 4 165 480 1500 2100 capacit\351\001
4 0 0 100 0 0 10 0.0000 6 105 555 1500 1800 Chambre\001
4 0 0 50 -1 0 10 0.0000 4 105 390 3225 1725 Skieur\001
4 0 0 50 0 0 10 0.0000 4 45 75 2925 1650 *\001
4 0 0 50 0 0 10 0.0000 4 105 240 2250 1575 0..1\001
4 0 0 50 0 0 10 0.0000 4 45 75 1275 2025 *\001
4 0 0 50 -1 0 10 0.0000 4 165 465 3225 2475 pr\351nom\001
4 0 0 50 -1 0 10 0.0000 4 75 270 3225 2250 nom\001
4 0 0 50 -1 0 10 0.0000 4 105 315 3225 300 Piste\001
4 0 0 50 0 0 10 0.0000 4 45 75 3600 1500 *\001
4 0 0 50 -1 0 10 0.0000 4 75 270 3225 795 nom\001
4 0 0 50 -1 0 10 0.0000 4 105 465 3225 990 couleur\001
4 0 0 50 -1 2 10 0.0000 4 120 705 450 825 nomH\364tel\001
4 0 0 50 -1 2 10 0.0000 4 105 135 3225 600 id\001
4 0 0 50 -1 2 10 0.0000 4 105 135 3225 2025 id\001
4 0 0 50 -1 0 10 0.0000 4 135 270 2700 1800 loge\001
4 0 0 50 0 0 10 0.0000 4 45 75 3600 1200 *\001
4 0 0 50 -1 0 10 0.0000 4 165 585 2850 1350 fr\351quente\001
4 0 0 50 -1 0 10 0.0000 4 120 465 600 1650 num\351ro\001
4 0 0 50 -1 0 10 0.0000 4 165 795 450 1275 prixPetitD\351j\001
4 0 0 50 -1 0 10 0.0000 4 105 285 1500 2325 tarif\001
4 0 0 50 -1 0 10 0.0000 4 120 420 525 2625 G\351rant\001
4 0 0 50 -1 2 10 0.0000 4 105 135 525 2925 id\001
4 0 0 50 -1 0 10 0.0000 4 75 270 525 3150 nom\001
4 0 0 50 -1 0 10 0.0000 4 165 465 525 3375 pr\351nom\001
4 0 0 50 0 0 10 0.0000 4 105 240 150 1725 1..1\001
4 0 0 50 0 0 10 0.0000 4 45 75 300 2475 *\001
