#FIG 3.1
Portrait
Center
Inches
1200 2
6 2175 75 3375 525
6 2175 75 3375 525
2 2 0 1 -1 7 0 0 -1 0.000 0 0 0 0 0 5
	 2176 76 3301 76 3301 451 2176 451 2176 76
-6
4 0 -1 0 0 1 12 0.0000000 4 135 105 2701 376 V\001
-6
2 2 0 1 -1 7 0 0 -1 0.000 0 0 0 0 0 5
	 300 75 1425 75 1425 450 300 450 300 75
2 1 0 1 -1 7 0 0 -1 0.000 0 0 -1 1 0 2
	1 1 1.00 60.00 120.00
	 1425 225 2175 225
4 0 -1 0 0 1 12 0.0000000 4 135 135 750 375 U\001
