#FIG 3.2
Landscape
Center
Inches
Letter  
100.00
Single
-2
1200 2
2 3 0 1 0 7 0 0 -1 0.000 0 0 -1 0 0 4
	 1800 1425 1200 2550 2400 2550 1800 1425
2 1 0 1 0 7 0 0 -1 0.000 0 0 -1 0 0 2
	 1800 1425 1875 1200
2 1 0 1 0 7 0 0 -1 0.000 0 0 -1 0 0 2
	 1650 1275 1800 1425
2 1 1 1 0 7 0 0 -1 4.000 0 0 -1 0 0 6
	 1800 1425 1725 1725 1875 1875 1725 2025 1800 2250 1725 2550
2 1 0 1 0 7 0 0 -1 4.000 0 0 -1 0 0 2
	 1725 2550 1425 3075
2 1 0 1 0 7 0 0 -1 4.000 0 0 -1 0 0 2
	 1725 2550 1800 3075
2 1 0 1 0 7 0 0 -1 4.000 0 0 -1 0 0 2
	 1725 2550 2325 3075
2 2 0 1 0 7 0 0 -1 4.000 0 0 -1 0 0 5
	 1275 3075 1500 3075 1500 3300 1275 3300 1275 3075
2 2 0 1 0 7 0 0 -1 4.000 0 0 -1 0 0 5
	 1725 3075 1950 3075 1950 3300 1725 3300 1725 3075
2 2 0 1 0 7 0 0 -1 4.000 0 0 -1 0 0 5
	 2250 3075 2475 3075 2475 3300 2250 3300 2250 3075
2 3 0 1 0 7 0 0 -1 0.000 0 0 -1 0 0 4
	 4800 1350 4200 2475 5400 2475 4800 1350
2 1 1 1 0 7 0 0 -1 4.000 0 0 -1 0 0 6
	 4800 1350 4725 1650 4875 1800 4725 1950 4800 2175 4725 2475
2 2 0 1 0 7 0 0 -1 4.000 0 0 -1 0 0 5
	 3975 3075 4275 3075 4275 3375 3975 3375 3975 3075
2 2 0 1 0 7 0 0 -1 4.000 0 0 -1 0 0 5
	 4500 3075 5175 3075 5175 3375 4500 3375 4500 3075
2 1 0 1 0 7 0 0 -1 4.000 0 0 -1 0 0 2
	 4275 3225 4500 3225
2 1 0 1 0 7 0 0 -1 4.000 0 0 -1 0 0 2
	 5175 3225 5325 3225
2 1 0 1 0 7 0 0 -1 4.000 0 0 -1 0 0 2
	 4725 2475 4650 3075
2 1 0 1 0 7 0 0 -1 4.000 0 0 -1 0 0 3
	 4650 1200 4800 1350 4875 1125
2 2 0 1 0 7 0 0 -1 4.000 0 0 -1 0 0 5
	 5325 3075 5925 3075 5925 3375 5325 3375 5325 3075
2 1 0 1 0 7 0 0 -1 0.000 0 0 -1 0 0 2
	 1275 3300 1125 4350
2 2 0 1 0 7 0 0 -1 0.000 0 0 -1 0 0 5
	 825 4350 1425 4350 1425 4725 825 4725 825 4350
2 2 0 1 0 7 0 0 -1 0.000 0 0 -1 0 0 5
	 1650 4050 2400 4050 2400 5175 1650 5175 1650 4050
2 2 0 1 0 7 0 0 -1 0.000 0 0 -1 0 0 5
	 2550 4350 3000 4350 3000 4725 2550 4725 2550 4350
2 1 0 1 0 7 0 0 -1 0.000 0 0 -1 0 0 2
	 1425 4575 1650 4575
2 1 0 1 0 7 0 0 -1 0.000 0 0 -1 0 0 2
	 2400 4575 2550 4575
2 1 0 1 0 7 0 0 -1 0.000 0 0 -1 0 0 3
	 4800 3375 4800 4350 4800 4275
2 2 0 1 0 7 0 0 -1 0.000 0 0 -1 0 0 5
	 4425 4350 5100 4350 5100 4725 4425 4725 4425 4350
2 2 0 1 0 7 0 0 -1 0.000 0 0 -1 0 0 5
	 5325 3975 6000 3975 6000 5100 5325 5100 5325 3975
2 2 0 1 0 7 0 0 -1 0.000 0 0 -1 0 0 5
	 6150 4350 6750 4350 6750 4725 6150 4725 6150 4350
2 1 0 1 0 7 0 0 -1 0.000 0 0 -1 0 0 3
	 5100 4575 5325 4575 5325 4575
2 1 0 1 0 7 0 0 -1 0.000 0 0 -1 0 0 2
	 6000 4575 6150 4575
3 2 0 1 0 7 0 0 -1 0.000 0 0 0 3
	 1200 1050 1650 1050 1800 1425
	 0.000 -1.000 0.000
3 2 0 1 0 7 0 0 -1 0.000 0 0 0 3
	 4200 975 4650 975 4800 1350
	 0.000 -1.000 0.000
4 0 0 0 0 0 12 0.0000 4 90 75 1500 975 a\001
4 0 0 0 0 0 12 0.0000 4 15 180 1950 3225 ....\001
4 0 0 0 0 0 12 0.0000 4 135 120 825 3300 R\001
4 0 0 0 0 0 12 0.0000 4 180 180 1350 3600 p1\001
4 0 0 0 0 0 12 0.0000 4 180 180 1800 3600 p2\001
4 0 0 0 0 0 12 0.0000 4 180 180 2325 3600 p3\001
4 0 0 0 0 0 12 0.0000 4 90 75 4500 825 a\001
4 0 0 0 0 0 12 0.0000 4 135 120 3750 3225 R\001
4 0 0 0 0 0 12 0.0000 4 165 570 4575 3300 b,a,a,a,a\001
4 0 0 0 0 0 12 0.0000 4 120 495 5400 3300 a,a,c,...\001
4 0 0 0 0 0 12 0.0000 4 135 105 1050 4650 E\001
4 0 0 0 0 0 12 0.0000 4 135 105 2700 4650 S\001
4 0 0 0 0 0 12 0.0000 4 135 105 4575 4650 E\001
4 0 0 0 0 0 12 0.0000 4 135 105 6375 4650 S\001
4 0 0 0 0 0 12 0.0000 4 120 465 1725 4350 autres \001
4 0 0 0 0 0 12 0.0000 4 135 435 1725 4650 select.\001
4 0 0 0 0 0 12 0.0000 4 180 285 1800 5025 proj\001
4 0 0 0 0 0 12 0.0000 4 120 465 5400 4275 autres \001
4 0 0 0 0 0 12 0.0000 4 135 435 5400 4575 select.\001
4 0 0 0 0 0 12 0.0000 4 180 330 5400 4950 proj.\001
4 0 0 0 0 0 12 0.0000 4 15 45 2100 5025 .\001
4 0 0 0 0 0 12 0.0000 4 165 165 1650 6000 (i)\001
4 0 0 0 0 0 12 0.0000 4 165 210 5025 5925 (ii)\001
