#FIG 3.2
Portrait
Center
Inches
Letter  
100.00
Single
-2
1200 2
6 1050 300 5475 750
2 2 0 1 -1 7 0 0 -1 0.000 0 0 0 0 0 5
	 1050 300 5100 300 5100 750 1050 750 1050 300
4 0 0 100 0 1 10 0.0000 4 150 4335 1125 450 Annie Hall, Brazil, Easy Rider, Greystoke, Jurassic Park, Manhattan,\001
4 0 0 100 0 1 10 0.0000 4 150 4155 1200 675 Metropolis, Physchose, Shining, Twin Peaks, Underground, vertigo\001
-6
6 375 1350 2625 1800
2 2 0 1 -1 7 0 0 -1 0.000 0 0 0 0 0 5
	 375 1350 2475 1350 2475 1800 375 1800 375 1350
4 0 0 100 0 1 10 0.0000 4 150 2130 450 1725 Twin Peaks, Underground, Vertigo\001
4 0 0 100 0 1 10 0.0000 4 135 2085 450 1500 Annie Hall, Brazil, Jurassic Park,\001
-6
6 3450 1350 5850 1800
6 3600 1350 5850 1575
4 0 0 100 0 1 10 0.0000 4 150 2220 3600 1500 Easy Rider, Greystoke, Manhattan,\001
-6
2 2 0 1 -1 7 0 0 -1 0.000 0 0 0 0 0 5
	 3450 1350 5625 1350 5625 1800 3450 1800 3450 1350
4 0 0 100 0 1 10 0.0000 4 150 1890 3600 1725 Metropolis, Psychose, Shining\001
-6
6 1875 2400 2925 2850
2 2 0 1 -1 7 0 0 -1 0.000 0 0 0 0 0 5
	 1875 2400 2925 2400 2925 2850 1875 2850 1875 2400
4 0 0 100 0 1 10 0.0000 4 150 810 1950 2775 Underground\001
4 0 0 100 0 1 10 0.0000 4 135 915 1950 2550 Jurassic Park, \001
-6
6 3300 2400 4725 2850
2 2 0 1 -1 7 0 0 -1 0.000 0 0 0 0 0 5
	 3300 2400 4650 2400 4650 2850 3300 2850 3300 2400
4 0 0 100 0 1 10 0.0000 4 150 1230 3375 2775 Metropolis,Shining \001
4 0 0 100 0 1 10 0.0000 4 150 1350 3375 2550 Greystoke, Psychose \001
-6
2 1 0 1 -1 7 0 0 -1 0.000 0 0 -1 0 0 2
	 525 3375 750 3150
2 1 0 1 -1 7 0 0 -1 0.000 0 0 -1 0 0 2
	 1200 3150 1500 3375
2 1 0 1 -1 7 0 0 -1 0.000 0 0 -1 0 0 2
	 3600 3375 3900 3150
2 2 0 1 -1 7 0 0 -1 0.000 0 0 0 0 0 5
	 3225 3375 4050 3375 4050 3825 3225 3825 3225 3375
2 2 0 1 -1 7 0 0 -1 0.000 0 0 0 0 0 5
	 4275 3375 5100 3375 5100 3825 4275 3825 4275 3375
2 2 0 1 -1 7 0 0 -1 0.000 0 0 0 0 0 5
	 1125 3375 1950 3375 1950 3825 1125 3825 1125 3375
2 2 0 1 -1 7 0 0 -1 0.000 0 0 0 0 0 5
	 75 3375 900 3375 900 3825 75 3825 75 3375
2 1 0 1 -1 7 0 0 -1 0.000 0 0 -1 0 0 2
	 4875 2100 5400 2400
2 1 0 1 -1 7 0 0 -1 0.000 0 0 -1 0 0 2
	 4425 2100 3975 2400
2 1 0 1 -1 7 0 0 -1 0.000 0 0 -1 0 0 2
	 4575 1800 4575 1950
2 2 0 1 -1 7 0 0 -1 0.000 0 0 0 0 0 5
	 5100 2400 5925 2400 5925 2850 5100 2850 5100 2400
2 1 0 1 -1 7 0 0 -1 0.000 0 0 -1 0 0 2
	 1275 2100 834 2412
2 1 0 1 -1 7 0 0 -1 0.000 0 0 -1 0 0 2
	 1500 1800 1500 1950
2 1 0 1 -1 7 0 0 -1 0.000 0 0 -1 0 0 2
	 1725 2100 2257 2389
2 1 0 1 -1 7 0 0 -1 0.000 0 0 -1 0 0 2
	 1649 1335 2775 1050
2 1 0 1 -1 7 0 0 -1 0.000 0 0 -1 0 0 2
	 4275 1350 3300 1050
2 1 0 1 0 7 100 0 -1 0.000 0 0 -1 0 0 2
	 3000 750 3000 900
2 2 0 1 -1 7 0 0 -1 0.000 0 0 0 0 0 5
	 150 2400 1575 2400 1575 2850 150 2850 150 2400
2 1 0 1 -1 7 0 0 -1 0.000 0 0 -1 0 0 2
	 1050 2850 1050 3000
2 1 0 1 -1 7 0 0 -1 0.000 0 0 -1 0 0 2
	 4350 3150 4800 3375
2 1 0 1 -1 7 0 0 -1 0.000 0 0 -1 0 0 2
	 4050 2850 4050 3000
4 0 0 100 0 1 10 0.0000 4 150 450 151 3751 Vertigo\001
4 0 0 100 0 1 10 0.0000 4 150 450 4425 3750 Shining\001
4 0 0 100 0 1 10 0.0000 4 150 585 3301 3750 Psychose\001
4 0 0 100 0 1 10 0.0000 4 150 780 3301 3525 Metropolis, \001
4 0 0 100 0 1 10 0.0000 4 150 735 4425 3525 Greystoke, \001
4 0 0 100 0 1 10 0.0000 4 135 735 5175 2550 Manhattan,\001
4 0 0 100 0 1 10 0.0000 4 150 675 5175 2775 Easy Rider\001
4 0 0 100 0 -1 10 0.0000 4 105 390 1350 2100 fusion\001
4 0 0 100 0 -1 10 0.0000 4 105 390 2850 1050 fusion\001
4 0 0 100 0 1 10 0.0000 4 150 1275 300 2775 Twin Peaks, Vertigo \001
4 0 0 100 0 1 10 0.0000 4 135 1230 300 2550 Annie Hall, Brazil,  \001
4 0 0 100 0 -1 10 0.0000 4 105 390 3975 3150 fusion\001
4 0 0 100 0 -1 10 0.0000 4 105 390 4500 2100 fusion\001
4 0 0 100 0 1 10 0.0000 4 135 720 151 3526 Annie Hall,\001
4 0 0 50 0 1 10 0.0000 4 135 450 1201 3526 Brazil, \001
4 0 0 50 0 1 10 0.0000 4 105 750 1201 3751 Twin Peaks \001
4 0 0 100 0 -1 10 0.0000 4 105 390 825 3150 fusion\001
