%!PS-Adobe-2.0 EPSF-2.0
%%Title: tri-fusion.eps
%%Creator: fig2dev Version 3.2 Patchlevel 1
%%CreationDate: Fri Mar  9 12:32:58 2001
%%For: rigaux@cartier ()
%%Orientation: Portrait
%%BoundingBox: 0 0 354 214
%%Pages: 0
%%BeginSetup
%%EndSetup
%%Magnification: 1.0000
%%EndComments
/$F2psDict 200 dict def
$F2psDict begin
$F2psDict /mtrx matrix put
/col-1 {0 setgray} bind def
/col0 {0.000 0.000 0.000 srgb} bind def
/col1 {0.000 0.000 1.000 srgb} bind def
/col2 {0.000 1.000 0.000 srgb} bind def
/col3 {0.000 1.000 1.000 srgb} bind def
/col4 {1.000 0.000 0.000 srgb} bind def
/col5 {1.000 0.000 1.000 srgb} bind def
/col6 {1.000 1.000 0.000 srgb} bind def
/col7 {1.000 1.000 1.000 srgb} bind def
/col8 {0.000 0.000 0.560 srgb} bind def
/col9 {0.000 0.000 0.690 srgb} bind def
/col10 {0.000 0.000 0.820 srgb} bind def
/col11 {0.530 0.810 1.000 srgb} bind def
/col12 {0.000 0.560 0.000 srgb} bind def
/col13 {0.000 0.690 0.000 srgb} bind def
/col14 {0.000 0.820 0.000 srgb} bind def
/col15 {0.000 0.560 0.560 srgb} bind def
/col16 {0.000 0.690 0.690 srgb} bind def
/col17 {0.000 0.820 0.820 srgb} bind def
/col18 {0.560 0.000 0.000 srgb} bind def
/col19 {0.690 0.000 0.000 srgb} bind def
/col20 {0.820 0.000 0.000 srgb} bind def
/col21 {0.560 0.000 0.560 srgb} bind def
/col22 {0.690 0.000 0.690 srgb} bind def
/col23 {0.820 0.000 0.820 srgb} bind def
/col24 {0.500 0.190 0.000 srgb} bind def
/col25 {0.630 0.250 0.000 srgb} bind def
/col26 {0.750 0.380 0.000 srgb} bind def
/col27 {1.000 0.500 0.500 srgb} bind def
/col28 {1.000 0.630 0.630 srgb} bind def
/col29 {1.000 0.750 0.750 srgb} bind def
/col30 {1.000 0.880 0.880 srgb} bind def
/col31 {1.000 0.840 0.000 srgb} bind def

end
save
-3.0 231.0 translate
1 -1 scale

/cp {closepath} bind def
/ef {eofill} bind def
/gr {grestore} bind def
/gs {gsave} bind def
/sa {save} bind def
/rs {restore} bind def
/l {lineto} bind def
/m {moveto} bind def
/rm {rmoveto} bind def
/n {newpath} bind def
/s {stroke} bind def
/sh {show} bind def
/slc {setlinecap} bind def
/slj {setlinejoin} bind def
/slw {setlinewidth} bind def
/srgb {setrgbcolor} bind def
/rot {rotate} bind def
/sc {scale} bind def
/sd {setdash} bind def
/ff {findfont} bind def
/sf {setfont} bind def
/scf {scalefont} bind def
/sw {stringwidth} bind def
/tr {translate} bind def
/tnt {dup dup currentrgbcolor
  4 -2 roll dup 1 exch sub 3 -1 roll mul add
  4 -2 roll dup 1 exch sub 3 -1 roll mul add
  4 -2 roll dup 1 exch sub 3 -1 roll mul add srgb}
  bind def
/shd {dup dup currentrgbcolor 4 -2 roll mul 4 -2 roll mul
  4 -2 roll mul srgb} bind def
/$F2psBegin {$F2psDict begin /$F2psEnteredState save def} def
/$F2psEnd {$F2psEnteredState restore end} def
%%EndProlog

$F2psBegin
10 setmiterlimit
n -1000 4837 m -1000 -1000 l 6937 -1000 l 6937 4837 l cp clip
 0.06000 0.06000 sc
/Times-Italic ff 150.00 scf sf
1125 450 m
gs 1 -1 sc (Annie Hall, Brazil, Easy Rider, Greystoke, Jurassic Park, Manhattan,) col0 sh gr
/Times-Italic ff 150.00 scf sf
1200 675 m
gs 1 -1 sc (Metropolis, Physchose, Shining, Twin Peaks, Underground, vertigo) col0 sh gr
/Times-Italic ff 150.00 scf sf
450 1725 m
gs 1 -1 sc (Twin Peaks, Underground, Vertigo) col0 sh gr
/Times-Italic ff 150.00 scf sf
450 1500 m
gs 1 -1 sc (Annie Hall, Brazil, Jurassic Park,) col0 sh gr
/Times-Italic ff 150.00 scf sf
3600 1500 m
gs 1 -1 sc (Easy Rider, Greystoke, Manhattan,) col0 sh gr
/Times-Italic ff 150.00 scf sf
3600 1725 m
gs 1 -1 sc (Metropolis, Psychose, Shining) col0 sh gr
/Times-Italic ff 150.00 scf sf
1950 2775 m
gs 1 -1 sc (Underground) col0 sh gr
/Times-Italic ff 150.00 scf sf
1950 2550 m
gs 1 -1 sc (Jurassic Park, ) col0 sh gr
/Times-Italic ff 150.00 scf sf
3375 2775 m
gs 1 -1 sc (Metropolis,Shining ) col0 sh gr
/Times-Italic ff 150.00 scf sf
3375 2550 m
gs 1 -1 sc (Greystoke, Psychose ) col0 sh gr
% Polyline
7.500 slw
n 3000 750 m 3000 900 l gs col0 s gr 
/Times-Italic ff 150.00 scf sf
151 3751 m
gs 1 -1 sc (Vertigo) col0 sh gr
/Times-Italic ff 150.00 scf sf
1201 3751 m
gs 1 -1 sc (Twin Peaks ) col0 sh gr
/Times-Italic ff 150.00 scf sf
4425 3750 m
gs 1 -1 sc (Shining) col0 sh gr
/Times-Italic ff 150.00 scf sf
3301 3750 m
gs 1 -1 sc (Psychose) col0 sh gr
/Times-Italic ff 150.00 scf sf
1201 3526 m
gs 1 -1 sc (Brazil, ) col0 sh gr
/Times-Italic ff 150.00 scf sf
151 3526 m
gs 1 -1 sc (Annie Hall,) col0 sh gr
/Times-Italic ff 150.00 scf sf
3301 3525 m
gs 1 -1 sc (Metropolis, ) col0 sh gr
/Times-Italic ff 150.00 scf sf
4425 3525 m
gs 1 -1 sc (Greystoke, ) col0 sh gr
/Times-Italic ff 150.00 scf sf
5175 2550 m
gs 1 -1 sc (Manhattan,) col0 sh gr
/Times-Italic ff 150.00 scf sf
5175 2775 m
gs 1 -1 sc (Easy Rider) col0 sh gr
/Times-Roman ff 150.00 scf sf
1350 2100 m
gs 1 -1 sc (fusion) col0 sh gr
/Times-Roman ff 150.00 scf sf
2850 1050 m
gs 1 -1 sc (fusion) col0 sh gr
/Times-Roman ff 150.00 scf sf
825 3150 m
gs 1 -1 sc (fusion) col0 sh gr
/Times-Italic ff 150.00 scf sf
300 2775 m
gs 1 -1 sc (Twin Peaks, Vertigo ) col0 sh gr
/Times-Italic ff 150.00 scf sf
300 2550 m
gs 1 -1 sc (Annie Hall, Brazil,  ) col0 sh gr
/Times-Roman ff 150.00 scf sf
3975 3150 m
gs 1 -1 sc (fusion) col0 sh gr
/Times-Roman ff 150.00 scf sf
4500 2100 m
gs 1 -1 sc (fusion) col0 sh gr
% Polyline
n 1050 300 m 5100 300 l 5100 750 l 1050 750 l cp gs col-1 s gr 
% Polyline
n 375 1350 m 2475 1350 l 2475 1800 l 375 1800 l cp gs col-1 s gr 
% Polyline
n 3450 1350 m 5625 1350 l 5625 1800 l 3450 1800 l cp gs col-1 s gr 
% Polyline
n 1875 2400 m 2925 2400 l 2925 2850 l 1875 2850 l cp gs col-1 s gr 
% Polyline
n 3300 2400 m 4650 2400 l 4650 2850 l 3300 2850 l cp gs col-1 s gr 
% Polyline
n 525 3375 m 750 3150 l gs col-1 s gr 
% Polyline
n 1200 3150 m 1500 3375 l gs col-1 s gr 
% Polyline
n 3600 3375 m 3900 3150 l gs col-1 s gr 
% Polyline
n 3225 3375 m 4050 3375 l 4050 3825 l 3225 3825 l cp gs col-1 s gr 
% Polyline
n 4275 3375 m 5100 3375 l 5100 3825 l 4275 3825 l cp gs col-1 s gr 
% Polyline
n 1125 3375 m 1950 3375 l 1950 3825 l 1125 3825 l cp gs col-1 s gr 
% Polyline
n 75 3375 m 900 3375 l 900 3825 l 75 3825 l cp gs col-1 s gr 
% Polyline
n 4875 2100 m 5400 2400 l gs col-1 s gr 
% Polyline
n 4425 2100 m 3975 2400 l gs col-1 s gr 
% Polyline
n 4575 1800 m 4575 1950 l gs col-1 s gr 
% Polyline
n 5100 2400 m 5925 2400 l 5925 2850 l 5100 2850 l cp gs col-1 s gr 
% Polyline
n 1275 2100 m 834 2412 l gs col-1 s gr 
% Polyline
n 1500 1800 m 1500 1950 l gs col-1 s gr 
% Polyline
n 1725 2100 m 2257 2389 l gs col-1 s gr 
% Polyline
n 1649 1335 m 2775 1050 l gs col-1 s gr 
% Polyline
n 4275 1350 m 3300 1050 l gs col-1 s gr 
% Polyline
n 150 2400 m 1575 2400 l 1575 2850 l 150 2850 l cp gs col-1 s gr 
% Polyline
n 1050 2850 m 1050 3000 l gs col-1 s gr 
% Polyline
n 4350 3150 m 4800 3375 l gs col-1 s gr 
% Polyline
n 4050 2850 m 4050 3000 l gs col-1 s gr 
$F2psEnd
rs
