\boolfalse {citerequest}\boolfalse {citetracker}\boolfalse {pagetracker}\boolfalse {backtracker}\relax 
\babel@toc {french}{}
\addvspace {10\p@ }
\contentsline {figure}{\numberline {\relax 1.1}{\ignorespaces Lettre de J. \textsc {Perret}.}}{18}{figure.caption.6}% 
\contentsline {figure}{\numberline {\relax 1.2}{\ignorespaces Un exemple de programme écrit en langage Python.\relax }}{20}{figure.caption.7}% 
\contentsline {figure}{\numberline {\relax 1.3}{\ignorespaces L'architecture \textsc {von Neumann}, un premier modèle d'ordinateur.\relax }}{23}{figure.caption.9}% 
\contentsline {figure}{\numberline {\relax 1.4}{\ignorespaces L'architecture de l'i486}}{25}{figure.caption.10}% 
\contentsline {figure}{\numberline {\relax 1.5}{\ignorespaces Les 6 couches décrivant le fonctionnement d'un ordinateur.\relax }}{28}{figure.caption.14}% 
\addvspace {10\p@ }
\contentsline {figure}{\numberline {\relax 2.1}{\ignorespaces Le code Baudot}}{51}{figure.caption.35}% 
\contentsline {figure}{\numberline {\relax 2.2}{\ignorespaces Le code ASCII}}{52}{figure.caption.37}% 
\contentsline {figure}{\numberline {\relax 2.3}{\ignorespaces Le {\textit {Code Page}} 737}}{53}{figure.caption.38}% 
\contentsline {figure}{\numberline {\relax 2.4}{\ignorespaces Extrait du standard Unicode, alphabet Tagbanwa \cite {wiki:tagbanwa}.\relax }}{54}{figure.caption.40}% 
\contentsline {figure}{\numberline {\relax 2.5}{\ignorespaces Un exemple de contenu de fichier PGM avec l'image qu'il représente\ldots \relax }}{55}{figure.caption.41}% 
\contentsline {figure}{\numberline {\relax 2.6}{\ignorespaces Un code QR}}{61}{figure.caption.42}% 
\contentsline {figure}{\numberline {\relax 2.7}{\ignorespaces Une représentation, différentes interprétations}}{63}{figure.caption.43}% 
\addvspace {10\p@ }
\contentsline {figure}{\numberline {\relax 3.1}{\ignorespaces Un modèle simple de l'organisation d'un ordinateur.\relax }}{65}{figure.caption.44}% 
\contentsline {figure}{\numberline {\relax 3.2}{\ignorespaces Petit et gros boutistes.\relax }}{69}{figure.caption.45}% 
\contentsline {figure}{\numberline {\relax 3.3}{\ignorespaces Un tube Williams.\relax }}{71}{figure.caption.47}% 
\contentsline {figure}{\numberline {\relax 3.4}{\ignorespaces Deux mémoires à lignes de délai}}{72}{figure.caption.49}% 
\contentsline {figure}{\numberline {\relax 3.5}{\ignorespaces Détail d'une mémoire à tores de ferrite.\relax }}{73}{figure.caption.51}% 
\contentsline {figure}{\numberline {\relax 3.6}{\ignorespaces Un exemple de programme en langage machine i486.\relax }}{76}{figure.caption.52}% 
\contentsline {figure}{\numberline {\relax 3.7}{\ignorespaces Le chemin des données}}{77}{figure.caption.53}% 
\contentsline {figure}{\numberline {\relax 3.8}{\ignorespaces La boucle d'interprétation du CPU.\relax }}{78}{figure.caption.54}% 
\contentsline {figure}{\numberline {\relax 3.9}{\ignorespaces Un exemple de pile.\relax }}{79}{figure.caption.56}% 
\contentsline {figure}{\numberline {\relax 3.10}{\ignorespaces Un exemple de langage machine i486 utilisant le FPU.\relax }}{81}{figure.caption.59}% 
\contentsline {figure}{\numberline {\relax 3.11}{\ignorespaces Sir Maurice \textsc {Wilkes} en 1980. \relax }}{82}{figure.caption.60}% 
\contentsline {figure}{\numberline {\relax 3.12}{\ignorespaces Illustration d'un \textit {pipeline} à cinq étages.\relax }}{83}{figure.caption.62}% 
\contentsline {figure}{\numberline {\relax 3.13}{\ignorespaces Un \textit {pipelie} superscalaire}}{84}{figure.caption.64}% 
\contentsline {figure}{\numberline {\relax 3.14}{\ignorespaces Un ordinateur CDC 6600.\relax }}{85}{figure.caption.65}% 
\contentsline {figure}{\numberline {\relax 3.15}{\ignorespaces L'ILLIAC IV}}{86}{figure.caption.67}% 
\contentsline {figure}{\numberline {\relax 3.16}{\ignorespaces Une Cray 1}}{87}{figure.caption.68}% 
\contentsline {figure}{\numberline {\relax 3.17}{\ignorespaces L'organisation d'un ordinateur avec 2 CPUs\relax }}{88}{figure.caption.70}% 
\contentsline {figure}{\numberline {\relax 3.18}{\ignorespaces Une carte perforée telles qu'elles étaient utilisées dans les supermarchés belges Colruyt durant les années 1980 (avant l'utilisation systématique des codes-barre). Les clients devaient collecter une carte perforée pour chaque produit acheté, et le caissier pouvait ensuite imprimer un ticket de caisse détaillé sur base de ces cartes, qui donnaient accès à toute l'information nécessaire sur les produits.\relax }}{90}{figure.caption.74}% 
\contentsline {figure}{\numberline {\relax 3.19}{\ignorespaces Du ruban perforé. \relax }}{91}{figure.caption.76}% 
\contentsline {figure}{\numberline {\relax 3.20}{\ignorespaces Trois types de disquettes: de 8, $5,25$, et $3,5$ pouces.\relax }}{92}{figure.caption.79}% 
\contentsline {figure}{\numberline {\relax 3.21}{\ignorespaces Illustration d'un disque dur.\relax }}{93}{figure.caption.82}% 
\addvspace {10\p@ }
\contentsline {figure}{\numberline {\relax 4.1}{\ignorespaces Quelques portes logiques de base.\relax }}{106}{figure.caption.96}% 
\contentsline {figure}{\numberline {\relax 4.2}{\ignorespaces Exemples de transistors.\relax }}{106}{figure.caption.97}% 
\contentsline {figure}{\numberline {\relax 4.3}{\ignorespaces Exemple de tubes IBM.\relax }}{108}{figure.caption.99}% 
\contentsline {figure}{\numberline {\relax 4.4}{\ignorespaces Le demi-additionneur.\relax }}{112}{figure.caption.101}% 
\contentsline {figure}{\numberline {\relax 4.5}{\ignorespaces Un additionneur complet}}{113}{figure.caption.103}% 
\contentsline {figure}{\numberline {\relax 4.6}{\ignorespaces Additionneur $n$ bits}}{114}{figure.caption.105}% 
\contentsline {figure}{\numberline {\relax 4.7}{\ignorespaces Le circuit de décalage 3 bits.\relax }}{116}{figure.caption.106}% 
\contentsline {figure}{\numberline {\relax 4.8}{\ignorespaces Un décodeur 4 bits.\relax }}{118}{figure.caption.108}% 
\contentsline {figure}{\numberline {\relax 4.9}{\ignorespaces Des afficheurs 7 segments}}{118}{figure.caption.109}% 
\contentsline {figure}{\numberline {\relax 4.10}{\ignorespaces Le principe d'un sélecteur $n$ bits.\relax }}{120}{figure.caption.110}% 
\contentsline {figure}{\numberline {\relax 4.11}{\ignorespaces Une ALU 1 bit avec 4 opérations.\relax }}{122}{figure.caption.112}% 
\contentsline {figure}{\numberline {\relax 4.12}{\ignorespaces La représentation d'une ALU.\relax }}{123}{figure.caption.113}% 
\contentsline {figure}{\numberline {\relax 4.13}{\ignorespaces Une ALU $4$ bits réalisée sur base de $4$ ALUs $1$ bit}}{124}{figure.caption.114}% 
\contentsline {figure}{\numberline {\relax 4.14}{\ignorespaces Une boucle de portes { \textbf {non}}\xspace qui permet de stocker une valeur binaire.\relax }}{126}{figure.caption.116}% 
\contentsline {figure}{\numberline {\relax 4.15}{\ignorespaces Une bascule.\relax }}{127}{figure.caption.118}% 
\contentsline {figure}{\numberline {\relax 4.16}{\ignorespaces Une bascule avec horloge.\relax }}{129}{figure.caption.121}% 
\contentsline {figure}{\numberline {\relax 4.17}{\ignorespaces Une bascule $D$.\relax }}{130}{figure.caption.123}% 
\contentsline {figure}{\numberline {\relax 4.18}{\ignorespaces Un générateur de pulsation}}{130}{figure.caption.124}% 
\contentsline {figure}{\numberline {\relax 4.19}{\ignorespaces Le circuit logique d'une flip-flop.\relax }}{131}{figure.caption.127}% 
\contentsline {figure}{\numberline {\relax 4.20}{\ignorespaces Une flip-flop, avec ses deux entrées $D$ et horloge, et ses deux sorties $Q$ et $\overline {Q}$.\relax }}{131}{figure.caption.128}% 
\contentsline {figure}{\numberline {\relax 4.21}{\ignorespaces Mémoire: lecture du bit $i$ parmi 4 adresses.\relax }}{133}{figure.caption.129}% 
\contentsline {figure}{\numberline {\relax 4.22}{\ignorespaces Mémoire: écriture d'un bit $i$ parmi 4 adresses.\relax }}{134}{figure.caption.130}% 
\contentsline {figure}{\numberline {\relax 4.23}{\ignorespaces Une mémoire de 4 mots de 3 bits.\relax }}{135}{figure.caption.131}% 
\addvspace {10\p@ }
\contentsline {figure}{\numberline {\relax 5.1}{\ignorespaces Ferranti Mark 1 et IBM System/360}}{141}{figure.caption.133}% 
\contentsline {figure}{\numberline {\relax 5.2}{\ignorespaces Le chemin des données du Mic1}}{142}{figure.caption.135}% 
\contentsline {figure}{\numberline {\relax 5.3}{\ignorespaces Un exemple de programme en \textsc {ijvm}\xspace , qui calcule la somme de trois nombres, et son effet sur la pile.\relax }}{149}{figure.caption.139}% 
\contentsline {figure}{\numberline {\relax 5.4}{\ignorespaces Un exemple de programme en \textsc {ijvm}\xspace , qui teste si les deux nombres au sommet de la pile sont égaux, et \textit {push} un 1 si c'est le cas; un 0 dans le cas contraire.\relax }}{150}{figure.caption.140}% 
\contentsline {figure}{\numberline {\relax 5.5}{\ignorespaces Structure de l'interpréteur \textsc {ijvm}\xspace .\relax }}{153}{figure.caption.142}% 
\contentsline {figure}{\numberline {\relax 5.6}{\ignorespaces Une illustration de la pile en mémoire, et des registres correspondants.\relax }}{154}{figure.caption.143}% 
\contentsline {figure}{\numberline {\relax 5.7}{\ignorespaces L'interpréteur \textsc {ijvm}\xspace .\relax }}{156}{figure.caption.144}% 
\contentsline {figure}{\numberline {\relax 5.8}{\ignorespaces Le Mic1 complet}}{159}{figure.caption.151}% 
\contentsline {figure}{\numberline {\relax 5.9}{\ignorespaces Le format binaire des microinstructions.\relax }}{161}{figure.caption.152}% 
\addvspace {10\p@ }
\contentsline {figure}{\numberline {\relax 6.1}{\ignorespaces Instructions du 6502}}{172}{figure.caption.157}% 
\contentsline {figure}{\numberline {\relax 6.2}{\ignorespaces Calcul de $b^2-4ac$ en langage machine i486.\relax }}{173}{figure.caption.160}% 
\contentsline {figure}{\numberline {\relax 6.3}{\ignorespaces Un <<~if~>> \textsc {Python} en langage machine}}{174}{figure.caption.162}% 
\contentsline {figure}{\numberline {\relax 6.4}{\ignorespaces Appels de procédures en langage machine.}}{175}{figure.caption.164}% 
\contentsline {figure}{\numberline {\relax 6.5}{\ignorespaces Boucle en langage machine.}}{176}{figure.caption.166}% 
\contentsline {figure}{\numberline {\relax 6.6}{\ignorespaces Exemples d'adressage}}{182}{figure.caption.172}% 
\addvspace {10\p@ }
\contentsline {figure}{\numberline {\relax 7.1}{\ignorespaces Lecture sur périphérique: sans DMA et sans interruption\relax }}{186}{figure.caption.175}% 
\contentsline {figure}{\numberline {\relax 7.2}{\ignorespaces Lecture sur périphérique, avec le mécanisme d'interruption.\relax }}{187}{figure.caption.176}% 
\contentsline {figure}{\numberline {\relax 7.3}{\ignorespaces La boucle d'interprétation du CPU avec le mécanisme d'interruption.\relax }}{190}{figure.caption.177}% 
\contentsline {figure}{\numberline {\relax 7.4}{\ignorespaces Exemple d'interruption (1). Situation initiale: on vient d'exécuter l'instruction à l'adresse 256, et on s'apprête à prendre en compte la demande d'interruption. L'interruption aura donc lieu entre les instructions aux adresses 256 et 257.\relax }}{193}{figure.caption.178}% 
\contentsline {figure}{\numberline {\relax 7.5}{\ignorespaces Exemple d'interruption (2). Situation juste avant d'exécuter le gestionnaire d'interruption.\relax }}{194}{figure.caption.179}% 
\contentsline {figure}{\numberline {\relax 7.6}{\ignorespaces Exemple d'interruption (3). Situation après l'exécution de l'instruction à l'adresse 2048.\relax }}{195}{figure.caption.180}% 
\contentsline {figure}{\numberline {\relax 7.7}{\ignorespaces Exemple d'interruption (4). Situation juste avant d'exécuter l'instruction à l'adresse 2051.\relax }}{196}{figure.caption.181}% 
\contentsline {figure}{\numberline {\relax 7.8}{\ignorespaces Exemple d'interruption (5). Situation juste après l'exécution de l'instruction de restauration à l'adresse 2051, avant l'exécution de l'IRET à l'adresse 2052.\relax }}{197}{figure.caption.182}% 
\contentsline {figure}{\numberline {\relax 7.9}{\ignorespaces Exemple d'interruption (6). Situation après l'exécution de l'IRET: le programme interrompu reprend son exécution normalement.\relax }}{198}{figure.caption.183}% 
\addvspace {10\p@ }
\contentsline {figure}{\numberline {\relax 8.1}{\ignorespaces Exemple de programme Python manipulant in fichier}}{206}{figure.caption.191}% 
\addvspace {10\p@ }
\addvspace {10\p@ }
