\relax 
\providecommand\hyper@newdestlabel[2]{}
\@writefile{toc}{\contentsline {chapter}{\numberline {7}Leçon 14 -- Le mécanisme d'interruption}{185}{chapter.7}\protected@file@percent }
\@writefile{lof}{\addvspace {10\p@ }}
\@writefile{lot}{\addvspace {10\p@ }}
\@writefile{lol}{\addvspace {10\p@ }}
\newlabel{cha:interr}{{7}{185}{Leçon 14 -- Le mécanisme d'interruption}{chapter.7}{}}
\@writefile{toc}{\contentsline {section}{\numberline {7.1}Exemple introductif}{185}{section.7.1}\protected@file@percent }
\newlabel{item:1}{{1}{185}{Exemple introductif}{Item.153}{}}
\@writefile{lof}{\contentsline {figure}{\numberline {\relax 7.1}{\ignorespaces Lecture sur périphérique: sans DMA et sans interruption\relax }}{186}{figure.caption.175}\protected@file@percent }
\newlabel{fig:int-ex-1}{{\relax 7.1}{186}{Lecture sur périphérique: sans DMA et sans interruption\relax }{figure.caption.175}{}}
\@writefile{lof}{\contentsline {figure}{\numberline {\relax 7.2}{\ignorespaces Lecture sur périphérique, avec le mécanisme d'interruption.\relax }}{187}{figure.caption.176}\protected@file@percent }
\newlabel{fig:lecture-avec-inter}{{\relax 7.2}{187}{Lecture sur périphérique, avec le mécanisme d'interruption.\relax }{figure.caption.176}{}}
\@writefile{toc}{\contentsline {section}{\numberline {7.2}Déroulement d'une interruption}{187}{section.7.2}\protected@file@percent }
\@writefile{toc}{\contentsline {subsection}{\numberline {7.2.1}Interruption interruptibles ?}{188}{subsection.7.2.1}\protected@file@percent }
\@writefile{toc}{\contentsline {subsection}{\numberline {7.2.2}Boucle d'interprétation modifiée}{188}{subsection.7.2.2}\protected@file@percent }
\@writefile{toc}{\contentsline {subsection}{\numberline {7.2.3}Retour d'une interruption}{189}{subsection.7.2.3}\protected@file@percent }
\@writefile{lof}{\contentsline {figure}{\numberline {\relax 7.3}{\ignorespaces La boucle d'interprétation du CPU avec le mécanisme d'interruption.\relax }}{190}{figure.caption.177}\protected@file@percent }
\newlabel{fig:boucleintinter}{{\relax 7.3}{190}{La boucle d'interprétation du CPU avec le mécanisme d'interruption.\relax }{figure.caption.177}{}}
\@writefile{toc}{\contentsline {subsection}{\numberline {7.2.4}Exemple}{191}{subsection.7.2.4}\protected@file@percent }
\@writefile{lof}{\contentsline {figure}{\numberline {\relax 7.4}{\ignorespaces Exemple d'interruption (1). Situation initiale: on vient d'exécuter l'instruction à l'adresse 256, et on s'apprête à prendre en compte la demande d'interruption. L'interruption aura donc lieu entre les instructions aux adresses 256 et 257.\relax }}{193}{figure.caption.178}\protected@file@percent }
\newlabel{fig:exint1}{{\relax 7.4}{193}{Exemple d'interruption (1). Situation initiale: on vient d'exécuter l'instruction à l'adresse 256, et on s'apprête à prendre en compte la demande d'interruption. L'interruption aura donc lieu entre les instructions aux adresses 256 et 257.\relax }{figure.caption.178}{}}
\@writefile{lof}{\contentsline {figure}{\numberline {\relax 7.5}{\ignorespaces Exemple d'interruption (2). Situation juste avant d'exécuter le gestionnaire d'interruption.\relax }}{194}{figure.caption.179}\protected@file@percent }
\newlabel{fig:exint2}{{\relax 7.5}{194}{Exemple d'interruption (2). Situation juste avant d'exécuter le gestionnaire d'interruption.\relax }{figure.caption.179}{}}
\@writefile{lof}{\contentsline {figure}{\numberline {\relax 7.6}{\ignorespaces Exemple d'interruption (3). Situation après l'exécution de l'instruction à l'adresse 2048.\relax }}{195}{figure.caption.180}\protected@file@percent }
\newlabel{fig:exint3}{{\relax 7.6}{195}{Exemple d'interruption (3). Situation après l'exécution de l'instruction à l'adresse 2048.\relax }{figure.caption.180}{}}
\@writefile{lof}{\contentsline {figure}{\numberline {\relax 7.7}{\ignorespaces Exemple d'interruption (4). Situation juste avant d'exécuter l'instruction à l'adresse 2051.\relax }}{196}{figure.caption.181}\protected@file@percent }
\newlabel{fig:exint4}{{\relax 7.7}{196}{Exemple d'interruption (4). Situation juste avant d'exécuter l'instruction à l'adresse 2051.\relax }{figure.caption.181}{}}
\@writefile{lof}{\contentsline {figure}{\numberline {\relax 7.8}{\ignorespaces Exemple d'interruption (5). Situation juste après l'exécution de l'instruction de restauration à l'adresse 2051, avant l'exécution de l'IRET à l'adresse 2052.\relax }}{197}{figure.caption.182}\protected@file@percent }
\newlabel{fig:exint5}{{\relax 7.8}{197}{Exemple d'interruption (5). Situation juste après l'exécution de l'instruction de restauration à l'adresse 2051, avant l'exécution de l'IRET à l'adresse 2052.\relax }{figure.caption.182}{}}
\@writefile{lof}{\contentsline {figure}{\numberline {\relax 7.9}{\ignorespaces Exemple d'interruption (6). Situation après l'exécution de l'IRET: le programme interrompu reprend son exécution normalement.\relax }}{198}{figure.caption.183}\protected@file@percent }
\newlabel{fig:exint6}{{\relax 7.9}{198}{Exemple d'interruption (6). Situation après l'exécution de l'IRET: le programme interrompu reprend son exécution normalement.\relax }{figure.caption.183}{}}
\@writefile{toc}{\contentsline {section}{\numberline {7.3}Applications du mécanisme d'interruption}{199}{section.7.3}\protected@file@percent }
\newlabel{sec:extensions-possibles}{{7.4}{199}{Extensions possibles}{section.7.4}{}}
\@writefile{toc}{\contentsline {section}{\numberline {7.4}Extensions possibles}{199}{section.7.4}\protected@file@percent }
\@writefile{toc}{\contentsline {paragraph}{\nonumberline Interruptions interruptibles}{199}{section*.184}\protected@file@percent }
\@writefile{toc}{\contentsline {paragraph}{\nonumberline Restauration des registres}{200}{section*.185}\protected@file@percent }
\@writefile{toc}{\contentsline {section}{\numberline {7.5}Cas de l'Intel 486DX}{200}{section.7.5}\protected@file@percent }
\@writefile{toc}{\contentsline {paragraph}{\nonumberline Interruptions}{200}{section*.186}\protected@file@percent }
\@writefile{toc}{\contentsline {paragraph}{\nonumberline Exceptions}{201}{section*.187}\protected@file@percent }
\@writefile{toc}{\contentsline {paragraph}{\nonumberline Table des vecteurs d'interruption}{201}{section*.188}\protected@file@percent }
\@writefile{toc}{\contentsline {paragraph}{\nonumberline Passage en mode maître}{201}{section*.189}\protected@file@percent }
\@writefile{toc}{\contentsline {paragraph}{\nonumberline Retour d'interruption}{202}{section*.190}\protected@file@percent }
\@setckpt{chapters/07-niveau2-interruptions}{
\setcounter{page}{203}
\setcounter{equation}{0}
\setcounter{enumi}{2}
\setcounter{enumii}{2}
\setcounter{enumiii}{0}
\setcounter{enumiv}{0}
\setcounter{footnote}{3}
\setcounter{mpfootnote}{0}
\setcounter{part}{4}
\setcounter{chapter}{7}
\setcounter{section}{5}
\setcounter{subsection}{0}
\setcounter{subsubsection}{0}
\setcounter{paragraph}{0}
\setcounter{subparagraph}{0}
\setcounter{figure}{9}
\setcounter{table}{0}
\setcounter{FBcaption@count}{0}
\setcounter{parentequation}{0}
\setcounter{lstnumber}{1}
\setcounter{exo}{0}
\setcounter{exercice}{0}
\setcounter{questnum}{0}
\setcounter{Item}{173}
\setcounter{Hfootnote}{106}
\setcounter{Hy@AnnotLevel}{0}
\setcounter{bookmark@seq@number}{0}
\setcounter{r@tfl@t}{4}
\setcounter{tabx@nest}{0}
\setcounter{listtotal}{0}
\setcounter{listcount}{0}
\setcounter{liststart}{0}
\setcounter{liststop}{0}
\setcounter{citecount}{0}
\setcounter{citetotal}{0}
\setcounter{multicitecount}{0}
\setcounter{multicitetotal}{0}
\setcounter{instcount}{61}
\setcounter{maxnames}{3}
\setcounter{minnames}{1}
\setcounter{maxitems}{3}
\setcounter{minitems}{1}
\setcounter{citecounter}{0}
\setcounter{maxcitecounter}{0}
\setcounter{savedcitecounter}{0}
\setcounter{uniquelist}{0}
\setcounter{uniquename}{0}
\setcounter{refsection}{0}
\setcounter{refsegment}{0}
\setcounter{maxextratitle}{0}
\setcounter{maxextratitleyear}{0}
\setcounter{maxextraname}{2}
\setcounter{maxextradate}{0}
\setcounter{maxextraalpha}{0}
\setcounter{abbrvpenalty}{50}
\setcounter{highnamepenalty}{50}
\setcounter{lownamepenalty}{25}
\setcounter{maxparens}{3}
\setcounter{parenlevel}{0}
\setcounter{mincomprange}{10}
\setcounter{maxcomprange}{100000}
\setcounter{mincompwidth}{1}
\setcounter{afterword}{0}
\setcounter{savedafterword}{0}
\setcounter{annotator}{0}
\setcounter{savedannotator}{0}
\setcounter{author}{0}
\setcounter{savedauthor}{0}
\setcounter{bookauthor}{0}
\setcounter{savedbookauthor}{0}
\setcounter{commentator}{0}
\setcounter{savedcommentator}{0}
\setcounter{editor}{0}
\setcounter{savededitor}{0}
\setcounter{editora}{0}
\setcounter{savededitora}{0}
\setcounter{editorb}{0}
\setcounter{savededitorb}{0}
\setcounter{editorc}{0}
\setcounter{savededitorc}{0}
\setcounter{foreword}{0}
\setcounter{savedforeword}{0}
\setcounter{holder}{0}
\setcounter{savedholder}{0}
\setcounter{introduction}{0}
\setcounter{savedintroduction}{0}
\setcounter{namea}{0}
\setcounter{savednamea}{0}
\setcounter{nameb}{0}
\setcounter{savednameb}{0}
\setcounter{namec}{0}
\setcounter{savednamec}{0}
\setcounter{translator}{0}
\setcounter{savedtranslator}{0}
\setcounter{shortauthor}{0}
\setcounter{savedshortauthor}{0}
\setcounter{shorteditor}{0}
\setcounter{savedshorteditor}{0}
\setcounter{labelname}{0}
\setcounter{savedlabelname}{0}
\setcounter{institution}{0}
\setcounter{savedinstitution}{0}
\setcounter{lista}{0}
\setcounter{savedlista}{0}
\setcounter{listb}{0}
\setcounter{savedlistb}{0}
\setcounter{listc}{0}
\setcounter{savedlistc}{0}
\setcounter{listd}{0}
\setcounter{savedlistd}{0}
\setcounter{liste}{0}
\setcounter{savedliste}{0}
\setcounter{listf}{0}
\setcounter{savedlistf}{0}
\setcounter{location}{0}
\setcounter{savedlocation}{0}
\setcounter{organization}{0}
\setcounter{savedorganization}{0}
\setcounter{origlocation}{0}
\setcounter{savedoriglocation}{0}
\setcounter{origpublisher}{0}
\setcounter{savedorigpublisher}{0}
\setcounter{publisher}{0}
\setcounter{savedpublisher}{0}
\setcounter{language}{0}
\setcounter{savedlanguage}{0}
\setcounter{origlanguage}{0}
\setcounter{savedoriglanguage}{0}
\setcounter{pageref}{0}
\setcounter{savedpageref}{0}
\setcounter{textcitecount}{0}
\setcounter{textcitetotal}{0}
\setcounter{textcitemaxnames}{0}
\setcounter{biburlnumpenalty}{0}
\setcounter{biburlucpenalty}{0}
\setcounter{biburllcpenalty}{0}
\setcounter{smartand}{1}
\setcounter{bbx:relatedcount}{0}
\setcounter{bbx:relatedtotal}{0}
\setcounter{ifsymcnt}{0}
\setcounter{caption@flags}{0}
\setcounter{ContinuedFloat}{0}
\setcounter{@todonotes@numberoftodonotes}{0}
\setcounter{tikztiming@nrows}{3}
\setcounter{tikztimingrows}{0}
\setcounter{tikztimingtrans}{-1}
\setcounter{tikztimingtranspos}{0}
\setcounter{theorem}{1}
\setcounter{lstlisting}{0}
\setcounter{section@level}{4}
}
